EESchema Schematic File Version 4
LIBS:ECU-cache
EELAYER 29 0
EELAYER END
$Descr A4 11693 8268
encoding utf-8
Sheet 3 6
Title ""
Date ""
Rev ""
Comp ""
Comment1 ""
Comment2 ""
Comment3 ""
Comment4 ""
$EndDescr
$Comp
L Device:R R?
U 1 1 5EDFD095
P 7650 3600
AR Path="/5ED62633/5EDFD095" Ref="R?"  Part="1" 
AR Path="/5EDF4185/5EDFD095" Ref="R412"  Part="1" 
F 0 "R412" H 7720 3646 50  0000 L CNN
F 1 "10k" H 7720 3555 50  0000 L CNN
F 2 "Resistor_SMD:R_0603_1608Metric" V 7580 3600 50  0001 C CNN
F 3 "~" H 7650 3600 50  0001 C CNN
	1    7650 3600
	1    0    0    -1  
$EndComp
Wire Wire Line
	7750 3450 7650 3450
Wire Wire Line
	7650 3750 7950 3750
$Comp
L Transistor_FET:2N7002K Q?
U 1 1 5EDFD09D
P 7550 3950
AR Path="/5ED62633/5EDFD09D" Ref="Q?"  Part="1" 
AR Path="/5EDF4185/5EDFD09D" Ref="Q410"  Part="1" 
F 0 "Q410" H 7756 3996 50  0000 L CNN
F 1 "2N7002K" H 7756 3905 50  0000 L CNN
F 2 "Package_TO_SOT_SMD:SOT-23" H 7750 3875 50  0001 L CIN
F 3 "https://www.diodes.com/assets/Datasheets/ds30896.pdf" H 7550 3950 50  0001 L CNN
	1    7550 3950
	1    0    0    -1  
$EndComp
$Comp
L Device:R R?
U 1 1 5EDFD0A4
P 7350 3800
AR Path="/5ED62633/5EDFD0A4" Ref="R?"  Part="1" 
AR Path="/5EDF4185/5EDFD0A4" Ref="R410"  Part="1" 
F 0 "R410" H 7420 3846 50  0000 L CNN
F 1 "1k" H 7420 3755 50  0000 L CNN
F 2 "Resistor_SMD:R_0603_1608Metric" V 7280 3800 50  0001 C CNN
F 3 "~" H 7350 3800 50  0001 C CNN
	1    7350 3800
	1    0    0    -1  
$EndComp
$Comp
L power:GND #PWR?
U 1 1 5EDFD0AA
P 7650 4150
AR Path="/5ED62633/5EDFD0AA" Ref="#PWR?"  Part="1" 
AR Path="/5EDF4185/5EDFD0AA" Ref="#PWR0157"  Part="1" 
F 0 "#PWR0157" H 7650 3900 50  0001 C CNN
F 1 "GND" H 7655 3977 50  0000 C CNN
F 2 "" H 7650 4150 50  0001 C CNN
F 3 "" H 7650 4150 50  0001 C CNN
	1    7650 4150
	1    0    0    -1  
$EndComp
Text HLabel 7350 3650 0    50   Input ~ 0
SPARE_2
$Comp
L Device:R R?
U 1 1 5EDFD60F
P 7650 2350
AR Path="/5ED62633/5EDFD60F" Ref="R?"  Part="1" 
AR Path="/5EDF4185/5EDFD60F" Ref="R411"  Part="1" 
F 0 "R411" H 7720 2396 50  0000 L CNN
F 1 "10k" H 7720 2305 50  0000 L CNN
F 2 "Resistor_SMD:R_0603_1608Metric" V 7580 2350 50  0001 C CNN
F 3 "~" H 7650 2350 50  0001 C CNN
	1    7650 2350
	1    0    0    -1  
$EndComp
Wire Wire Line
	7750 2200 7650 2200
Wire Wire Line
	7650 2500 7950 2500
$Comp
L Transistor_FET:2N7002K Q?
U 1 1 5EDFD61B
P 7550 2700
AR Path="/5ED62633/5EDFD61B" Ref="Q?"  Part="1" 
AR Path="/5EDF4185/5EDFD61B" Ref="Q409"  Part="1" 
F 0 "Q409" H 7756 2746 50  0000 L CNN
F 1 "2N7002K" H 7756 2655 50  0000 L CNN
F 2 "Package_TO_SOT_SMD:SOT-23" H 7750 2625 50  0001 L CIN
F 3 "https://www.diodes.com/assets/Datasheets/ds30896.pdf" H 7550 2700 50  0001 L CNN
	1    7550 2700
	1    0    0    -1  
$EndComp
$Comp
L Device:R R?
U 1 1 5EDFD626
P 7350 2550
AR Path="/5ED62633/5EDFD626" Ref="R?"  Part="1" 
AR Path="/5EDF4185/5EDFD626" Ref="R409"  Part="1" 
F 0 "R409" H 7420 2596 50  0000 L CNN
F 1 "1k" H 7420 2505 50  0000 L CNN
F 2 "Resistor_SMD:R_0603_1608Metric" V 7280 2550 50  0001 C CNN
F 3 "~" H 7350 2550 50  0001 C CNN
	1    7350 2550
	1    0    0    -1  
$EndComp
$Comp
L power:GND #PWR?
U 1 1 5EDFD630
P 7650 2900
AR Path="/5ED62633/5EDFD630" Ref="#PWR?"  Part="1" 
AR Path="/5EDF4185/5EDFD630" Ref="#PWR0159"  Part="1" 
F 0 "#PWR0159" H 7650 2650 50  0001 C CNN
F 1 "GND" H 7655 2727 50  0000 C CNN
F 2 "" H 7650 2900 50  0001 C CNN
F 3 "" H 7650 2900 50  0001 C CNN
	1    7650 2900
	1    0    0    -1  
$EndComp
Text HLabel 7350 2400 0    50   Input ~ 0
SPARE_1
$Comp
L power:GND #PWR?
U 1 1 5EE060BE
P 5350 4250
AR Path="/5ED62633/5EE060BE" Ref="#PWR?"  Part="1" 
AR Path="/5EDF4185/5EE060BE" Ref="#PWR0160"  Part="1" 
F 0 "#PWR0160" H 5350 4000 50  0001 C CNN
F 1 "GND" H 5355 4077 50  0000 C CNN
F 2 "" H 5350 4250 50  0001 C CNN
F 3 "" H 5350 4250 50  0001 C CNN
	1    5350 4250
	1    0    0    -1  
$EndComp
$Comp
L Device:R R?
U 1 1 5EE060D4
P 4550 3600
AR Path="/5ED62633/5EE060D4" Ref="R?"  Part="1" 
AR Path="/5EDF4185/5EE060D4" Ref="R406"  Part="1" 
F 0 "R406" H 4620 3646 50  0000 L CNN
F 1 "10k" H 4620 3555 50  0000 L CNN
F 2 "Resistor_SMD:R_0603_1608Metric" V 4480 3600 50  0001 C CNN
F 3 "~" H 4550 3600 50  0001 C CNN
	1    4550 3600
	1    0    0    -1  
$EndComp
Wire Wire Line
	4650 3450 4550 3450
Wire Wire Line
	4550 3750 4850 3750
$Comp
L Device:R R?
U 1 1 5EE060EB
P 4250 3800
AR Path="/5ED62633/5EE060EB" Ref="R?"  Part="1" 
AR Path="/5EDF4185/5EE060EB" Ref="R402"  Part="1" 
F 0 "R402" H 4320 3846 50  0000 L CNN
F 1 "1k" H 4320 3755 50  0000 L CNN
F 2 "Resistor_SMD:R_0603_1608Metric" V 4180 3800 50  0001 C CNN
F 3 "~" H 4250 3800 50  0001 C CNN
	1    4250 3800
	1    0    0    -1  
$EndComp
$Comp
L power:GND #PWR?
U 1 1 5EE060F5
P 4550 4150
AR Path="/5ED62633/5EE060F5" Ref="#PWR?"  Part="1" 
AR Path="/5EDF4185/5EE060F5" Ref="#PWR0161"  Part="1" 
F 0 "#PWR0161" H 4550 3900 50  0001 C CNN
F 1 "GND" H 4555 3977 50  0000 C CNN
F 2 "" H 4550 4150 50  0001 C CNN
F 3 "" H 4550 4150 50  0001 C CNN
	1    4550 4150
	1    0    0    -1  
$EndComp
Text HLabel 4250 3650 0    50   Input ~ 0
CHARGE
$Comp
L Device:R R?
U 1 1 5EE06120
P 4550 2400
AR Path="/5ED62633/5EE06120" Ref="R?"  Part="1" 
AR Path="/5EDF4185/5EE06120" Ref="R405"  Part="1" 
F 0 "R405" H 4620 2446 50  0000 L CNN
F 1 "10k" H 4620 2355 50  0000 L CNN
F 2 "Resistor_SMD:R_0603_1608Metric" V 4480 2400 50  0001 C CNN
F 3 "~" H 4550 2400 50  0001 C CNN
	1    4550 2400
	1    0    0    -1  
$EndComp
$Comp
L Transistor_FET:2N7002K Q?
U 1 1 5EE0612C
P 4450 2750
AR Path="/5ED62633/5EE0612C" Ref="Q?"  Part="1" 
AR Path="/5EDF4185/5EE0612C" Ref="Q401"  Part="1" 
F 0 "Q401" H 4656 2796 50  0000 L CNN
F 1 "2N7002K" H 4656 2705 50  0000 L CNN
F 2 "Package_TO_SOT_SMD:SOT-23" H 4650 2675 50  0001 L CIN
F 3 "https://www.diodes.com/assets/Datasheets/ds30896.pdf" H 4450 2750 50  0001 L CNN
	1    4450 2750
	1    0    0    -1  
$EndComp
$Comp
L Device:R R?
U 1 1 5EE06137
P 4250 2600
AR Path="/5ED62633/5EE06137" Ref="R?"  Part="1" 
AR Path="/5EDF4185/5EE06137" Ref="R401"  Part="1" 
F 0 "R401" H 4320 2646 50  0000 L CNN
F 1 "1k" H 4320 2555 50  0000 L CNN
F 2 "Resistor_SMD:R_0603_1608Metric" V 4180 2600 50  0001 C CNN
F 3 "~" H 4250 2600 50  0001 C CNN
	1    4250 2600
	1    0    0    -1  
$EndComp
$Comp
L power:GND #PWR?
U 1 1 5EE06141
P 4550 2950
AR Path="/5ED62633/5EE06141" Ref="#PWR?"  Part="1" 
AR Path="/5EDF4185/5EE06141" Ref="#PWR0163"  Part="1" 
F 0 "#PWR0163" H 4550 2700 50  0001 C CNN
F 1 "GND" H 4555 2777 50  0000 C CNN
F 2 "" H 4550 2950 50  0001 C CNN
F 3 "" H 4550 2950 50  0001 C CNN
	1    4550 2950
	1    0    0    -1  
$EndComp
Text HLabel 4250 2450 0    50   Input ~ 0
MAIN
$Comp
L Device:R R?
U 1 1 5EE12C92
P 7650 4850
AR Path="/5ED62633/5EE12C92" Ref="R?"  Part="1" 
AR Path="/5EDF4185/5EE12C92" Ref="R408"  Part="1" 
F 0 "R408" H 7720 4896 50  0000 L CNN
F 1 "10k" H 7720 4805 50  0000 L CNN
F 2 "Resistor_SMD:R_0603_1608Metric" V 7580 4850 50  0001 C CNN
F 3 "~" H 7650 4850 50  0001 C CNN
	1    7650 4850
	1    0    0    -1  
$EndComp
Wire Wire Line
	7750 4700 7650 4700
Wire Wire Line
	7650 5000 7950 5000
$Comp
L Transistor_FET:2N7002K Q?
U 1 1 5EE12C9E
P 7550 5200
AR Path="/5ED62633/5EE12C9E" Ref="Q?"  Part="1" 
AR Path="/5EDF4185/5EE12C9E" Ref="Q404"  Part="1" 
F 0 "Q404" H 7756 5246 50  0000 L CNN
F 1 "2N7002K" H 7756 5155 50  0000 L CNN
F 2 "Package_TO_SOT_SMD:SOT-23" H 7750 5125 50  0001 L CIN
F 3 "https://www.diodes.com/assets/Datasheets/ds30896.pdf" H 7550 5200 50  0001 L CNN
	1    7550 5200
	1    0    0    -1  
$EndComp
$Comp
L Device:R R?
U 1 1 5EE12CA9
P 7350 5050
AR Path="/5ED62633/5EE12CA9" Ref="R?"  Part="1" 
AR Path="/5EDF4185/5EE12CA9" Ref="R404"  Part="1" 
F 0 "R404" H 7420 5096 50  0000 L CNN
F 1 "1k" H 7420 5005 50  0000 L CNN
F 2 "Resistor_SMD:R_0603_1608Metric" V 7280 5050 50  0001 C CNN
F 3 "~" H 7350 5050 50  0001 C CNN
	1    7350 5050
	1    0    0    -1  
$EndComp
$Comp
L power:GND #PWR?
U 1 1 5EE12CB3
P 7650 5400
AR Path="/5ED62633/5EE12CB3" Ref="#PWR?"  Part="1" 
AR Path="/5EDF4185/5EE12CB3" Ref="#PWR0165"  Part="1" 
F 0 "#PWR0165" H 7650 5150 50  0001 C CNN
F 1 "GND" H 7655 5227 50  0000 C CNN
F 2 "" H 7650 5400 50  0001 C CNN
F 3 "" H 7650 5400 50  0001 C CNN
	1    7650 5400
	1    0    0    -1  
$EndComp
Text HLabel 7350 4900 0    50   Input ~ 0
DCDC
$Comp
L power:GND #PWR?
U 1 1 5EE12CC8
P 5350 5000
AR Path="/5ED62633/5EE12CC8" Ref="#PWR?"  Part="1" 
AR Path="/5EDF4185/5EE12CC8" Ref="#PWR0166"  Part="1" 
F 0 "#PWR0166" H 5350 4750 50  0001 C CNN
F 1 "GND" H 5355 4827 50  0000 C CNN
F 2 "" H 5350 5000 50  0001 C CNN
F 3 "" H 5350 5000 50  0001 C CNN
	1    5350 5000
	1    0    0    -1  
$EndComp
$Comp
L Device:R R?
U 1 1 5EE12CDE
P 4550 4850
AR Path="/5ED62633/5EE12CDE" Ref="R?"  Part="1" 
AR Path="/5EDF4185/5EE12CDE" Ref="R407"  Part="1" 
F 0 "R407" H 4620 4896 50  0000 L CNN
F 1 "10k" H 4620 4805 50  0000 L CNN
F 2 "Resistor_SMD:R_0603_1608Metric" V 4480 4850 50  0001 C CNN
F 3 "~" H 4550 4850 50  0001 C CNN
	1    4550 4850
	1    0    0    -1  
$EndComp
Wire Wire Line
	4650 4700 4550 4700
Wire Wire Line
	4550 5000 4850 5000
$Comp
L Transistor_FET:2N7002K Q?
U 1 1 5EE12CEA
P 4450 5200
AR Path="/5ED62633/5EE12CEA" Ref="Q?"  Part="1" 
AR Path="/5EDF4185/5EE12CEA" Ref="Q403"  Part="1" 
F 0 "Q403" H 4656 5246 50  0000 L CNN
F 1 "2N7002K" H 4656 5155 50  0000 L CNN
F 2 "Package_TO_SOT_SMD:SOT-23" H 4650 5125 50  0001 L CIN
F 3 "https://www.diodes.com/assets/Datasheets/ds30896.pdf" H 4450 5200 50  0001 L CNN
	1    4450 5200
	1    0    0    -1  
$EndComp
$Comp
L Device:R R?
U 1 1 5EE12CF5
P 4250 5050
AR Path="/5ED62633/5EE12CF5" Ref="R?"  Part="1" 
AR Path="/5EDF4185/5EE12CF5" Ref="R403"  Part="1" 
F 0 "R403" H 4320 5096 50  0000 L CNN
F 1 "1k" H 4320 5005 50  0000 L CNN
F 2 "Resistor_SMD:R_0603_1608Metric" V 4180 5050 50  0001 C CNN
F 3 "~" H 4250 5050 50  0001 C CNN
	1    4250 5050
	1    0    0    -1  
$EndComp
$Comp
L power:GND #PWR?
U 1 1 5EE12CFF
P 4550 5400
AR Path="/5ED62633/5EE12CFF" Ref="#PWR?"  Part="1" 
AR Path="/5EDF4185/5EE12CFF" Ref="#PWR0167"  Part="1" 
F 0 "#PWR0167" H 4550 5150 50  0001 C CNN
F 1 "GND" H 4555 5227 50  0000 C CNN
F 2 "" H 4550 5400 50  0001 C CNN
F 3 "" H 4550 5400 50  0001 C CNN
	1    4550 5400
	1    0    0    -1  
$EndComp
Text HLabel 4250 4900 0    50   Input ~ 0
PRE_CHARGE
$Comp
L Device:D D402
U 1 1 5EE34E5F
P 5350 4100
F 0 "D402" V 5300 4250 50  0000 R CNN
F 1 "D" V 5400 4250 50  0000 R CNN
F 2 "Diode_SMD:D_SMA" H 5350 4100 50  0001 C CNN
F 3 "~" H 5350 4100 50  0001 C CNN
	1    5350 4100
	0    -1   1    0   
$EndComp
$Comp
L Device:D D403
U 1 1 5EE3D729
P 5350 4850
F 0 "D403" V 5300 5000 50  0000 R CNN
F 1 "D" V 5400 5000 50  0000 R CNN
F 2 "Diode_SMD:D_SMA" H 5350 4850 50  0001 C CNN
F 3 "~" H 5350 4850 50  0001 C CNN
	1    5350 4850
	0    -1   1    0   
$EndComp
$Comp
L power:GND #PWR?
U 1 1 5EE40A15
P 3150 2600
AR Path="/5ED62633/5EE40A15" Ref="#PWR?"  Part="1" 
AR Path="/5EDF4185/5EE40A15" Ref="#PWR0174"  Part="1" 
F 0 "#PWR0174" H 3150 2350 50  0001 C CNN
F 1 "GND" H 3155 2427 50  0000 C CNN
F 2 "" H 3150 2600 50  0001 C CNN
F 3 "" H 3150 2600 50  0001 C CNN
	1    3150 2600
	1    0    0    -1  
$EndComp
$Comp
L Device:CP C403
U 1 1 5EE42D01
P 3150 2150
F 0 "C403" H 3268 2196 50  0000 L CNN
F 1 "CP" H 3268 2105 50  0000 L CNN
F 2 "Capacitor_SMD:CP_Elec_8x10.5" H 3188 2000 50  0001 C CNN
F 3 "~" H 3150 2150 50  0001 C CNN
	1    3150 2150
	1    0    0    -1  
$EndComp
$Comp
L Device:CP C402
U 1 1 5EE4379D
P 2800 2150
F 0 "C402" H 2918 2196 50  0000 L CNN
F 1 "CP" H 2918 2105 50  0000 L CNN
F 2 "Capacitor_SMD:CP_Elec_8x10.5" H 2838 2000 50  0001 C CNN
F 3 "~" H 2800 2150 50  0001 C CNN
	1    2800 2150
	1    0    0    -1  
$EndComp
Wire Wire Line
	3150 2300 3150 2600
Connection ~ 3150 2300
Wire Wire Line
	2800 2300 3150 2300
Wire Wire Line
	2800 2000 3150 2000
$Comp
L power:+BATT #PWR0185
U 1 1 5EEB5DB0
P 4550 2250
F 0 "#PWR0185" H 4550 2100 50  0001 C CNN
F 1 "+BATT" H 4565 2423 50  0000 C CNN
F 2 "" H 4550 2250 50  0001 C CNN
F 3 "" H 4550 2250 50  0001 C CNN
	1    4550 2250
	1    0    0    -1  
$EndComp
Connection ~ 4550 2250
$Comp
L power:+BATT #PWR0186
U 1 1 5EEB71EC
P 4550 3450
F 0 "#PWR0186" H 4550 3300 50  0001 C CNN
F 1 "+BATT" H 4565 3623 50  0000 C CNN
F 2 "" H 4550 3450 50  0001 C CNN
F 3 "" H 4550 3450 50  0001 C CNN
	1    4550 3450
	1    0    0    -1  
$EndComp
Connection ~ 4550 3450
$Comp
L power:+BATT #PWR0187
U 1 1 5EEB7D67
P 7650 2200
F 0 "#PWR0187" H 7650 2050 50  0001 C CNN
F 1 "+BATT" H 7665 2373 50  0000 C CNN
F 2 "" H 7650 2200 50  0001 C CNN
F 3 "" H 7650 2200 50  0001 C CNN
	1    7650 2200
	1    0    0    -1  
$EndComp
Connection ~ 7650 2200
$Comp
L power:+BATT #PWR0188
U 1 1 5EEB8A75
P 7650 3450
F 0 "#PWR0188" H 7650 3300 50  0001 C CNN
F 1 "+BATT" H 7665 3623 50  0000 C CNN
F 2 "" H 7650 3450 50  0001 C CNN
F 3 "" H 7650 3450 50  0001 C CNN
	1    7650 3450
	1    0    0    -1  
$EndComp
Connection ~ 7650 3450
$Comp
L power:+BATT #PWR0189
U 1 1 5EEB91A9
P 4550 4700
F 0 "#PWR0189" H 4550 4550 50  0001 C CNN
F 1 "+BATT" H 4565 4873 50  0000 C CNN
F 2 "" H 4550 4700 50  0001 C CNN
F 3 "" H 4550 4700 50  0001 C CNN
	1    4550 4700
	1    0    0    -1  
$EndComp
Connection ~ 4550 4700
$Comp
L power:+BATT #PWR0190
U 1 1 5EEBA10B
P 7650 4700
F 0 "#PWR0190" H 7650 4550 50  0001 C CNN
F 1 "+BATT" H 7665 4873 50  0000 C CNN
F 2 "" H 7650 4700 50  0001 C CNN
F 3 "" H 7650 4700 50  0001 C CNN
	1    7650 4700
	1    0    0    -1  
$EndComp
Connection ~ 7650 4700
$Comp
L power:+BATT #PWR0191
U 1 1 5EEBA993
P 3150 2000
F 0 "#PWR0191" H 3150 1850 50  0001 C CNN
F 1 "+BATT" H 3165 2173 50  0000 C CNN
F 2 "" H 3150 2000 50  0001 C CNN
F 3 "" H 3150 2000 50  0001 C CNN
	1    3150 2000
	1    0    0    -1  
$EndComp
Connection ~ 3150 2000
$Comp
L Transistor_FET:2N7002K Q?
U 1 1 5EE060E0
P 4450 3950
AR Path="/5ED62633/5EE060E0" Ref="Q?"  Part="1" 
AR Path="/5EDF4185/5EE060E0" Ref="Q402"  Part="1" 
F 0 "Q402" H 4656 3996 50  0000 L CNN
F 1 "2N7002K" H 4656 3905 50  0000 L CNN
F 2 "Package_TO_SOT_SMD:SOT-23" H 4650 3875 50  0001 L CIN
F 3 "https://www.diodes.com/assets/Datasheets/ds30896.pdf" H 4450 3950 50  0001 L CNN
	1    4450 3950
	1    0    0    -1  
$EndComp
$Comp
L Connector:Conn_01x06_Male J407
U 1 1 5EFC620E
P 1800 3750
F 0 "J407" H 1772 3632 50  0000 R CNN
F 1 "Conn_01x06_Male" H 1772 3723 50  0000 R CNN
F 2 "Connector_PinHeader_2.54mm:PinHeader_1x06_P2.54mm_Vertical" H 1800 3750 50  0001 C CNN
F 3 "~" H 1800 3750 50  0001 C CNN
	1    1800 3750
	1    0    0    1   
$EndComp
$Comp
L power:+5V #PWR0225
U 1 1 5EFCCAB0
P 2000 3450
F 0 "#PWR0225" H 2000 3300 50  0001 C CNN
F 1 "+5V" H 2015 3623 50  0000 C CNN
F 2 "" H 2000 3450 50  0001 C CNN
F 3 "" H 2000 3450 50  0001 C CNN
	1    2000 3450
	1    0    0    -1  
$EndComp
$Comp
L power:GND #PWR0226
U 1 1 5EFCE28A
P 2000 3950
F 0 "#PWR0226" H 2000 3700 50  0001 C CNN
F 1 "GND" H 2005 3777 50  0000 C CNN
F 2 "" H 2000 3950 50  0001 C CNN
F 3 "" H 2000 3950 50  0001 C CNN
	1    2000 3950
	1    0    0    -1  
$EndComp
Text HLabel 2000 3650 2    50   Input ~ 0
CHARGE
Text HLabel 2000 3850 2    50   Input ~ 0
MAIN
Text HLabel 2000 3750 2    50   Input ~ 0
PRE_CHARGE
Text HLabel 2000 3550 2    50   Input ~ 0
DCDC
$Comp
L Connector_Generic:Conn_02x03_Odd_Even J401
U 1 1 5F02D797
P 6000 3950
F 0 "J401" H 6050 4267 50  0000 C CNN
F 1 "Contactor_1" H 6050 4176 50  0000 C CNN
F 2 "Micromelon:MC34331" H 6000 3950 50  0001 C CNN
F 3 "~" H 6000 3950 50  0001 C CNN
	1    6000 3950
	1    0    0    1   
$EndComp
$Comp
L power:GND #PWR?
U 1 1 5F036ED2
P 6300 4050
AR Path="/5ED62633/5F036ED2" Ref="#PWR?"  Part="1" 
AR Path="/5EDF4185/5F036ED2" Ref="#PWR0228"  Part="1" 
F 0 "#PWR0228" H 6300 3800 50  0001 C CNN
F 1 "GND" H 6305 3877 50  0000 C CNN
F 2 "" H 6300 4050 50  0001 C CNN
F 3 "" H 6300 4050 50  0001 C CNN
	1    6300 4050
	1    0    0    -1  
$EndComp
Wire Wire Line
	6300 3850 6300 3950
Connection ~ 6300 4050
Connection ~ 6300 3950
Wire Wire Line
	6300 3950 6300 4050
Wire Wire Line
	5800 4700 5800 4050
Wire Wire Line
	5800 3850 5800 2700
$Comp
L Device:Fuse F402
U 1 1 5F020C03
P 5200 3450
F 0 "F402" V 5003 3450 50  0000 C CNN
F 1 "Charge" V 5094 3450 50  0000 C CNN
F 2 "Fuse:Fuseholder_Blade_Mini_Keystone_3568" V 5130 3450 50  0001 C CNN
F 3 "~" H 5200 3450 50  0001 C CNN
	1    5200 3450
	0    1    1    0   
$EndComp
$Comp
L Device:Fuse F403
U 1 1 5F022112
P 5200 4700
F 0 "F403" V 5003 4700 50  0000 C CNN
F 1 "Pre_Charge" V 5094 4700 50  0000 C CNN
F 2 "Fuse:Fuseholder_Blade_Mini_Keystone_3568" V 5130 4700 50  0001 C CNN
F 3 "~" H 5200 4700 50  0001 C CNN
	1    5200 4700
	0    1    1    0   
$EndComp
Wire Wire Line
	5350 4700 5800 4700
Connection ~ 5350 4700
Connection ~ 5350 3950
Wire Wire Line
	5350 3450 5350 3950
Wire Wire Line
	4650 2250 4550 2250
Wire Wire Line
	4550 2550 4850 2550
$Comp
L Device:Fuse F401
U 1 1 5F021DE7
P 5200 2250
F 0 "F401" V 5003 2250 50  0000 C CNN
F 1 "Main" V 5094 2250 50  0000 C CNN
F 2 "Fuse:Fuseholder_Blade_Mini_Keystone_3568" V 5130 2250 50  0001 C CNN
F 3 "~" H 5200 2250 50  0001 C CNN
	1    5200 2250
	0    1    1    0   
$EndComp
$Comp
L power:GND #PWR?
U 1 1 5EE0610A
P 5350 3000
AR Path="/5ED62633/5EE0610A" Ref="#PWR?"  Part="1" 
AR Path="/5EDF4185/5EE0610A" Ref="#PWR0162"  Part="1" 
F 0 "#PWR0162" H 5350 2750 50  0001 C CNN
F 1 "GND" H 5355 2827 50  0000 C CNN
F 2 "" H 5350 3000 50  0001 C CNN
F 3 "" H 5350 3000 50  0001 C CNN
	1    5350 3000
	1    0    0    -1  
$EndComp
Wire Wire Line
	5800 2700 5350 2700
Connection ~ 5350 2700
$Comp
L Device:D D401
U 1 1 5EE30F0A
P 5350 2850
F 0 "D401" V 5300 3000 50  0000 R CNN
F 1 "D" V 5400 3000 50  0000 R CNN
F 2 "Diode_SMD:D_SMA" H 5350 2850 50  0001 C CNN
F 3 "~" H 5350 2850 50  0001 C CNN
	1    5350 2850
	0    -1   1    0   
$EndComp
Wire Wire Line
	5350 2250 5350 2700
$Comp
L power:GND #PWR?
U 1 1 5F05EDCC
P 8450 4200
AR Path="/5ED62633/5F05EDCC" Ref="#PWR?"  Part="1" 
AR Path="/5EDF4185/5F05EDCC" Ref="#PWR0164"  Part="1" 
F 0 "#PWR0164" H 8450 3950 50  0001 C CNN
F 1 "GND" H 8455 4027 50  0000 C CNN
F 2 "" H 8450 4200 50  0001 C CNN
F 3 "" H 8450 4200 50  0001 C CNN
	1    8450 4200
	1    0    0    -1  
$EndComp
$Comp
L power:GND #PWR?
U 1 1 5F05EDD2
P 8450 5000
AR Path="/5ED62633/5F05EDD2" Ref="#PWR?"  Part="1" 
AR Path="/5EDF4185/5F05EDD2" Ref="#PWR0227"  Part="1" 
F 0 "#PWR0227" H 8450 4750 50  0001 C CNN
F 1 "GND" H 8455 4827 50  0000 C CNN
F 2 "" H 8450 5000 50  0001 C CNN
F 3 "" H 8450 5000 50  0001 C CNN
	1    8450 5000
	1    0    0    -1  
$EndComp
$Comp
L Device:D D405
U 1 1 5F05EDD8
P 8450 4050
F 0 "D405" V 8400 4200 50  0000 R CNN
F 1 "D" V 8500 4200 50  0000 R CNN
F 2 "Diode_SMD:D_SMA" H 8450 4050 50  0001 C CNN
F 3 "~" H 8450 4050 50  0001 C CNN
	1    8450 4050
	0    -1   1    0   
$EndComp
$Comp
L Device:D D406
U 1 1 5F05EDDE
P 8450 4850
F 0 "D406" V 8400 5000 50  0000 R CNN
F 1 "D" V 8500 5000 50  0000 R CNN
F 2 "Diode_SMD:D_SMA" H 8450 4850 50  0001 C CNN
F 3 "~" H 8450 4850 50  0001 C CNN
	1    8450 4850
	0    -1   1    0   
$EndComp
$Comp
L power:GND #PWR?
U 1 1 5F05EDEA
P 9400 4000
AR Path="/5ED62633/5F05EDEA" Ref="#PWR?"  Part="1" 
AR Path="/5EDF4185/5F05EDEA" Ref="#PWR0229"  Part="1" 
F 0 "#PWR0229" H 9400 3750 50  0001 C CNN
F 1 "GND" H 9405 3827 50  0000 C CNN
F 2 "" H 9400 4000 50  0001 C CNN
F 3 "" H 9400 4000 50  0001 C CNN
	1    9400 4000
	1    0    0    -1  
$EndComp
Wire Wire Line
	8900 4700 8900 4000
Wire Wire Line
	8900 3800 8900 2650
Wire Wire Line
	8450 4700 8900 4700
Connection ~ 8450 4700
Connection ~ 8450 3900
Wire Wire Line
	8450 3450 8450 3900
$Comp
L Device:Fuse F404
U 1 1 5F05EE09
P 8300 2200
F 0 "F404" V 8103 2200 50  0000 C CNN
F 1 "Spare" V 8194 2200 50  0000 C CNN
F 2 "Fuse:Fuseholder_Blade_Mini_Keystone_3568" V 8230 2200 50  0001 C CNN
F 3 "~" H 8300 2200 50  0001 C CNN
	1    8300 2200
	0    1    1    0   
$EndComp
$Comp
L power:GND #PWR?
U 1 1 5F05EE0F
P 8450 2950
AR Path="/5ED62633/5F05EE0F" Ref="#PWR?"  Part="1" 
AR Path="/5EDF4185/5F05EE0F" Ref="#PWR0230"  Part="1" 
F 0 "#PWR0230" H 8450 2700 50  0001 C CNN
F 1 "GND" H 8455 2777 50  0000 C CNN
F 2 "" H 8450 2950 50  0001 C CNN
F 3 "" H 8450 2950 50  0001 C CNN
	1    8450 2950
	1    0    0    -1  
$EndComp
Wire Wire Line
	8900 2650 8450 2650
Connection ~ 8450 2650
$Comp
L Device:D D404
U 1 1 5F05EE17
P 8450 2800
F 0 "D404" V 8400 2950 50  0000 R CNN
F 1 "D" V 8500 2950 50  0000 R CNN
F 2 "Diode_SMD:D_SMA" H 8450 2800 50  0001 C CNN
F 3 "~" H 8450 2800 50  0001 C CNN
	1    8450 2800
	0    -1   1    0   
$EndComp
Wire Wire Line
	8450 2200 8450 2650
Wire Wire Line
	8450 3900 8900 3900
Wire Wire Line
	5350 3950 5800 3950
Connection ~ 9400 3900
Connection ~ 9400 4000
Wire Wire Line
	9400 3900 9400 4000
Wire Wire Line
	9400 3800 9400 3900
$Comp
L Connector_Generic:Conn_02x03_Odd_Even J402
U 1 1 5F05EDE4
P 9100 3900
F 0 "J402" H 9150 4217 50  0000 C CNN
F 1 "Contactor_2" H 9150 4126 50  0000 C CNN
F 2 "Micromelon:MC34331" H 9100 3900 50  0001 C CNN
F 3 "~" H 9100 3900 50  0001 C CNN
	1    9100 3900
	1    0    0    1   
$EndComp
$Comp
L Device:Fuse F405
U 1 1 5F05EDF9
P 8300 3450
F 0 "F405" V 8103 3450 50  0000 C CNN
F 1 "Spare2" V 8194 3450 50  0000 C CNN
F 2 "Fuse:Fuseholder_Blade_Mini_Keystone_3568" V 8230 3450 50  0001 C CNN
F 3 "~" H 8300 3450 50  0001 C CNN
	1    8300 3450
	0    1    1    0   
$EndComp
$Comp
L Device:Fuse F406
U 1 1 5F05EDFF
P 8300 4700
F 0 "F406" V 8103 4700 50  0000 C CNN
F 1 "DCDC" V 8194 4700 50  0000 C CNN
F 2 "Fuse:Fuseholder_Blade_Mini_Keystone_3568" V 8230 4700 50  0001 C CNN
F 3 "~" H 8300 4700 50  0001 C CNN
	1    8300 4700
	0    1    1    0   
$EndComp
$Comp
L Device:Q_PMOS_GDS Q?
U 1 1 5F07E508
P 4850 2350
AR Path="/5ED62633/5F07E508" Ref="Q?"  Part="1" 
AR Path="/5EDF4185/5F07E508" Ref="Q302"  Part="1" 
F 0 "Q302" V 5193 2350 50  0000 C CNN
F 1 "FDD4243" V 5102 2350 50  0000 C CNN
F 2 "Package_TO_SOT_SMD:TO-252-2" H 5050 2450 50  0001 C CNN
F 3 "~" H 4850 2350 50  0001 C CNN
	1    4850 2350
	0    1    -1   0   
$EndComp
$Comp
L Device:Q_PMOS_GDS Q?
U 1 1 5F07F37E
P 4850 3550
AR Path="/5ED62633/5F07F37E" Ref="Q?"  Part="1" 
AR Path="/5EDF4185/5F07F37E" Ref="Q303"  Part="1" 
F 0 "Q303" V 5193 3550 50  0000 C CNN
F 1 "FDD4243" V 5102 3550 50  0000 C CNN
F 2 "Package_TO_SOT_SMD:TO-252-2" H 5050 3650 50  0001 C CNN
F 3 "~" H 4850 3550 50  0001 C CNN
	1    4850 3550
	0    1    -1   0   
$EndComp
$Comp
L Device:Q_PMOS_GDS Q?
U 1 1 5F08000D
P 4850 4800
AR Path="/5ED62633/5F08000D" Ref="Q?"  Part="1" 
AR Path="/5EDF4185/5F08000D" Ref="Q304"  Part="1" 
F 0 "Q304" V 5193 4800 50  0000 C CNN
F 1 "FDD4243" V 5102 4800 50  0000 C CNN
F 2 "Package_TO_SOT_SMD:TO-252-2" H 5050 4900 50  0001 C CNN
F 3 "~" H 4850 4800 50  0001 C CNN
	1    4850 4800
	0    1    -1   0   
$EndComp
$Comp
L Device:Q_PMOS_GDS Q?
U 1 1 5F080F88
P 7950 4800
AR Path="/5ED62633/5F080F88" Ref="Q?"  Part="1" 
AR Path="/5EDF4185/5F080F88" Ref="Q307"  Part="1" 
F 0 "Q307" V 8293 4800 50  0000 C CNN
F 1 "FDD4243" V 8202 4800 50  0000 C CNN
F 2 "Package_TO_SOT_SMD:TO-252-2" H 8150 4900 50  0001 C CNN
F 3 "~" H 7950 4800 50  0001 C CNN
	1    7950 4800
	0    1    -1   0   
$EndComp
$Comp
L Device:Q_PMOS_GDS Q?
U 1 1 5F08201F
P 7950 3550
AR Path="/5ED62633/5F08201F" Ref="Q?"  Part="1" 
AR Path="/5EDF4185/5F08201F" Ref="Q306"  Part="1" 
F 0 "Q306" V 8293 3550 50  0000 C CNN
F 1 "FDD4243" V 8202 3550 50  0000 C CNN
F 2 "Package_TO_SOT_SMD:TO-252-2" H 8150 3650 50  0001 C CNN
F 3 "~" H 7950 3550 50  0001 C CNN
	1    7950 3550
	0    1    -1   0   
$EndComp
$Comp
L Device:Q_PMOS_GDS Q?
U 1 1 5F069AE8
P 7950 2300
AR Path="/5ED62633/5F069AE8" Ref="Q?"  Part="1" 
AR Path="/5EDF4185/5F069AE8" Ref="Q305"  Part="1" 
F 0 "Q305" V 8293 2300 50  0000 C CNN
F 1 "FDD4243" V 8202 2300 50  0000 C CNN
F 2 "Package_TO_SOT_SMD:TO-252-2" H 8150 2400 50  0001 C CNN
F 3 "~" H 7950 2300 50  0001 C CNN
	1    7950 2300
	0    1    -1   0   
$EndComp
$EndSCHEMATC
