EESchema Schematic File Version 4
LIBS:ECU-cache
EELAYER 29 0
EELAYER END
$Descr A4 11693 8268
encoding utf-8
Sheet 1 6
Title ""
Date ""
Rev ""
Comp ""
Comment1 ""
Comment2 ""
Comment3 ""
Comment4 ""
$EndDescr
$Sheet
S 7600 550  950  950 
U 5ED62633
F0 "MotorDriver" 50
F1 "MotorDriver.sch" 50
F2 "FWD" I L 7600 1150 50 
F3 "REV" I L 7600 1050 50 
F4 "ACCEL_SW" I L 7600 900 50 
F5 "BRAKE_SW" I L 7600 800 50 
F6 "K_PWR" I L 7600 650 50 
F7 "SCL" I L 7600 1350 50 
F8 "SDA" I L 7600 1450 50 
F9 "Can_H" I R 8550 1000 50 
F10 "Can_L" I R 8550 1100 50 
$EndSheet
$Comp
L power:GND #PWR0101
U 1 1 5EDEEA52
P 1050 5450
F 0 "#PWR0101" H 1050 5200 50  0001 C CNN
F 1 "GND" H 1050 5300 50  0000 C CNN
F 2 "" H 1050 5450 50  0001 C CNN
F 3 "" H 1050 5450 50  0001 C CNN
	1    1050 5450
	0    1    1    0   
$EndComp
Wire Wire Line
	1050 5450 1350 5450
Wire Wire Line
	1350 5450 1350 5550
Wire Wire Line
	1350 5150 1350 5250
$Comp
L power:GND #PWR0103
U 1 1 5EDF0E91
P 1150 6150
F 0 "#PWR0103" H 1150 5900 50  0001 C CNN
F 1 "GND" H 1150 6000 50  0000 C CNN
F 2 "" H 1150 6150 50  0001 C CNN
F 3 "" H 1150 6150 50  0001 C CNN
	1    1150 6150
	1    0    0    -1  
$EndComp
Wire Wire Line
	1350 6250 1350 6150
Connection ~ 1350 6150
Wire Wire Line
	1150 6150 1350 6150
Text Label 3550 5150 0    50   ~ 0
CAN_L
Text Label 3550 5250 0    50   ~ 0
CAN_H
Text Label 5300 5150 0    50   ~ 0
STOP
Text Label 600  5650 0    50   ~ 0
ACCEL_1
Text Label 600  5350 0    50   ~ 0
ACCEL_2
$Sheet
S 7250 1850 850  950 
U 5EDF4185
F0 "Contactors" 50
F1 "Contactors.sch" 50
F2 "SPARE_2" I L 7250 2500 50 
F3 "SPARE_1" I L 7250 2300 50 
F4 "CHARGE" I L 7250 2150 50 
F5 "MAIN" I L 7250 1950 50 
F6 "DCDC" I L 7250 2400 50 
F7 "PRE_CHARGE" I L 7250 2050 50 
$EndSheet
$Comp
L power:GND #PWR0104
U 1 1 5ED6B234
P 6000 -1000
AR Path="/5ED6B234" Ref="#PWR0104"  Part="1" 
AR Path="/5D474AF3/5ED6B234" Ref="#PWR?"  Part="1" 
AR Path="/5EE8D555/5ED6B234" Ref="#PWR?"  Part="1" 
F 0 "#PWR0104" H 6000 -1250 50  0001 C CNN
F 1 "GND" H 6005 -1173 50  0000 C CNN
F 2 "" H 6000 -1000 50  0001 C CNN
F 3 "" H 6000 -1000 50  0001 C CNN
	1    6000 -1000
	1    0    0    -1  
$EndComp
$Comp
L power:GND #PWR0105
U 1 1 5ED6B23A
P 6100 -1000
AR Path="/5ED6B23A" Ref="#PWR0105"  Part="1" 
AR Path="/5D474AF3/5ED6B23A" Ref="#PWR?"  Part="1" 
AR Path="/5EE8D555/5ED6B23A" Ref="#PWR?"  Part="1" 
F 0 "#PWR0105" H 6100 -1250 50  0001 C CNN
F 1 "GND" H 6105 -1173 50  0000 C CNN
F 2 "" H 6100 -1000 50  0001 C CNN
F 3 "" H 6100 -1000 50  0001 C CNN
	1    6100 -1000
	1    0    0    -1  
$EndComp
$Comp
L power:GND #PWR0106
U 1 1 5ED6B240
P 3850 -3000
AR Path="/5ED6B240" Ref="#PWR0106"  Part="1" 
AR Path="/5D474AF3/5ED6B240" Ref="#PWR?"  Part="1" 
AR Path="/5EE8D555/5ED6B240" Ref="#PWR?"  Part="1" 
F 0 "#PWR0106" H 3850 -3250 50  0001 C CNN
F 1 "GND" H 3855 -3173 50  0000 C CNN
F 2 "" H 3850 -3000 50  0001 C CNN
F 3 "" H 3850 -3000 50  0001 C CNN
	1    3850 -3000
	0    -1   -1   0   
$EndComp
Wire Wire Line
	3850 -3000 3800 -3000
Wire Wire Line
	3800 -3100 3850 -3100
Wire Wire Line
	3850 -3100 3850 -3000
Connection ~ 3850 -3000
Text Label 5400 -1500 2    50   ~ 0
D+
Text Label 5400 -1400 2    50   ~ 0
D-
Wire Wire Line
	5200 -1900 5400 -1900
$Comp
L Device:C C101
U 1 1 5ED6B24D
P 4950 -2800
AR Path="/5ED6B24D" Ref="C101"  Part="1" 
AR Path="/5D474AF3/5ED6B24D" Ref="C?"  Part="1" 
AR Path="/5EE8D555/5ED6B24D" Ref="C?"  Part="1" 
F 0 "C101" H 5065 -2754 50  0000 L CNN
F 1 "10uF" H 5065 -2845 50  0000 L CNN
F 2 "Capacitor_SMD:C_0603_1608Metric" H 4988 -2950 50  0001 C CNN
F 3 "~" H 4950 -2800 50  0001 C CNN
	1    4950 -2800
	1    0    0    -1  
$EndComp
$Comp
L power:GND #PWR0107
U 1 1 5ED6B253
P 4950 -2650
AR Path="/5ED6B253" Ref="#PWR0107"  Part="1" 
AR Path="/5D474AF3/5ED6B253" Ref="#PWR?"  Part="1" 
AR Path="/5EE8D555/5ED6B253" Ref="#PWR?"  Part="1" 
F 0 "#PWR0107" H 4950 -2900 50  0001 C CNN
F 1 "GND" H 4955 -2823 50  0000 C CNN
F 2 "" H 4950 -2650 50  0001 C CNN
F 3 "" H 4950 -2650 50  0001 C CNN
	1    4950 -2650
	1    0    0    -1  
$EndComp
Text Label 6600 -1900 0    50   ~ 0
DTR
Text Label 6600 -2300 0    50   ~ 0
RTS
Text Label 6600 -2100 0    50   ~ 0
RXD0
Text Label 6600 -2200 0    50   ~ 0
TXD0
NoConn ~ 6600 -2000
NoConn ~ 6600 -1800
NoConn ~ 6600 -1600
NoConn ~ 6600 -1500
NoConn ~ 6600 -1400
NoConn ~ 6600 -1300
NoConn ~ 5400 -2100
NoConn ~ 5400 -2200
NoConn ~ 5400 -2500
Text Notes 6200 -3650 0    50   ~ 0
USB TO SERIAL
Text Label 3450 -2800 0    50   ~ 0
D-
Text Label 3450 -2700 0    50   ~ 0
D-
Text Label 3450 -2600 0    50   ~ 0
D+
Text Label 3450 -2500 0    50   ~ 0
D+
Wire Wire Line
	3450 -3100 3500 -3100
Wire Wire Line
	3500 -3000 3450 -3000
$Comp
L Device:R R104
U 1 1 5ED6B26E
P 3650 -3000
AR Path="/5ED6B26E" Ref="R104"  Part="1" 
AR Path="/5D474AF3/5ED6B26E" Ref="R?"  Part="1" 
AR Path="/5EE8D555/5ED6B26E" Ref="R?"  Part="1" 
F 0 "R104" V 3750 -2650 50  0000 R CNN
F 1 "5.1k" V 3750 -2900 50  0000 R CNN
F 2 "Resistor_SMD:R_0603_1608Metric" V 3580 -3000 50  0001 C CNN
F 3 "~" H 3650 -3000 50  0001 C CNN
	1    3650 -3000
	0    1    1    0   
$EndComp
$Comp
L power:GND #PWR0108
U 1 1 5ED6B274
P 2550 -700
AR Path="/5ED6B274" Ref="#PWR0108"  Part="1" 
AR Path="/5D474AF3/5ED6B274" Ref="#PWR?"  Part="1" 
AR Path="/5EE8D555/5ED6B274" Ref="#PWR?"  Part="1" 
F 0 "#PWR0108" H 2550 -950 50  0001 C CNN
F 1 "GND" H 2555 -873 50  0000 C CNN
F 2 "" H 2550 -700 50  0001 C CNN
F 3 "" H 2550 -700 50  0001 C CNN
	1    2550 -700
	1    0    0    -1  
$EndComp
$Comp
L power:GND #PWR0109
U 1 1 5ED6B27A
P 2850 -700
AR Path="/5ED6B27A" Ref="#PWR0109"  Part="1" 
AR Path="/5D474AF3/5ED6B27A" Ref="#PWR?"  Part="1" 
AR Path="/5EE8D555/5ED6B27A" Ref="#PWR?"  Part="1" 
F 0 "#PWR0109" H 2850 -950 50  0001 C CNN
F 1 "GND" H 2855 -873 50  0000 C CNN
F 2 "" H 2850 -700 50  0001 C CNN
F 3 "" H 2850 -700 50  0001 C CNN
	1    2850 -700
	1    0    0    -1  
$EndComp
$Comp
L Device:R R103
U 1 1 5ED6B280
P 3650 -3100
AR Path="/5ED6B280" Ref="R103"  Part="1" 
AR Path="/5D474AF3/5ED6B280" Ref="R?"  Part="1" 
AR Path="/5EE8D555/5ED6B280" Ref="R?"  Part="1" 
F 0 "R103" V 3550 -2750 50  0000 R CNN
F 1 "5.1k" V 3550 -3000 50  0000 R CNN
F 2 "Resistor_SMD:R_0603_1608Metric" V 3580 -3100 50  0001 C CNN
F 3 "~" H 3650 -3100 50  0001 C CNN
	1    3650 -3100
	0    1    1    0   
$EndComp
Wire Notes Line
	4450 -3750 1900 -3750
Wire Notes Line
	1900 -450 4450 -450
$Comp
L Interface_USB:CP2102N-A01-GQFN24 U107
U 1 1 5ED6B28A
P 6000 -1900
AR Path="/5ED6B28A" Ref="U107"  Part="1" 
AR Path="/5D474AF3/5ED6B28A" Ref="U?"  Part="1" 
AR Path="/5EE8D555/5ED6B28A" Ref="U?"  Part="1" 
F 0 "U107" V 4850 -1900 50  0000 C CNN
F 1 "CP2102N-A01-GQFN24" V 4950 -1900 50  0000 C CNN
F 2 "Package_DFN_QFN:QFN-24-1EP_4x4mm_P0.5mm_EP2.6x2.6mm" H 6450 -2700 50  0001 L CNN
F 3 "https://www.silabs.com/documents/public/data-sheets/cp2102n-datasheet.pdf" H 6050 -2950 50  0001 C CNN
	1    6000 -1900
	1    0    0    -1  
$EndComp
Wire Wire Line
	5900 -2800 5900 -2950
Wire Wire Line
	5900 -2950 4950 -2950
NoConn ~ 6600 -2500
NoConn ~ 6600 -2400
$Comp
L Device:R R105
U 1 1 5ED6B2AD
P 4700 -1150
AR Path="/5ED6B2AD" Ref="R105"  Part="1" 
AR Path="/5D474AF3/5ED6B2AD" Ref="R?"  Part="1" 
AR Path="/5EE8D555/5ED6B2AD" Ref="R?"  Part="1" 
F 0 "R105" H 4630 -1196 50  0000 R CNN
F 1 "10k" H 4630 -1105 50  0000 R CNN
F 2 "Resistor_SMD:R_0603_1608Metric" V 4630 -1150 50  0001 C CNN
F 3 "~" H 4700 -1150 50  0001 C CNN
	1    4700 -1150
	-1   0    0    1   
$EndComp
$Comp
L Device:R R106
U 1 1 5ED6B2B3
P 4700 -850
AR Path="/5ED6B2B3" Ref="R106"  Part="1" 
AR Path="/5D474AF3/5ED6B2B3" Ref="R?"  Part="1" 
AR Path="/5EE8D555/5ED6B2B3" Ref="R?"  Part="1" 
F 0 "R106" H 4630 -896 50  0000 R CNN
F 1 "10k" H 4630 -805 50  0000 R CNN
F 2 "Resistor_SMD:R_0603_1608Metric" V 4630 -850 50  0001 C CNN
F 3 "~" H 4700 -850 50  0001 C CNN
	1    4700 -850
	-1   0    0    1   
$EndComp
$Comp
L power:GND #PWR0112
U 1 1 5ED6B2BF
P 4700 -700
AR Path="/5ED6B2BF" Ref="#PWR0112"  Part="1" 
AR Path="/5D474AF3/5ED6B2BF" Ref="#PWR?"  Part="1" 
AR Path="/5EE8D555/5ED6B2BF" Ref="#PWR?"  Part="1" 
F 0 "#PWR0112" H 4700 -950 50  0001 C CNN
F 1 "GND" H 4705 -873 50  0000 C CNN
F 2 "" H 4700 -700 50  0001 C CNN
F 3 "" H 4700 -700 50  0001 C CNN
	1    4700 -700
	1    0    0    -1  
$EndComp
Wire Wire Line
	5150 -1600 5400 -1600
Connection ~ 4700 -1000
Wire Wire Line
	4700 -1000 5150 -1000
Wire Wire Line
	5150 -1000 5150 -1600
Wire Wire Line
	6000 -2800 6000 -2950
Wire Wire Line
	6000 -2950 5900 -2950
Connection ~ 5900 -2950
Wire Notes Line
	6850 -3750 6850 -450
Wire Notes Line
	6850 -3750 4550 -3750
Wire Notes Line
	6850 -450 4550 -450
$Comp
L Connector:USB_C_Receptacle J101
U 1 1 5ED6B2CF
P 2850 -2300
AR Path="/5ED6B2CF" Ref="J101"  Part="1" 
AR Path="/5D474AF3/5ED6B2CF" Ref="J?"  Part="1" 
AR Path="/5EE8D555/5ED6B2CF" Ref="J?"  Part="1" 
F 0 "J101" H 2550 -1100 50  0000 L CNN
F 1 "USB_C_Receptacle" V 2300 -2700 50  0000 L CNN
F 2 "Micromelon:USB_C_MidMount" H 3000 -2300 50  0001 C CNN
F 3 "https://www.usb.org/sites/default/files/documents/usb_type-c.zip" H 3000 -2300 50  0001 C CNN
	1    2850 -2300
	1    0    0    -1  
$EndComp
$Comp
L power:+5V #PWR0113
U 1 1 5ED6B2DE
P 3450 -3300
AR Path="/5ED6B2DE" Ref="#PWR0113"  Part="1" 
AR Path="/5D474AF3/5ED6B2DE" Ref="#PWR?"  Part="1" 
AR Path="/5EE8D555/5ED6B2DE" Ref="#PWR?"  Part="1" 
F 0 "#PWR0113" H 3450 -3450 50  0001 C CNN
F 1 "+5V" V 3465 -3172 50  0000 L CNN
F 2 "" H 3450 -3300 50  0001 C CNN
F 3 "" H 3450 -3300 50  0001 C CNN
	1    3450 -3300
	1    0    0    -1  
$EndComp
$Comp
L Device:R R102
U 1 1 5ED6B2E4
P 1450 -2800
AR Path="/5ED6B2E4" Ref="R102"  Part="1" 
AR Path="/5D474AF3/5ED6B2E4" Ref="R?"  Part="1" 
AR Path="/5EE8D555/5ED6B2E4" Ref="R?"  Part="1" 
F 0 "R102" H 1380 -2846 50  0000 R CNN
F 1 "47k" H 1380 -2755 50  0000 R CNN
F 2 "Resistor_SMD:R_0603_1608Metric" V 1380 -2800 50  0001 C CNN
F 3 "~" H 1450 -2800 50  0001 C CNN
	1    1450 -2800
	-1   0    0    1   
$EndComp
$Comp
L power:+3.3V #PWR0114
U 1 1 5ED6B2EA
P 1450 -2950
AR Path="/5ED6B2EA" Ref="#PWR0114"  Part="1" 
AR Path="/5D474AF3/5ED6B2EA" Ref="#PWR?"  Part="1" 
AR Path="/5EE8D555/5ED6B2EA" Ref="#PWR?"  Part="1" 
F 0 "#PWR0114" H 1450 -3100 50  0001 C CNN
F 1 "+3.3V" H 1465 -2777 50  0000 C CNN
F 2 "" H 1450 -2950 50  0001 C CNN
F 3 "" H 1450 -2950 50  0001 C CNN
	1    1450 -2950
	1    0    0    -1  
$EndComp
$Comp
L Device:R R101
U 1 1 5ED6B2F0
P 1100 -2800
AR Path="/5ED6B2F0" Ref="R101"  Part="1" 
AR Path="/5D474AF3/5ED6B2F0" Ref="R?"  Part="1" 
AR Path="/5EE8D555/5ED6B2F0" Ref="R?"  Part="1" 
F 0 "R101" H 1030 -2846 50  0000 R CNN
F 1 "47k" H 1030 -2755 50  0000 R CNN
F 2 "Resistor_SMD:R_0603_1608Metric" V 1030 -2800 50  0001 C CNN
F 3 "~" H 1100 -2800 50  0001 C CNN
	1    1100 -2800
	-1   0    0    1   
$EndComp
$Comp
L power:+3.3V #PWR0115
U 1 1 5ED6B2F6
P 1100 -2950
AR Path="/5ED6B2F6" Ref="#PWR0115"  Part="1" 
AR Path="/5D474AF3/5ED6B2F6" Ref="#PWR?"  Part="1" 
AR Path="/5EE8D555/5ED6B2F6" Ref="#PWR?"  Part="1" 
F 0 "#PWR0115" H 1100 -3100 50  0001 C CNN
F 1 "+3.3V" H 1115 -2777 50  0000 C CNN
F 2 "" H 1100 -2950 50  0001 C CNN
F 3 "" H 1100 -2950 50  0001 C CNN
	1    1100 -2950
	1    0    0    -1  
$EndComp
Text Label 1450 -2650 3    50   ~ 0
SDA
Text Label 1100 -2650 3    50   ~ 0
SCL
Wire Notes Line
	850  -3750 1750 -3750
Wire Notes Line
	1750 -2250 850  -2250
$Comp
L ECU-rescue:Micro_SD_Card-Connector J102
U 1 1 5ED6B338
P 8850 -2400
AR Path="/5ED6B338" Ref="J102"  Part="1" 
AR Path="/5D474AF3/5ED6B338" Ref="J?"  Part="1" 
AR Path="/5EE8D555/5ED6B338" Ref="J?"  Part="1" 
F 0 "J102" H 8800 -1683 50  0000 C CNN
F 1 "Micro_SD_Card" H 8800 -1774 50  0000 C CNN
F 2 "Connector_Card:microSD_HC_Wuerth_693072010801" H 10000 -2100 50  0001 C CNN
F 3 "http://katalog.we-online.de/em/datasheet/693072010801.pdf" H 8850 -2400 50  0001 C CNN
	1    8850 -2400
	1    0    0    -1  
$EndComp
$Comp
L power:+3.3V #PWR0116
U 1 1 5ED6B33E
P 7700 -2400
AR Path="/5ED6B33E" Ref="#PWR0116"  Part="1" 
AR Path="/5D474AF3/5ED6B33E" Ref="#PWR?"  Part="1" 
AR Path="/5EE8D555/5ED6B33E" Ref="#PWR?"  Part="1" 
F 0 "#PWR0116" H 7700 -2550 50  0001 C CNN
F 1 "+3.3V" H 7715 -2227 50  0000 C CNN
F 2 "" H 7700 -2400 50  0001 C CNN
F 3 "" H 7700 -2400 50  0001 C CNN
	1    7700 -2400
	0    -1   -1   0   
$EndComp
Text Label 7950 -2300 2    50   ~ 0
SPI_CLK
Wire Wire Line
	7700 -2400 7950 -2400
Text Label 7950 -2500 2    50   ~ 0
SPI_MOSI
Text Label 7950 -2100 2    50   ~ 0
SPI_MISO
$Comp
L power:GND #PWR0117
U 1 1 5ED6B348
P 7500 -2200
AR Path="/5ED6B348" Ref="#PWR0117"  Part="1" 
AR Path="/5D474AF3/5ED6B348" Ref="#PWR?"  Part="1" 
AR Path="/5EE8D555/5ED6B348" Ref="#PWR?"  Part="1" 
F 0 "#PWR0117" H 7500 -2450 50  0001 C CNN
F 1 "GND" V 7505 -2328 50  0000 R CNN
F 2 "" H 7500 -2200 50  0001 C CNN
F 3 "" H 7500 -2200 50  0001 C CNN
	1    7500 -2200
	0    1    1    0   
$EndComp
Wire Wire Line
	7500 -2200 7950 -2200
Text Label 7950 -2600 2    50   ~ 0
SD_CS
NoConn ~ 7950 -2700
NoConn ~ 7950 -2000
$Comp
L power:GND #PWR0118
U 1 1 5ED6B352
P 9650 -1800
AR Path="/5ED6B352" Ref="#PWR0118"  Part="1" 
AR Path="/5D474AF3/5ED6B352" Ref="#PWR?"  Part="1" 
AR Path="/5EE8D555/5ED6B352" Ref="#PWR?"  Part="1" 
F 0 "#PWR0118" H 9650 -2050 50  0001 C CNN
F 1 "GND" V 9655 -1928 50  0000 R CNN
F 2 "" H 9650 -1800 50  0001 C CNN
F 3 "" H 9650 -1800 50  0001 C CNN
	1    9650 -1800
	1    0    0    -1  
$EndComp
$Comp
L Device:R R107
U 1 1 5ED6B358
P 7050 -3350
AR Path="/5ED6B358" Ref="R107"  Part="1" 
AR Path="/5D474AF3/5ED6B358" Ref="R?"  Part="1" 
AR Path="/5EE8D555/5ED6B358" Ref="R?"  Part="1" 
F 0 "R107" H 6980 -3396 50  0000 R CNN
F 1 "10k" H 6980 -3305 50  0000 R CNN
F 2 "Resistor_SMD:R_0603_1608Metric" V 6980 -3350 50  0001 C CNN
F 3 "~" H 7050 -3350 50  0001 C CNN
	1    7050 -3350
	-1   0    0    1   
$EndComp
$Comp
L Device:R R108
U 1 1 5ED6B35E
P 7350 -3350
AR Path="/5ED6B35E" Ref="R108"  Part="1" 
AR Path="/5D474AF3/5ED6B35E" Ref="R?"  Part="1" 
AR Path="/5EE8D555/5ED6B35E" Ref="R?"  Part="1" 
F 0 "R108" H 7280 -3396 50  0000 R CNN
F 1 "10k" H 7280 -3305 50  0000 R CNN
F 2 "Resistor_SMD:R_0603_1608Metric" V 7280 -3350 50  0001 C CNN
F 3 "~" H 7350 -3350 50  0001 C CNN
	1    7350 -3350
	-1   0    0    1   
$EndComp
$Comp
L power:+3.3V #PWR0119
U 1 1 5ED6B364
P 7050 -3500
AR Path="/5ED6B364" Ref="#PWR0119"  Part="1" 
AR Path="/5D474AF3/5ED6B364" Ref="#PWR?"  Part="1" 
AR Path="/5EE8D555/5ED6B364" Ref="#PWR?"  Part="1" 
F 0 "#PWR0119" H 7050 -3650 50  0001 C CNN
F 1 "+3.3V" H 7065 -3327 50  0000 C CNN
F 2 "" H 7050 -3500 50  0001 C CNN
F 3 "" H 7050 -3500 50  0001 C CNN
	1    7050 -3500
	1    0    0    -1  
$EndComp
Text Label 7350 -3200 3    50   ~ 0
SPI_MOSI
Text Label 7650 -3200 3    50   ~ 0
SPI_CLK
Text Label 7950 -3200 3    50   ~ 0
SPI_MISO
$Comp
L Device:R R109
U 1 1 5ED6B36E
P 7650 -3350
AR Path="/5ED6B36E" Ref="R109"  Part="1" 
AR Path="/5D474AF3/5ED6B36E" Ref="R?"  Part="1" 
AR Path="/5EE8D555/5ED6B36E" Ref="R?"  Part="1" 
F 0 "R109" H 7580 -3396 50  0000 R CNN
F 1 "10k" H 7580 -3305 50  0000 R CNN
F 2 "Resistor_SMD:R_0603_1608Metric" V 7580 -3350 50  0001 C CNN
F 3 "~" H 7650 -3350 50  0001 C CNN
	1    7650 -3350
	-1   0    0    1   
$EndComp
$Comp
L Device:R R110
U 1 1 5ED6B374
P 7950 -3350
AR Path="/5ED6B374" Ref="R110"  Part="1" 
AR Path="/5D474AF3/5ED6B374" Ref="R?"  Part="1" 
AR Path="/5EE8D555/5ED6B374" Ref="R?"  Part="1" 
F 0 "R110" H 7880 -3396 50  0000 R CNN
F 1 "10k" H 7880 -3305 50  0000 R CNN
F 2 "Resistor_SMD:R_0603_1608Metric" V 7880 -3350 50  0001 C CNN
F 3 "~" H 7950 -3350 50  0001 C CNN
	1    7950 -3350
	-1   0    0    1   
$EndComp
$Comp
L power:+3.3V #PWR0120
U 1 1 5ED6B37A
P 7350 -3500
AR Path="/5ED6B37A" Ref="#PWR0120"  Part="1" 
AR Path="/5D474AF3/5ED6B37A" Ref="#PWR?"  Part="1" 
AR Path="/5EE8D555/5ED6B37A" Ref="#PWR?"  Part="1" 
F 0 "#PWR0120" H 7350 -3650 50  0001 C CNN
F 1 "+3.3V" H 7365 -3327 50  0000 C CNN
F 2 "" H 7350 -3500 50  0001 C CNN
F 3 "" H 7350 -3500 50  0001 C CNN
	1    7350 -3500
	1    0    0    -1  
$EndComp
$Comp
L power:+3.3V #PWR0121
U 1 1 5ED6B380
P 7650 -3500
AR Path="/5ED6B380" Ref="#PWR0121"  Part="1" 
AR Path="/5D474AF3/5ED6B380" Ref="#PWR?"  Part="1" 
AR Path="/5EE8D555/5ED6B380" Ref="#PWR?"  Part="1" 
F 0 "#PWR0121" H 7650 -3650 50  0001 C CNN
F 1 "+3.3V" H 7665 -3327 50  0000 C CNN
F 2 "" H 7650 -3500 50  0001 C CNN
F 3 "" H 7650 -3500 50  0001 C CNN
	1    7650 -3500
	1    0    0    -1  
$EndComp
$Comp
L power:+3.3V #PWR0122
U 1 1 5ED6B386
P 7950 -3500
AR Path="/5ED6B386" Ref="#PWR0122"  Part="1" 
AR Path="/5D474AF3/5ED6B386" Ref="#PWR?"  Part="1" 
AR Path="/5EE8D555/5ED6B386" Ref="#PWR?"  Part="1" 
F 0 "#PWR0122" H 7950 -3650 50  0001 C CNN
F 1 "+3.3V" H 7965 -3327 50  0000 C CNN
F 2 "" H 7950 -3500 50  0001 C CNN
F 3 "" H 7950 -3500 50  0001 C CNN
	1    7950 -3500
	1    0    0    -1  
$EndComp
Text Label 1800 950  2    50   ~ 0
TXD0
Text Label 1800 1050 2    50   ~ 0
RXD0
Text Label 1800 1900 2    50   ~ 0
SDA
Text Label 1800 2000 2    50   ~ 0
SCL
Text Label 4150 3750 2    50   ~ 0
GEAR_B
Text Label 4200 4150 2    50   ~ 0
GEAR_POS_ADC
Text Label 3500 1800 0    50   ~ 0
GEAR_A
Text Label 3500 1250 0    50   ~ 0
GEAR_B
Text Label 3500 950  0    50   ~ 0
ACCEL_1
Text Label 3500 850  0    50   ~ 0
ACCEL_2
$Comp
L ECU-rescue:DVIULC6-4SC6-micromelon U105
U 1 1 5EE35442
P 5650 6600
F 0 "U105" H 5650 7015 50  0000 C CNN
F 1 "DVIULC6-4SC6" H 5650 6924 50  0000 C CNN
F 2 "Package_TO_SOT_SMD:TSOT-23-6" H 5650 6600 50  0001 C CNN
F 3 "" H 5650 6600 50  0001 C CNN
	1    5650 6600
	1    0    0    -1  
$EndComp
$Comp
L ECU-rescue:DVIULC6-4SC6-micromelon U104
U 1 1 5EE3A7D9
P 4950 5650
F 0 "U104" H 4950 6065 50  0000 C CNN
F 1 "DVIULC6-4SC6" H 4950 5974 50  0000 C CNN
F 2 "Package_TO_SOT_SMD:TSOT-23-6" H 4950 5650 50  0001 C CNN
F 3 "" H 4950 5650 50  0001 C CNN
	1    4950 5650
	1    0    0    -1  
$EndComp
Wire Wire Line
	5300 6650 5300 6750
Wire Wire Line
	5250 6550 5250 6450
Wire Wire Line
	5250 6450 5300 6450
Wire Wire Line
	6000 6200 6000 6450
Wire Wire Line
	5250 6750 5250 6900
Wire Wire Line
	5250 6900 6000 6900
Wire Wire Line
	6000 6900 6000 6750
Wire Wire Line
	3550 6600 3700 6600
Wire Wire Line
	3550 6200 3750 6200
Wire Wire Line
	3750 6200 3750 5900
Wire Wire Line
	5300 6000 5300 5800
Wire Wire Line
	4600 5900 4600 5800
Wire Wire Line
	4450 5500 4600 5500
Wire Wire Line
	4350 5700 4350 5150
Wire Wire Line
	4350 5150 5300 5150
Wire Wire Line
	5300 5150 5300 5500
Wire Wire Line
	3550 5350 3950 5350
Wire Wire Line
	3950 5350 3950 5700
Wire Wire Line
	1350 7000 750  7000
Text Label 750  7000 0    50   ~ 0
StartRaw
Wire Wire Line
	1350 6600 750  6600
Text Label 750  6600 0    50   ~ 0
Crash
Text Label 4350 6000 0    50   ~ 0
GS_3
Text Label 4450 5500 0    50   ~ 0
GS_5
Text Label 4400 5900 0    50   ~ 0
GS_9
Text Label -500 1300 0    50   ~ 0
GS_4
Text Label -500 1000 0    50   ~ 0
GS_8
Wire Wire Line
	5400 3500 4650 3500
Wire Wire Line
	4650 3500 4650 2500
Text Label 5400 4000 2    50   ~ 0
GearboxCurrent
Text Label 3500 1550 0    50   ~ 0
GearboxCurrent
$Comp
L ECU-rescue:DVIULC6-4SC6-micromelon U103
U 1 1 5EE9BCAE
P 3350 3900
F 0 "U103" H 3350 4315 50  0000 C CNN
F 1 "DVIULC6-4SC6" H 3350 4224 50  0000 C CNN
F 2 "Package_TO_SOT_SMD:TSOT-23-6" H 3350 3900 50  0001 C CNN
F 3 "" H 3350 3900 50  0001 C CNN
	1    3350 3900
	-1   0    0    -1  
$EndComp
Wire Wire Line
	4250 3700 4250 3650
Wire Wire Line
	4250 3650 3000 3650
Wire Wire Line
	3000 3650 3000 3750
Wire Wire Line
	3700 3750 4250 3750
Wire Wire Line
	4250 3750 4250 3800
Wire Wire Line
	4100 3900 4100 4050
Wire Wire Line
	4100 4050 3700 4050
Wire Wire Line
	4250 4000 4250 4150
Wire Wire Line
	4250 4150 3000 4150
Wire Wire Line
	3000 4050 3000 4150
Text Label 1800 2300 2    50   ~ 0
SPI_MOSI
Text Label 1800 2400 2    50   ~ 0
SPI_CLK
Text Label 1800 2200 2    50   ~ 0
SPI_MISO
Text Label 7050 -3200 3    50   ~ 0
SD_CS
Text Label 1800 850  2    50   ~ 0
RTS
Text Label 1800 1150 2    50   ~ 0
DTR
Text Label 1800 2500 2    50   ~ 0
SD_CS
Text Label 750  3250 2    50   ~ 0
CAN_L
Text Label 750  3150 2    50   ~ 0
CAN_H
Text Label 7600 1450 2    50   ~ 0
SDA
Text Label 7600 1350 2    50   ~ 0
SCL
$Comp
L Interface_Expansion:MCP23017_SO U106
U 1 1 5EF4CDEB
P 5400 1650
F 0 "U106" H 5000 2800 50  0000 C CNN
F 1 "MCP23017_SO" H 5050 2700 50  0000 C CNN
F 2 "Package_SO:SOIC-28W_7.5x17.9mm_P1.27mm" H 5600 650 50  0001 L CNN
F 3 "http://ww1.microchip.com/downloads/en/DeviceDoc/20001952C.pdf" H 5600 550 50  0001 L CNN
	1    5400 1650
	1    0    0    -1  
$EndComp
Text Label 4700 850  2    50   ~ 0
SDA
Text Label 4700 950  2    50   ~ 0
SCL
Text Label 5150 6200 2    50   ~ 0
StartMotor
Wire Wire Line
	4450 5800 4450 5500
Text Label -500 1100 0    50   ~ 0
StartMotor
$Sheet
S 1800 800  1700 1850
U 5EE8D555
F0 "Esp32Core" 50
F1 "esp32core.sch" 50
F2 "IO23" B R 3500 1900 50 
F3 "IO22" B R 3500 2000 50 
F4 "IO21" B R 3500 2100 50 
F5 "IO19" B R 3500 2200 50 
F6 "IO18" B R 3500 2300 50 
F7 "IO5" B L 1800 2000 50 
F8 "IO17" B R 3500 2400 50 
F9 "IO16" B R 3500 2500 50 
F10 "IO4" B L 1800 1900 50 
F11 "PROGRAM" I L 1800 1150 50 
F12 "IO2_Low_at_power_on" B L 1800 1800 50 
F13 "IO15_BootMSG" B L 1800 2500 50 
F14 "IO13" B L 1800 2300 50 
F15 "IO12_low_at_power_on" B L 1800 2200 50 
F16 "IO14" B L 1800 2400 50 
F17 "IO27" B R 3500 1550 50 
F18 "IO26" B R 3500 1700 50 
F19 "IO25" B R 3500 1800 50 
F20 "IO33" B R 3500 1250 50 
F21 "IO32" B R 3500 1350 50 
F22 "IO35" I R 3500 1050 50 
F23 "IO34" I R 3500 1150 50 
F24 "IO36" I R 3500 950 50 
F25 "IO39" I R 3500 850 50 
F26 "TXD" O L 1800 950 50 
F27 "RXD" I L 1800 1050 50 
F28 "+3V3" I L 1800 1450 50 
F29 "GND" I L 1800 1550 50 
F30 "RESET" I L 1800 850 50 
$EndSheet
$Comp
L Interface_CAN_LIN:SN65HVD232 U101
U 1 1 5EF92322
P 1150 3150
F 0 "U101" H 1450 3550 50  0000 C CNN
F 1 "SN65HVD232" H 1500 3450 50  0000 C CNN
F 2 "Package_SO:SOIC-8_3.9x4.9mm_P1.27mm" H 1150 2650 50  0001 C CNN
F 3 "http://www.ti.com/lit/ds/symlink/sn65hvd230.pdf" H 1050 3550 50  0001 C CNN
	1    1150 3150
	-1   0    0    -1  
$EndComp
Wire Wire Line
	4650 2500 3500 2500
$Comp
L Power_Protection:NUP2105L D101
U 1 1 5EE417C0
P 1150 4300
F 0 "D101" V 1492 4300 50  0000 C CNN
F 1 "PESD1CAN" V 1401 4300 50  0000 C CNN
F 2 "Package_TO_SOT_SMD:SOT-323_SC-70" H 1375 4250 50  0001 L CNN
F 3 "http://www.onsemi.com/pub_link/Collateral/NUP2105L-D.PDF" H 1275 4425 50  0001 C CNN
	1    1150 4300
	0    -1   1    0   
$EndComp
Text Label 950  4200 2    50   ~ 0
CAN_L
Text Label 950  4400 2    50   ~ 0
CAN_H
$Comp
L power:GND #PWR0110
U 1 1 5EE47EEF
P 1150 3550
F 0 "#PWR0110" H 1150 3300 50  0001 C CNN
F 1 "GND" H 1155 3377 50  0000 C CNN
F 2 "" H 1150 3550 50  0001 C CNN
F 3 "" H 1150 3550 50  0001 C CNN
	1    1150 3550
	1    0    0    -1  
$EndComp
$Comp
L power:GND #PWR0111
U 1 1 5EE48E39
P 1350 4300
F 0 "#PWR0111" H 1350 4050 50  0001 C CNN
F 1 "GND" H 1355 4127 50  0000 C CNN
F 2 "" H 1350 4300 50  0001 C CNN
F 3 "" H 1350 4300 50  0001 C CNN
	1    1350 4300
	1    0    0    -1  
$EndComp
$Comp
L power:GND #PWR0135
U 1 1 5EE7DCD1
P 9600 4300
F 0 "#PWR0135" H 9600 4050 50  0001 C CNN
F 1 "GND" H 9605 4127 50  0000 C CNN
F 2 "" H 9600 4300 50  0001 C CNN
F 3 "" H 9600 4300 50  0001 C CNN
	1    9600 4300
	1    0    0    -1  
$EndComp
$Comp
L power:GND #PWR0136
U 1 1 5EE7D17F
P 10300 3650
F 0 "#PWR0136" H 10300 3400 50  0001 C CNN
F 1 "GND" H 10305 3477 50  0000 C CNN
F 2 "" H 10300 3650 50  0001 C CNN
F 3 "" H 10300 3650 50  0001 C CNN
	1    10300 3650
	1    0    0    -1  
$EndComp
Text Label 10000 4400 0    50   ~ 0
CAN_BMS_L
Text Label 10000 4200 0    50   ~ 0
CAN_BMS_H
Text Label 10700 3350 0    50   ~ 0
CAN_BMS_L
Text Label 10700 3250 0    50   ~ 0
CAN_BMS_H
$Comp
L Power_Protection:NUP2105L D102
U 1 1 5EE4406A
P 9800 4300
F 0 "D102" V 9458 4300 50  0000 C CNN
F 1 "PESD1CAN" V 9549 4300 50  0000 C CNN
F 2 "Package_TO_SOT_SMD:SOT-323_SC-70" H 10025 4250 50  0001 L CNN
F 3 "http://www.onsemi.com/pub_link/Collateral/NUP2105L-D.PDF" H 9925 4425 50  0001 C CNN
	1    9800 4300
	0    1    -1   0   
$EndComp
$Comp
L Interface_CAN_LIN:SN65HVD230 U111
U 1 1 5EF8EB1D
P 10300 3250
F 0 "U111" H 9950 3650 50  0000 C CNN
F 1 "SN65HVD230" H 9950 3550 50  0000 C CNN
F 2 "Package_SO:SOIC-8_3.9x4.9mm_P1.27mm" H 10300 2750 50  0001 C CNN
F 3 "http://www.ti.com/lit/ds/symlink/sn65hvd230.pdf" H 10200 3650 50  0001 C CNN
	1    10300 3250
	1    0    0    -1  
$EndComp
$Comp
L Interface_CAN_LIN:MCP2515-xSO U110
U 1 1 5EDC00EB
P 8750 3750
F 0 "U110" H 8750 4731 50  0000 C CNN
F 1 "MCP2515-xSO" H 8750 4640 50  0000 C CNN
F 2 "Package_SO:SOIC-18W_7.5x11.6mm_P1.27mm" H 8750 2850 50  0001 C CIN
F 3 "http://ww1.microchip.com/downloads/en/DeviceDoc/21801e.pdf" H 8850 2950 50  0001 C CNN
	1    8750 3750
	1    0    0    -1  
$EndComp
Wire Wire Line
	9800 3150 9900 3150
Wire Wire Line
	9800 3350 9800 3150
Wire Wire Line
	9550 3350 9800 3350
Wire Wire Line
	9550 3250 9550 3350
Wire Wire Line
	9350 3250 9550 3250
Wire Wire Line
	9650 3250 9900 3250
Wire Wire Line
	9650 3150 9650 3250
Wire Wire Line
	9350 3150 9650 3150
Text Label 8150 3250 2    50   ~ 0
SPI_MISO
Text Label 8150 3450 2    50   ~ 0
SPI_CLK
Text Label 10250 4700 2    50   ~ 0
SPI_MOSI
Text Label 8150 3350 2    50   ~ 0
CAN1_CS
$Sheet
S 9750 900  1350 700 
U 5EE5AFF5
F0 "Power" 50
F1 "Power.sch" 50
$EndSheet
Text Label 6350 3350 0    50   ~ 0
GearPower_VCC
$Comp
L power:+3.3V #PWR0169
U 1 1 5EECDCE4
P 8400 2950
F 0 "#PWR0169" H 8400 2800 50  0001 C CNN
F 1 "+3.3V" H 8415 3123 50  0000 C CNN
F 2 "" H 8400 2950 50  0001 C CNN
F 3 "" H 8400 2950 50  0001 C CNN
	1    8400 2950
	1    0    0    -1  
$EndComp
Wire Wire Line
	8400 2950 8750 2950
$Comp
L power:+3.3V #PWR0170
U 1 1 5EED68B2
P 10300 2950
F 0 "#PWR0170" H 10300 2800 50  0001 C CNN
F 1 "+3.3V" H 10315 3123 50  0000 C CNN
F 2 "" H 10300 2950 50  0001 C CNN
F 3 "" H 10300 2950 50  0001 C CNN
	1    10300 2950
	1    0    0    -1  
$EndComp
$Comp
L power:+3.3V #PWR0171
U 1 1 5EED7114
P 1150 2850
F 0 "#PWR0171" H 1150 2700 50  0001 C CNN
F 1 "+3.3V" H 1165 3023 50  0000 C CNN
F 2 "" H 1150 2850 50  0001 C CNN
F 3 "" H 1150 2850 50  0001 C CNN
	1    1150 2850
	1    0    0    -1  
$EndComp
$Comp
L power:+3.3V #PWR0172
U 1 1 5EED8F46
P 1650 1450
F 0 "#PWR0172" H 1650 1300 50  0001 C CNN
F 1 "+3.3V" H 1665 1623 50  0000 C CNN
F 2 "" H 1650 1450 50  0001 C CNN
F 3 "" H 1650 1450 50  0001 C CNN
	1    1650 1450
	1    0    0    -1  
$EndComp
Wire Wire Line
	1650 1450 1800 1450
Wire Wire Line
	1800 1550 1650 1550
$Comp
L power:GND #PWR0173
U 1 1 5EEE83A7
P 1650 1550
F 0 "#PWR0173" H 1650 1300 50  0001 C CNN
F 1 "GND" H 1655 1377 50  0000 C CNN
F 2 "" H 1650 1550 50  0001 C CNN
F 3 "" H 1650 1550 50  0001 C CNN
	1    1650 1550
	1    0    0    -1  
$EndComp
$Comp
L power:+3.3V #PWR0175
U 1 1 5EEE8E7F
P 5400 550
F 0 "#PWR0175" H 5400 400 50  0001 C CNN
F 1 "+3.3V" H 5415 723 50  0000 C CNN
F 2 "" H 5400 550 50  0001 C CNN
F 3 "" H 5400 550 50  0001 C CNN
	1    5400 550 
	1    0    0    -1  
$EndComp
$Comp
L power:+3.3V #PWR0176
U 1 1 5EEEB0A6
P 5400 5650
F 0 "#PWR0176" H 5400 5500 50  0001 C CNN
F 1 "+3.3V" H 5415 5823 50  0000 C CNN
F 2 "" H 5400 5650 50  0001 C CNN
F 3 "" H 5400 5650 50  0001 C CNN
	1    5400 5650
	1    0    0    -1  
$EndComp
Wire Wire Line
	5400 5650 5300 5650
$Comp
L power:+3.3V #PWR0177
U 1 1 5EEF29C7
P 6150 6600
F 0 "#PWR0177" H 6150 6450 50  0001 C CNN
F 1 "+3.3V" H 6165 6773 50  0000 C CNN
F 2 "" H 6150 6600 50  0001 C CNN
F 3 "" H 6150 6600 50  0001 C CNN
	1    6150 6600
	1    0    0    -1  
$EndComp
Wire Wire Line
	6150 6600 6000 6600
$Comp
L power:+3.3V #PWR0178
U 1 1 5EEF9FB0
P 2800 3900
F 0 "#PWR0178" H 2800 3750 50  0001 C CNN
F 1 "+3.3V" H 2815 4073 50  0000 C CNN
F 2 "" H 2800 3900 50  0001 C CNN
F 3 "" H 2800 3900 50  0001 C CNN
	1    2800 3900
	1    0    0    -1  
$EndComp
Wire Wire Line
	3000 3900 2800 3900
$Comp
L power:GND #PWR0179
U 1 1 5EF02648
P 5400 2750
F 0 "#PWR0179" H 5400 2500 50  0001 C CNN
F 1 "GND" H 5405 2577 50  0000 C CNN
F 2 "" H 5400 2750 50  0001 C CNN
F 3 "" H 5400 2750 50  0001 C CNN
	1    5400 2750
	1    0    0    -1  
$EndComp
$Comp
L power:GND #PWR0181
U 1 1 5EF04659
P 8750 4550
F 0 "#PWR0181" H 8750 4300 50  0001 C CNN
F 1 "GND" H 8755 4377 50  0000 C CNN
F 2 "" H 8750 4550 50  0001 C CNN
F 3 "" H 8750 4550 50  0001 C CNN
	1    8750 4550
	1    0    0    -1  
$EndComp
$Comp
L power:+5V #PWR0182
U 1 1 5EF17FE5
P 5200 -1900
AR Path="/5EF17FE5" Ref="#PWR0182"  Part="1" 
AR Path="/5D474AF3/5EF17FE5" Ref="#PWR?"  Part="1" 
AR Path="/5EE8D555/5EF17FE5" Ref="#PWR?"  Part="1" 
F 0 "#PWR0182" H 5200 -2050 50  0001 C CNN
F 1 "+5V" V 5215 -1772 50  0000 L CNN
F 2 "" H 5200 -1900 50  0001 C CNN
F 3 "" H 5200 -1900 50  0001 C CNN
	1    5200 -1900
	1    0    0    -1  
$EndComp
$Comp
L power:+5V #PWR0183
U 1 1 5EF189BE
P 4700 -1300
AR Path="/5EF189BE" Ref="#PWR0183"  Part="1" 
AR Path="/5D474AF3/5EF189BE" Ref="#PWR?"  Part="1" 
AR Path="/5EE8D555/5EF189BE" Ref="#PWR?"  Part="1" 
F 0 "#PWR0183" H 4700 -1450 50  0001 C CNN
F 1 "+5V" V 4715 -1172 50  0000 L CNN
F 2 "" H 4700 -1300 50  0001 C CNN
F 3 "" H 4700 -1300 50  0001 C CNN
	1    4700 -1300
	1    0    0    -1  
$EndComp
$Comp
L Device:C C113
U 1 1 5EF4EF3B
P 8950 -950
F 0 "C113" H 9065 -904 50  0000 L CNN
F 1 "1u" H 9065 -995 50  0000 L CNN
F 2 "Capacitor_SMD:C_0603_1608Metric_Pad1.05x0.95mm_HandSolder" H 8988 -1100 50  0001 C CNN
F 3 "~" H 8950 -950 50  0001 C CNN
	1    8950 -950
	1    0    0    -1  
$EndComp
$Comp
L power:GND #PWR0168
U 1 1 5EF5142C
P 8950 -800
F 0 "#PWR0168" H 8950 -1050 50  0001 C CNN
F 1 "GND" H 8955 -973 50  0000 C CNN
F 2 "" H 8950 -800 50  0001 C CNN
F 3 "" H 8950 -800 50  0001 C CNN
	1    8950 -800
	1    0    0    -1  
$EndComp
$Comp
L Device:C C114
U 1 1 5EF55E93
P 9200 2450
F 0 "C114" H 9315 2496 50  0000 L CNN
F 1 "1u" H 9315 2405 50  0000 L CNN
F 2 "Capacitor_SMD:C_0603_1608Metric_Pad1.05x0.95mm_HandSolder" H 9238 2300 50  0001 C CNN
F 3 "~" H 9200 2450 50  0001 C CNN
	1    9200 2450
	1    0    0    -1  
$EndComp
$Comp
L power:+3.3V #PWR0180
U 1 1 5EF55E99
P 9200 2300
F 0 "#PWR0180" H 9200 2150 50  0001 C CNN
F 1 "+3.3V" H 9215 2473 50  0000 C CNN
F 2 "" H 9200 2300 50  0001 C CNN
F 3 "" H 9200 2300 50  0001 C CNN
	1    9200 2300
	1    0    0    -1  
$EndComp
$Comp
L power:GND #PWR0205
U 1 1 5EF55E9F
P 9200 2600
F 0 "#PWR0205" H 9200 2350 50  0001 C CNN
F 1 "GND" H 9205 2427 50  0000 C CNN
F 2 "" H 9200 2600 50  0001 C CNN
F 3 "" H 9200 2600 50  0001 C CNN
	1    9200 2600
	1    0    0    -1  
$EndComp
$Comp
L Device:C C110
U 1 1 5EF5CCFA
P 4950 4750
F 0 "C110" H 5065 4796 50  0000 L CNN
F 1 "1u" H 5065 4705 50  0000 L CNN
F 2 "Capacitor_SMD:C_0603_1608Metric_Pad1.05x0.95mm_HandSolder" H 4988 4600 50  0001 C CNN
F 3 "~" H 4950 4750 50  0001 C CNN
	1    4950 4750
	1    0    0    -1  
$EndComp
$Comp
L power:+3.3V #PWR0206
U 1 1 5EF5CD00
P 4950 4600
F 0 "#PWR0206" H 4950 4450 50  0001 C CNN
F 1 "+3.3V" H 4965 4773 50  0000 C CNN
F 2 "" H 4950 4600 50  0001 C CNN
F 3 "" H 4950 4600 50  0001 C CNN
	1    4950 4600
	1    0    0    -1  
$EndComp
$Comp
L power:GND #PWR0207
U 1 1 5EF5CD06
P 4950 4900
F 0 "#PWR0207" H 4950 4650 50  0001 C CNN
F 1 "GND" H 4955 4727 50  0000 C CNN
F 2 "" H 4950 4900 50  0001 C CNN
F 3 "" H 4950 4900 50  0001 C CNN
	1    4950 4900
	1    0    0    -1  
$EndComp
$Comp
L Device:C C112
U 1 1 5EF6618B
P 5150 7350
F 0 "C112" H 5265 7396 50  0000 L CNN
F 1 "1u" H 5265 7305 50  0000 L CNN
F 2 "Capacitor_SMD:C_0603_1608Metric_Pad1.05x0.95mm_HandSolder" H 5188 7200 50  0001 C CNN
F 3 "~" H 5150 7350 50  0001 C CNN
	1    5150 7350
	1    0    0    -1  
$EndComp
$Comp
L power:+3.3V #PWR0208
U 1 1 5EF66191
P 5150 7200
F 0 "#PWR0208" H 5150 7050 50  0001 C CNN
F 1 "+3.3V" H 5165 7373 50  0000 C CNN
F 2 "" H 5150 7200 50  0001 C CNN
F 3 "" H 5150 7200 50  0001 C CNN
	1    5150 7200
	1    0    0    -1  
$EndComp
$Comp
L power:GND #PWR0209
U 1 1 5EF66197
P 5150 7500
F 0 "#PWR0209" H 5150 7250 50  0001 C CNN
F 1 "GND" H 5155 7327 50  0000 C CNN
F 2 "" H 5150 7500 50  0001 C CNN
F 3 "" H 5150 7500 50  0001 C CNN
	1    5150 7500
	1    0    0    -1  
$EndComp
$Comp
L Device:C C109
U 1 1 5EF6D914
P 2400 3950
F 0 "C109" H 2515 3996 50  0000 L CNN
F 1 "1u" H 2515 3905 50  0000 L CNN
F 2 "Capacitor_SMD:C_0603_1608Metric_Pad1.05x0.95mm_HandSolder" H 2438 3800 50  0001 C CNN
F 3 "~" H 2400 3950 50  0001 C CNN
	1    2400 3950
	1    0    0    -1  
$EndComp
$Comp
L power:+3.3V #PWR0210
U 1 1 5EF6D91A
P 2400 3800
F 0 "#PWR0210" H 2400 3650 50  0001 C CNN
F 1 "+3.3V" H 2415 3973 50  0000 C CNN
F 2 "" H 2400 3800 50  0001 C CNN
F 3 "" H 2400 3800 50  0001 C CNN
	1    2400 3800
	1    0    0    -1  
$EndComp
$Comp
L power:GND #PWR0211
U 1 1 5EF6D920
P 2400 4100
F 0 "#PWR0211" H 2400 3850 50  0001 C CNN
F 1 "GND" H 2405 3927 50  0000 C CNN
F 2 "" H 2400 4100 50  0001 C CNN
F 3 "" H 2400 4100 50  0001 C CNN
	1    2400 4100
	1    0    0    -1  
$EndComp
$Comp
L Device:C C107
U 1 1 5EF77599
P 900 1450
F 0 "C107" H 1015 1496 50  0000 L CNN
F 1 "1u" H 1015 1405 50  0000 L CNN
F 2 "Capacitor_SMD:C_0603_1608Metric_Pad1.05x0.95mm_HandSolder" H 938 1300 50  0001 C CNN
F 3 "~" H 900 1450 50  0001 C CNN
	1    900  1450
	1    0    0    -1  
$EndComp
$Comp
L power:+3.3V #PWR0212
U 1 1 5EF7759F
P 900 1300
F 0 "#PWR0212" H 900 1150 50  0001 C CNN
F 1 "+3.3V" H 915 1473 50  0000 C CNN
F 2 "" H 900 1300 50  0001 C CNN
F 3 "" H 900 1300 50  0001 C CNN
	1    900  1300
	1    0    0    -1  
$EndComp
$Comp
L power:GND #PWR0213
U 1 1 5EF775A5
P 900 1600
F 0 "#PWR0213" H 900 1350 50  0001 C CNN
F 1 "GND" H 905 1427 50  0000 C CNN
F 2 "" H 900 1600 50  0001 C CNN
F 3 "" H 900 1600 50  0001 C CNN
	1    900  1600
	1    0    0    -1  
$EndComp
$Comp
L Device:C C115
U 1 1 5EF7FA93
P 10750 2450
F 0 "C115" H 10865 2496 50  0000 L CNN
F 1 "1u" H 10865 2405 50  0000 L CNN
F 2 "Capacitor_SMD:C_0603_1608Metric_Pad1.05x0.95mm_HandSolder" H 10788 2300 50  0001 C CNN
F 3 "~" H 10750 2450 50  0001 C CNN
	1    10750 2450
	1    0    0    -1  
$EndComp
$Comp
L power:+3.3V #PWR0214
U 1 1 5EF7FA99
P 10750 2300
F 0 "#PWR0214" H 10750 2150 50  0001 C CNN
F 1 "+3.3V" H 10765 2473 50  0000 C CNN
F 2 "" H 10750 2300 50  0001 C CNN
F 3 "" H 10750 2300 50  0001 C CNN
	1    10750 2300
	1    0    0    -1  
$EndComp
$Comp
L power:GND #PWR0215
U 1 1 5EF7FA9F
P 10750 2600
F 0 "#PWR0215" H 10750 2350 50  0001 C CNN
F 1 "GND" H 10755 2427 50  0000 C CNN
F 2 "" H 10750 2600 50  0001 C CNN
F 3 "" H 10750 2600 50  0001 C CNN
	1    10750 2600
	1    0    0    -1  
$EndComp
$Comp
L Device:C C111
U 1 1 5EF874ED
P 5750 300
F 0 "C111" H 5865 346 50  0000 L CNN
F 1 "1u" H 5865 255 50  0000 L CNN
F 2 "Capacitor_SMD:C_0603_1608Metric_Pad1.05x0.95mm_HandSolder" H 5788 150 50  0001 C CNN
F 3 "~" H 5750 300 50  0001 C CNN
	1    5750 300 
	1    0    0    -1  
$EndComp
$Comp
L power:+3.3V #PWR0216
U 1 1 5EF874F3
P 5750 150
F 0 "#PWR0216" H 5750 0   50  0001 C CNN
F 1 "+3.3V" H 5765 323 50  0000 C CNN
F 2 "" H 5750 150 50  0001 C CNN
F 3 "" H 5750 150 50  0001 C CNN
	1    5750 150 
	1    0    0    -1  
$EndComp
$Comp
L power:GND #PWR0217
U 1 1 5EF874F9
P 5750 450
F 0 "#PWR0217" H 5750 200 50  0001 C CNN
F 1 "GND" H 5755 277 50  0000 C CNN
F 2 "" H 5750 450 50  0001 C CNN
F 3 "" H 5750 450 50  0001 C CNN
	1    5750 450 
	1    0    0    -1  
$EndComp
$Comp
L Device:C C108
U 1 1 5EF8EAE0
P 1250 1450
F 0 "C108" H 1365 1496 50  0000 L CNN
F 1 "1u" H 1365 1405 50  0000 L CNN
F 2 "Capacitor_SMD:C_0603_1608Metric_Pad1.05x0.95mm_HandSolder" H 1288 1300 50  0001 C CNN
F 3 "~" H 1250 1450 50  0001 C CNN
	1    1250 1450
	1    0    0    -1  
$EndComp
$Comp
L power:+3.3V #PWR0218
U 1 1 5EF8EAE6
P 1250 1300
F 0 "#PWR0218" H 1250 1150 50  0001 C CNN
F 1 "+3.3V" H 1265 1473 50  0000 C CNN
F 2 "" H 1250 1300 50  0001 C CNN
F 3 "" H 1250 1300 50  0001 C CNN
	1    1250 1300
	1    0    0    -1  
$EndComp
$Comp
L power:GND #PWR0219
U 1 1 5EF8EAEC
P 1250 1600
F 0 "#PWR0219" H 1250 1350 50  0001 C CNN
F 1 "GND" H 1255 1427 50  0000 C CNN
F 2 "" H 1250 1600 50  0001 C CNN
F 3 "" H 1250 1600 50  0001 C CNN
	1    1250 1600
	1    0    0    -1  
$EndComp
Text Label 1550 3050 0    50   ~ 0
CARCAN_D
Text Label 1550 3150 0    50   ~ 0
CARCAN_R
Text Label 3500 2000 0    50   ~ 0
CARCAN_R
Text Label 3500 1900 0    50   ~ 0
CARCAN_D
$Comp
L power:GND #PWR0222
U 1 1 5F06CE5A
P 3700 3900
F 0 "#PWR0222" H 3700 3650 50  0001 C CNN
F 1 "GND" H 3705 3727 50  0000 C CNN
F 2 "" H 3700 3900 50  0001 C CNN
F 3 "" H 3700 3900 50  0001 C CNN
	1    3700 3900
	0    -1   -1   0   
$EndComp
$Comp
L power:GND #PWR0223
U 1 1 5F06D882
P 5300 6600
F 0 "#PWR0223" H 5300 6350 50  0001 C CNN
F 1 "GND" H 5305 6427 50  0000 C CNN
F 2 "" H 5300 6600 50  0001 C CNN
F 3 "" H 5300 6600 50  0001 C CNN
	1    5300 6600
	0    1    1    0   
$EndComp
$Comp
L power:GND #PWR0224
U 1 1 5F06F681
P 4600 5650
F 0 "#PWR0224" H 4600 5400 50  0001 C CNN
F 1 "GND" H 4605 5477 50  0000 C CNN
F 2 "" H 4600 5650 50  0001 C CNN
F 3 "" H 4600 5650 50  0001 C CNN
	1    4600 5650
	0    1    1    0   
$EndComp
Text Label 8550 1000 0    50   ~ 0
CAN_BMS_H
Text Label 8550 1100 0    50   ~ 0
CAN_BMS_L
Wire Wire Line
	5400 4100 4650 4100
Wire Wire Line
	4650 4100 4650 4000
Text Label -500 2000 0    50   ~ 0
Lockout
Text Label 5400 3300 2    50   ~ 0
IN_A
Text Label 5400 3400 2    50   ~ 0
IN_B
Text Label 6100 1950 0    50   ~ 0
IN_A
Text Label 6100 1850 0    50   ~ 0
IN_B
$Sheet
S 5400 3200 950  950 
U 5ED624FF
F0 "GearBox" 50
F1 "GearBox.sch" 50
F2 "IN_A" I L 5400 3300 50 
F3 "IN_B" I L 5400 3400 50 
F4 "PWM" I L 5400 3500 50 
F5 "GEAR_A" O L 5400 3700 50 
F6 "GEAR_B" O L 5400 3800 50 
F7 "GEAR_POS" O L 5400 4100 50 
F8 "CurentSense" O L 5400 4000 50 
F9 "Power_IN" I R 6350 3350 50 
F10 "Lockout" O L 5400 3900 50 
F11 "Temp_Water" I R 6350 3500 50 
F12 "Temp_Oil" I R 6350 3600 50 
$EndSheet
$Comp
L power:+3.3VA #PWR0102
U 1 1 5F3876EA
P 1350 5150
F 0 "#PWR0102" H 1350 5000 50  0001 C CNN
F 1 "+3.3VA" H 1365 5323 50  0000 C CNN
F 2 "" H 1350 5150 50  0001 C CNN
F 3 "" H 1350 5150 50  0001 C CNN
	1    1350 5150
	1    0    0    -1  
$EndComp
Connection ~ 1350 5150
Wire Wire Line
	7600 1150 6900 1150
Wire Wire Line
	6850 1050 7600 1050
Wire Wire Line
	7600 900  6800 900 
Wire Wire Line
	6750 800  7600 800 
Wire Wire Line
	3550 6500 3650 6500
Wire Wire Line
	3650 6500 3650 5800
Wire Wire Line
	1350 6150 1350 6050
Wire Wire Line
	1350 6050 1350 5950
Connection ~ 1350 6050
Connection ~ 1350 5450
$Comp
L EcuConnector:adapter-rescue_ECU_Connector U102
U 1 1 5ED604FE
P 1350 5150
F 0 "U102" H 2450 5437 60  0000 C CNN
F 1 "adapter-rescue_ECU_Connector" H 2450 5331 60  0000 C CNN
F 2 "rescue-backup:ECU_Connector" H 1350 5150 60  0001 C CNN
F 3 "" H 1350 5150 60  0001 C CNN
	1    1350 5150
	1    0    0    -1  
$EndComp
Wire Wire Line
	3550 6700 3950 6700
Wire Wire Line
	3950 6000 3950 6700
Wire Wire Line
	7250 1950 6600 1950
Wire Wire Line
	7250 2050 6500 2050
Wire Wire Line
	6500 2050 6500 1450
Wire Wire Line
	7250 2150 6400 2150
Wire Wire Line
	6400 2150 6400 1550
Wire Wire Line
	7250 2500 6100 2500
Wire Wire Line
	6100 2500 6100 2450
Wire Wire Line
	7250 2400 6100 2400
Wire Wire Line
	6100 2400 6100 2350
Wire Wire Line
	7250 2300 6100 2300
Wire Wire Line
	6100 2300 6100 2250
Wire Wire Line
	750  6800 1350 6800
Wire Wire Line
	4600 6200 6000 6200
Text Label 4200 6450 2    50   ~ 0
StartRaw
Wire Wire Line
	3550 6400 3750 6400
Wire Wire Line
	3700 6600 3700 6650
Wire Wire Line
	3550 6300 3800 6300
Text Label -500 600  0    50   ~ 0
GS_5
Text Label -500 800  0    50   ~ 0
GS_3
Text Label -500 700  0    50   ~ 0
STOP
Wire Wire Line
	4600 6200 4600 6450
Text Label 8150 3150 2    50   ~ 0
SPI_MOSI
Text Label -500 1200 0    50   ~ 0
GS_10
Text Label -500 900  0    50   ~ 0
GS_9
$Comp
L Device:C C102
U 1 1 5F7FCBB7
P 600 5200
F 0 "C102" H 715 5246 50  0000 L CNN
F 1 "1u" H 715 5155 50  0000 L CNN
F 2 "Capacitor_SMD:C_0603_1608Metric_Pad1.05x0.95mm_HandSolder" H 638 5050 50  0001 C CNN
F 3 "~" H 600 5200 50  0001 C CNN
	1    600  5200
	-1   0    0    1   
$EndComp
$Comp
L Device:C C103
U 1 1 5F7FDD84
P 600 5800
F 0 "C103" H 715 5846 50  0000 L CNN
F 1 "1u" H 715 5755 50  0000 L CNN
F 2 "Capacitor_SMD:C_0603_1608Metric_Pad1.05x0.95mm_HandSolder" H 638 5650 50  0001 C CNN
F 3 "~" H 600 5800 50  0001 C CNN
	1    600  5800
	1    0    0    -1  
$EndComp
$Comp
L Device:R R112
U 1 1 5F7FEAE0
P 1000 5650
AR Path="/5F7FEAE0" Ref="R112"  Part="1" 
AR Path="/5D474AF3/5F7FEAE0" Ref="R?"  Part="1" 
AR Path="/5EE8D555/5F7FEAE0" Ref="R?"  Part="1" 
F 0 "R112" H 930 5604 50  0000 R CNN
F 1 "10k" H 930 5695 50  0000 R CNN
F 2 "Resistor_SMD:R_0603_1608Metric" V 930 5650 50  0001 C CNN
F 3 "~" H 1000 5650 50  0001 C CNN
	1    1000 5650
	0    -1   -1   0   
$EndComp
$Comp
L Device:R R111
U 1 1 5F800278
P 1000 5350
AR Path="/5F800278" Ref="R111"  Part="1" 
AR Path="/5D474AF3/5F800278" Ref="R?"  Part="1" 
AR Path="/5EE8D555/5F800278" Ref="R?"  Part="1" 
F 0 "R111" H 930 5304 50  0000 R CNN
F 1 "10k" H 930 5395 50  0000 R CNN
F 2 "Resistor_SMD:R_0603_1608Metric" V 930 5350 50  0001 C CNN
F 3 "~" H 1000 5350 50  0001 C CNN
	1    1000 5350
	0    1    1    0   
$EndComp
Wire Wire Line
	1150 5350 1350 5350
Wire Wire Line
	1350 5650 1150 5650
Wire Wire Line
	850  5650 600  5650
Wire Wire Line
	600  5350 850  5350
$Comp
L power:GND #PWR0203
U 1 1 5F816DF2
P 600 5950
F 0 "#PWR0203" H 600 5700 50  0001 C CNN
F 1 "GND" H 600 5800 50  0000 C CNN
F 2 "" H 600 5950 50  0001 C CNN
F 3 "" H 600 5950 50  0001 C CNN
	1    600  5950
	1    0    0    -1  
$EndComp
$Comp
L power:GND #PWR0235
U 1 1 5F81775B
P 600 5050
F 0 "#PWR0235" H 600 4800 50  0001 C CNN
F 1 "GND" H 600 4900 50  0000 C CNN
F 2 "" H 600 5050 50  0001 C CNN
F 3 "" H 600 5050 50  0001 C CNN
	1    600  5050
	-1   0    0    1   
$EndComp
$Comp
L Device:Q_PMOS_GDS Q?
U 1 1 5F124987
P 350 7000
AR Path="/5ED62633/5F124987" Ref="Q?"  Part="1" 
AR Path="/5EDF4185/5F124987" Ref="Q?"  Part="1" 
AR Path="/5F124987" Ref="Q102"  Part="1" 
F 0 "Q102" V 693 7000 50  0000 C CNN
F 1 "FDD4243" V 602 7000 50  0000 C CNN
F 2 "Package_TO_SOT_SMD:TO-252-2" H 550 7100 50  0001 C CNN
F 3 "~" H 350 7000 50  0001 C CNN
	1    350  7000
	0    1    -1   0   
$EndComp
$Comp
L Device:Q_PMOS_GDS Q?
U 1 1 5F129DB5
P -200 6800
AR Path="/5ED62633/5F129DB5" Ref="Q?"  Part="1" 
AR Path="/5EDF4185/5F129DB5" Ref="Q?"  Part="1" 
AR Path="/5F129DB5" Ref="Q101"  Part="1" 
F 0 "Q101" V 143 6800 50  0000 C CNN
F 1 "FDD4243" V 52  6800 50  0000 C CNN
F 2 "Package_TO_SOT_SMD:TO-252-2" H 0   6900 50  0001 C CNN
F 3 "~" H -200 6800 50  0001 C CNN
	1    -200 6800
	0    1    -1   0   
$EndComp
$Comp
L power:+BATT #PWR0155
U 1 1 5F12A82F
P -700 6700
F 0 "#PWR0155" H -700 6550 50  0001 C CNN
F 1 "+BATT" H -685 6873 50  0000 C CNN
F 2 "" H -700 6700 50  0001 C CNN
F 3 "" H -700 6700 50  0001 C CNN
	1    -700 6700
	1    0    0    -1  
$EndComp
$Comp
L power:GND #PWR0236
U 1 1 5F130E45
P -200 7300
F 0 "#PWR0236" H -200 7050 50  0001 C CNN
F 1 "GND" H -200 7150 50  0000 C CNN
F 2 "" H -200 7300 50  0001 C CNN
F 3 "" H -200 7300 50  0001 C CNN
	1    -200 7300
	1    0    0    -1  
$EndComp
$Comp
L power:GND #PWR0237
U 1 1 5F1313DC
P 350 7500
F 0 "#PWR0237" H 350 7250 50  0001 C CNN
F 1 "GND" H 350 7350 50  0000 C CNN
F 2 "" H 350 7500 50  0001 C CNN
F 3 "" H 350 7500 50  0001 C CNN
	1    350  7500
	1    0    0    -1  
$EndComp
Text Label 150  6900 3    50   ~ 0
GearPower_VCC
Wire Wire Line
	750  6800 750  6900
Text Label -800 6700 2    50   ~ 0
ECUPower_VCC
Wire Wire Line
	-800 6700 -700 6700
Connection ~ -700 6700
$Comp
L Device:R R?
U 1 1 5F1644D4
P -200 7150
AR Path="/5ED62633/5F1644D4" Ref="R?"  Part="1" 
AR Path="/5EDF4185/5F1644D4" Ref="R?"  Part="1" 
AR Path="/5F1644D4" Ref="R113"  Part="1" 
F 0 "R113" H -130 7196 50  0000 L CNN
F 1 "10k" H -130 7105 50  0000 L CNN
F 2 "Resistor_SMD:R_0603_1608Metric" V -270 7150 50  0001 C CNN
F 3 "~" H -200 7150 50  0001 C CNN
	1    -200 7150
	1    0    0    -1  
$EndComp
$Comp
L Device:R R?
U 1 1 5F16B0B7
P 350 7350
AR Path="/5ED62633/5F16B0B7" Ref="R?"  Part="1" 
AR Path="/5EDF4185/5F16B0B7" Ref="R?"  Part="1" 
AR Path="/5F16B0B7" Ref="R114"  Part="1" 
F 0 "R114" H 420 7396 50  0000 L CNN
F 1 "10k" H 420 7305 50  0000 L CNN
F 2 "Resistor_SMD:R_0603_1608Metric" V 280 7350 50  0001 C CNN
F 3 "~" H 350 7350 50  0001 C CNN
	1    350  7350
	1    0    0    -1  
$EndComp
$Comp
L Mechanical:MountingHole H101
U 1 1 5F1EC887
P 7650 5600
F 0 "H101" H 7750 5646 50  0000 L CNN
F 1 "MountingHole" H 7750 5555 50  0000 L CNN
F 2 "MountingHole:MountingHole_3.2mm_M3" H 7650 5600 50  0001 C CNN
F 3 "~" H 7650 5600 50  0001 C CNN
	1    7650 5600
	1    0    0    -1  
$EndComp
$Comp
L Mechanical:MountingHole H102
U 1 1 5F1EC8E2
P 7650 5800
F 0 "H102" H 7750 5846 50  0000 L CNN
F 1 "MountingHole" H 7750 5755 50  0000 L CNN
F 2 "MountingHole:MountingHole_3.2mm_M3" H 7650 5800 50  0001 C CNN
F 3 "~" H 7650 5800 50  0001 C CNN
	1    7650 5800
	1    0    0    -1  
$EndComp
$Comp
L Mechanical:MountingHole H103
U 1 1 5F1ED4C1
P 7650 6000
F 0 "H103" H 7750 6046 50  0000 L CNN
F 1 "MountingHole" H 7750 5955 50  0000 L CNN
F 2 "MountingHole:MountingHole_3.2mm_M3" H 7650 6000 50  0001 C CNN
F 3 "~" H 7650 6000 50  0001 C CNN
	1    7650 6000
	1    0    0    -1  
$EndComp
$Comp
L Mechanical:MountingHole H104
U 1 1 5F1ED7CB
P 7650 6200
F 0 "H104" H 7750 6246 50  0000 L CNN
F 1 "MountingHole" H 7750 6155 50  0000 L CNN
F 2 "MountingHole:MountingHole_3.2mm_M3" H 7650 6200 50  0001 C CNN
F 3 "~" H 7650 6200 50  0001 C CNN
	1    7650 6200
	1    0    0    -1  
$EndComp
$Comp
L Mechanical:MountingHole H105
U 1 1 5F1EF827
P 8800 5600
F 0 "H105" H 8900 5646 50  0000 L CNN
F 1 "MountingHole" H 8900 5555 50  0000 L CNN
F 2 "MountingHole:MountingHole_3.2mm_M3" H 8800 5600 50  0001 C CNN
F 3 "~" H 8800 5600 50  0001 C CNN
	1    8800 5600
	1    0    0    -1  
$EndComp
$Comp
L Mechanical:MountingHole H106
U 1 1 5F1EF82D
P 8800 5800
F 0 "H106" H 8900 5846 50  0000 L CNN
F 1 "MountingHole" H 8900 5755 50  0000 L CNN
F 2 "MountingHole:MountingHole_3.2mm_M3" H 8800 5800 50  0001 C CNN
F 3 "~" H 8800 5800 50  0001 C CNN
	1    8800 5800
	1    0    0    -1  
$EndComp
$Comp
L Mechanical:MountingHole H107
U 1 1 5F1EF833
P 8800 6000
F 0 "H107" H 8900 6046 50  0000 L CNN
F 1 "MountingHole" H 8900 5955 50  0000 L CNN
F 2 "MountingHole:MountingHole_3.2mm_M3" H 8800 6000 50  0001 C CNN
F 3 "~" H 8800 6000 50  0001 C CNN
	1    8800 6000
	1    0    0    -1  
$EndComp
$Comp
L Mechanical:MountingHole H108
U 1 1 5F1EF839
P 8800 6200
F 0 "H108" H 8900 6246 50  0000 L CNN
F 1 "MountingHole" H 8900 6155 50  0000 L CNN
F 2 "MountingHole:MountingHole_3.2mm_M3" H 8800 6200 50  0001 C CNN
F 3 "~" H 8800 6200 50  0001 C CNN
	1    8800 6200
	1    0    0    -1  
$EndComp
$Comp
L Device:R R115
U 1 1 5F0EC6B3
P 4150 5700
AR Path="/5F0EC6B3" Ref="R115"  Part="1" 
AR Path="/5D474AF3/5F0EC6B3" Ref="R?"  Part="1" 
AR Path="/5EE8D555/5F0EC6B3" Ref="R?"  Part="1" 
F 0 "R115" V 4150 5450 50  0000 R CNN
F 1 "1k" V 4150 5750 50  0000 R CNN
F 2 "Resistor_SMD:R_0603_1608Metric" V 4080 5700 50  0001 C CNN
F 3 "~" H 4150 5700 50  0001 C CNN
	1    4150 5700
	0    1    1    0   
$EndComp
$Comp
L Device:R R116
U 1 1 5F0EF61B
P 4150 5800
AR Path="/5F0EF61B" Ref="R116"  Part="1" 
AR Path="/5D474AF3/5F0EF61B" Ref="R?"  Part="1" 
AR Path="/5EE8D555/5F0EF61B" Ref="R?"  Part="1" 
F 0 "R116" V 4150 5550 50  0000 R CNN
F 1 "1k" V 4150 5850 50  0000 R CNN
F 2 "Resistor_SMD:R_0603_1608Metric" V 4080 5800 50  0001 C CNN
F 3 "~" H 4150 5800 50  0001 C CNN
	1    4150 5800
	0    1    1    0   
$EndComp
$Comp
L Device:R R117
U 1 1 5F0F5484
P 4150 5900
AR Path="/5F0F5484" Ref="R117"  Part="1" 
AR Path="/5D474AF3/5F0F5484" Ref="R?"  Part="1" 
AR Path="/5EE8D555/5F0F5484" Ref="R?"  Part="1" 
F 0 "R117" V 4150 5650 50  0000 R CNN
F 1 "1k" V 4150 5950 50  0000 R CNN
F 2 "Resistor_SMD:R_0603_1608Metric" V 4080 5900 50  0001 C CNN
F 3 "~" H 4150 5900 50  0001 C CNN
	1    4150 5900
	0    1    1    0   
$EndComp
$Comp
L Device:R R118
U 1 1 5F0FB0F3
P 4150 6000
AR Path="/5F0FB0F3" Ref="R118"  Part="1" 
AR Path="/5D474AF3/5F0FB0F3" Ref="R?"  Part="1" 
AR Path="/5EE8D555/5F0FB0F3" Ref="R?"  Part="1" 
F 0 "R118" V 4150 5750 50  0000 R CNN
F 1 "1k" V 4150 6050 50  0000 R CNN
F 2 "Resistor_SMD:R_0603_1608Metric" V 4080 6000 50  0001 C CNN
F 3 "~" H 4150 6000 50  0001 C CNN
	1    4150 6000
	0    1    1    0   
$EndComp
$Comp
L Device:R R119
U 1 1 5F1010EC
P 4400 6450
AR Path="/5F1010EC" Ref="R119"  Part="1" 
AR Path="/5D474AF3/5F1010EC" Ref="R?"  Part="1" 
AR Path="/5EE8D555/5F1010EC" Ref="R?"  Part="1" 
F 0 "R119" V 4400 6200 50  0000 R CNN
F 1 "1k" V 4400 6500 50  0000 R CNN
F 2 "Resistor_SMD:R_0603_1608Metric" V 4330 6450 50  0001 C CNN
F 3 "~" H 4400 6450 50  0001 C CNN
	1    4400 6450
	0    1    1    0   
$EndComp
$Comp
L Device:R R120
U 1 1 5F106E83
P 4400 6550
AR Path="/5F106E83" Ref="R120"  Part="1" 
AR Path="/5D474AF3/5F106E83" Ref="R?"  Part="1" 
AR Path="/5EE8D555/5F106E83" Ref="R?"  Part="1" 
F 0 "R120" V 4400 6300 50  0000 R CNN
F 1 "1k" V 4400 6600 50  0000 R CNN
F 2 "Resistor_SMD:R_0603_1608Metric" V 4330 6550 50  0001 C CNN
F 3 "~" H 4400 6550 50  0001 C CNN
	1    4400 6550
	0    1    1    0   
$EndComp
$Comp
L Device:R R121
U 1 1 5F10CC3E
P 4400 6650
AR Path="/5F10CC3E" Ref="R121"  Part="1" 
AR Path="/5D474AF3/5F10CC3E" Ref="R?"  Part="1" 
AR Path="/5EE8D555/5F10CC3E" Ref="R?"  Part="1" 
F 0 "R121" V 4400 6400 50  0000 R CNN
F 1 "1k" V 4400 6700 50  0000 R CNN
F 2 "Resistor_SMD:R_0603_1608Metric" V 4330 6650 50  0001 C CNN
F 3 "~" H 4400 6650 50  0001 C CNN
	1    4400 6650
	0    1    1    0   
$EndComp
$Comp
L Device:R R122
U 1 1 5F1129F8
P 4400 6750
AR Path="/5F1129F8" Ref="R122"  Part="1" 
AR Path="/5D474AF3/5F1129F8" Ref="R?"  Part="1" 
AR Path="/5EE8D555/5F1129F8" Ref="R?"  Part="1" 
F 0 "R122" V 4400 6500 50  0000 R CNN
F 1 "1k" V 4400 6800 50  0000 R CNN
F 2 "Resistor_SMD:R_0603_1608Metric" V 4330 6750 50  0001 C CNN
F 3 "~" H 4400 6750 50  0001 C CNN
	1    4400 6750
	0    1    1    0   
$EndComp
$Comp
L Device:R R123
U 1 1 5F1188C0
P 4450 3700
AR Path="/5F1188C0" Ref="R123"  Part="1" 
AR Path="/5D474AF3/5F1188C0" Ref="R?"  Part="1" 
AR Path="/5EE8D555/5F1188C0" Ref="R?"  Part="1" 
F 0 "R123" V 4450 3450 50  0000 R CNN
F 1 "1k" V 4450 3750 50  0000 R CNN
F 2 "Resistor_SMD:R_0603_1608Metric" V 4380 3700 50  0001 C CNN
F 3 "~" H 4450 3700 50  0001 C CNN
	1    4450 3700
	0    -1   -1   0   
$EndComp
$Comp
L Device:R R124
U 1 1 5F11E947
P 4450 3800
AR Path="/5F11E947" Ref="R124"  Part="1" 
AR Path="/5D474AF3/5F11E947" Ref="R?"  Part="1" 
AR Path="/5EE8D555/5F11E947" Ref="R?"  Part="1" 
F 0 "R124" V 4450 3550 50  0000 R CNN
F 1 "1k" V 4450 3850 50  0000 R CNN
F 2 "Resistor_SMD:R_0603_1608Metric" V 4380 3800 50  0001 C CNN
F 3 "~" H 4450 3800 50  0001 C CNN
	1    4450 3800
	0    -1   -1   0   
$EndComp
$Comp
L Device:R R125
U 1 1 5F124FE5
P 4450 3900
AR Path="/5F124FE5" Ref="R125"  Part="1" 
AR Path="/5D474AF3/5F124FE5" Ref="R?"  Part="1" 
AR Path="/5EE8D555/5F124FE5" Ref="R?"  Part="1" 
F 0 "R125" V 4450 3650 50  0000 R CNN
F 1 "1k" V 4450 3950 50  0000 R CNN
F 2 "Resistor_SMD:R_0603_1608Metric" V 4380 3900 50  0001 C CNN
F 3 "~" H 4450 3900 50  0001 C CNN
	1    4450 3900
	0    -1   -1   0   
$EndComp
$Comp
L Device:R R126
U 1 1 5F12AE33
P 4450 4000
AR Path="/5F12AE33" Ref="R126"  Part="1" 
AR Path="/5D474AF3/5F12AE33" Ref="R?"  Part="1" 
AR Path="/5EE8D555/5F12AE33" Ref="R?"  Part="1" 
F 0 "R126" V 4450 3750 50  0000 R CNN
F 1 "1k" V 4450 4050 50  0000 R CNN
F 2 "Resistor_SMD:R_0603_1608Metric" V 4380 4000 50  0001 C CNN
F 3 "~" H 4450 4000 50  0001 C CNN
	1    4450 4000
	0    -1   -1   0   
$EndComp
Wire Wire Line
	4250 3700 4300 3700
Wire Wire Line
	4300 3800 4250 3800
Wire Wire Line
	4100 3900 4300 3900
Wire Wire Line
	4300 4000 4250 4000
Wire Wire Line
	4600 4000 4650 4000
Wire Wire Line
	4600 3900 5400 3900
Wire Wire Line
	4600 3800 5400 3800
Wire Wire Line
	4600 3700 5400 3700
Wire Wire Line
	4300 5700 4350 5700
Wire Wire Line
	4000 5700 3950 5700
Wire Wire Line
	3650 5800 4000 5800
Wire Wire Line
	3750 5900 4000 5900
Wire Wire Line
	3950 6000 4000 6000
Wire Wire Line
	4300 6000 5300 6000
Wire Wire Line
	4300 5900 4600 5900
Wire Wire Line
	4300 5800 4450 5800
Wire Wire Line
	4250 6450 4200 6450
Wire Wire Line
	4550 6750 5250 6750
Wire Wire Line
	4550 6650 5300 6650
Wire Wire Line
	4550 6550 5250 6550
Wire Wire Line
	4600 6450 4550 6450
$Comp
L Interface_Expansion:MCP23017_SO U108
U 1 1 5F0FF8B8
P -1200 1400
F 0 "U108" H -1600 2550 50  0000 C CNN
F 1 "MCP23017_SO" H -1550 2450 50  0000 C CNN
F 2 "Package_SO:SOIC-28W_7.5x17.9mm_P1.27mm" H -1000 400 50  0001 L CNN
F 3 "http://ww1.microchip.com/downloads/en/DeviceDoc/20001952C.pdf" H -1000 300 50  0001 L CNN
	1    -1200 1400
	1    0    0    -1  
$EndComp
$Comp
L Device:R R127
U 1 1 5F10CC18
P 6500 3500
AR Path="/5F10CC18" Ref="R127"  Part="1" 
AR Path="/5D474AF3/5F10CC18" Ref="R?"  Part="1" 
AR Path="/5EE8D555/5F10CC18" Ref="R?"  Part="1" 
F 0 "R127" V 6600 3500 50  0000 R CNN
F 1 "1k" V 6500 3550 50  0000 R CNN
F 2 "Resistor_SMD:R_0603_1608Metric" V 6430 3500 50  0001 C CNN
F 3 "~" H 6500 3500 50  0001 C CNN
	1    6500 3500
	0    -1   -1   0   
$EndComp
$Comp
L Device:R R128
U 1 1 5F10D22F
P 6500 3600
AR Path="/5F10D22F" Ref="R128"  Part="1" 
AR Path="/5D474AF3/5F10D22F" Ref="R?"  Part="1" 
AR Path="/5EE8D555/5F10D22F" Ref="R?"  Part="1" 
F 0 "R128" V 6400 3600 50  0000 R CNN
F 1 "1k" V 6500 3650 50  0000 R CNN
F 2 "Resistor_SMD:R_0603_1608Metric" V 6430 3600 50  0001 C CNN
F 3 "~" H 6500 3600 50  0001 C CNN
	1    6500 3600
	0    -1   -1   0   
$EndComp
Text Label 6650 3500 0    50   ~ 0
temp_water
Text Label 6650 3600 0    50   ~ 0
temp_oil
Text Label 3500 1350 0    50   ~ 0
temp_water
Text Label 3500 1050 0    50   ~ 0
temp_oil
$Comp
L power:GND #PWR0244
U 1 1 5F15E2C5
P -1200 2500
F 0 "#PWR0244" H -1200 2250 50  0001 C CNN
F 1 "GND" H -1195 2327 50  0000 C CNN
F 2 "" H -1200 2500 50  0001 C CNN
F 3 "" H -1200 2500 50  0001 C CNN
	1    -1200 2500
	1    0    0    -1  
$EndComp
$Comp
L power:+3.3V #PWR0247
U 1 1 5F15FBE3
P -1200 300
F 0 "#PWR0247" H -1200 150 50  0001 C CNN
F 1 "+3.3V" H -1185 473 50  0000 C CNN
F 2 "" H -1200 300 50  0001 C CNN
F 3 "" H -1200 300 50  0001 C CNN
	1    -1200 300 
	1    0    0    -1  
$EndComp
Text Label -1900 600  2    50   ~ 0
SDA
Text Label -1900 700  2    50   ~ 0
SCL
$Comp
L power:+3.3V #PWR0248
U 1 1 5F168BEE
P 4700 2250
F 0 "#PWR0248" H 4700 2100 50  0001 C CNN
F 1 "+3.3V" H 4715 2423 50  0000 C CNN
F 2 "" H 4700 2250 50  0001 C CNN
F 3 "" H 4700 2250 50  0001 C CNN
	1    4700 2250
	1    0    0    -1  
$EndComp
Wire Wire Line
	4700 2250 4700 2350
Connection ~ 4700 2250
Wire Wire Line
	4700 2350 4700 2450
Connection ~ 4700 2350
$Comp
L power:+3.3V #PWR0249
U 1 1 5F17AFD6
P -1900 2000
F 0 "#PWR0249" H -1900 1850 50  0001 C CNN
F 1 "+3.3V" H -1885 2173 50  0000 C CNN
F 2 "" H -1900 2000 50  0001 C CNN
F 3 "" H -1900 2000 50  0001 C CNN
	1    -1900 2000
	1    0    0    -1  
$EndComp
Wire Wire Line
	-1900 2000 -1900 2100
Connection ~ -1900 2000
$Comp
L power:GND #PWR0250
U 1 1 5F1854C7
P -1900 2200
F 0 "#PWR0250" H -1900 1950 50  0001 C CNN
F 1 "GND" H -1895 2027 50  0000 C CNN
F 2 "" H -1900 2200 50  0001 C CNN
F 3 "" H -1900 2200 50  0001 C CNN
	1    -1900 2200
	1    0    0    -1  
$EndComp
Text Label -1900 1200 2    50   ~ 0
Gear_INT
Text Label 3500 1150 0    50   ~ 0
Gear_INT
Text Label 6750 800  0    50   ~ 0
brake_sw
Text Label 6800 900  0    50   ~ 0
accel_sw
Text Label 6850 1050 0    50   ~ 0
rev
Text Label 6900 1150 0    50   ~ 0
fwd
Text Label -500 1600 0    50   ~ 0
brake_sw
Text Label -500 1700 0    50   ~ 0
accel_sw
Text Label -500 1800 0    50   ~ 0
rev
Text Label -500 1900 0    50   ~ 0
fwd
Wire Wire Line
	3800 6300 3800 6750
Wire Wire Line
	3800 6750 4250 6750
Wire Wire Line
	3750 6400 3750 6550
Text Label 4650 6650 0    50   ~ 0
GS_4
Text Label 4650 6550 0    50   ~ 0
GS_8
Text Label 4650 6750 0    50   ~ 0
GS_10
Wire Wire Line
	3750 6550 4250 6550
Wire Wire Line
	3700 6650 4250 6650
Text Label 9350 3150 0    50   ~ 0
can_bms_-
Text Label 9350 3250 0    50   ~ 0
can_bms_+
Text Label 3500 2400 0    50   ~ 0
CAN1_CS
$Comp
L Connector:Conn_01x03_Male J103
U 1 1 5F1EF7E8
P 11550 -1450
F 0 "J103" H 11522 -1426 50  0000 R CNN
F 1 "Conn_01x03_Male" V 11650 -1650 50  0000 R CNN
F 2 "Connector_PinHeader_2.54mm:PinHeader_1x03_P2.54mm_Vertical" H 11550 -1450 50  0001 C CNN
F 3 "~" H 11550 -1450 50  0001 C CNN
	1    11550 -1450
	-1   0    0    -1  
$EndComp
$Comp
L Connector:Conn_01x03_Male J104
U 1 1 5F1F938E
P 12100 -1450
F 0 "J104" H 12072 -1426 50  0000 R CNN
F 1 "Conn_01x03_Male" V 12200 -1650 50  0000 R CNN
F 2 "Connector_PinHeader_2.54mm:PinHeader_1x03_P2.54mm_Vertical" H 12100 -1450 50  0001 C CNN
F 3 "~" H 12100 -1450 50  0001 C CNN
	1    12100 -1450
	-1   0    0    -1  
$EndComp
$Comp
L Connector:Conn_01x03_Male J105
U 1 1 5F1F988C
P 12650 -1450
F 0 "J105" H 12622 -1426 50  0000 R CNN
F 1 "Conn_01x03_Male" V 12750 -1650 50  0000 R CNN
F 2 "Connector_PinHeader_2.54mm:PinHeader_1x03_P2.54mm_Vertical" H 12650 -1450 50  0001 C CNN
F 3 "~" H 12650 -1450 50  0001 C CNN
	1    12650 -1450
	-1   0    0    -1  
$EndComp
Wire Wire Line
	11350 -1550 11350 -1750
Wire Wire Line
	11350 -1750 11900 -1750
Wire Wire Line
	12450 -1550 12450 -1750
Wire Wire Line
	11900 -1550 11900 -1750
Connection ~ 11900 -1750
Wire Wire Line
	11900 -1750 12450 -1750
$Comp
L power:GND #PWR0246
U 1 1 5F2254A3
P 11350 -1300
AR Path="/5F2254A3" Ref="#PWR0246"  Part="1" 
AR Path="/5D474AF3/5F2254A3" Ref="#PWR?"  Part="1" 
AR Path="/5EE8D555/5F2254A3" Ref="#PWR?"  Part="1" 
F 0 "#PWR0246" H 11350 -1550 50  0001 C CNN
F 1 "GND" V 11355 -1428 50  0000 R CNN
F 2 "" H 11350 -1300 50  0001 C CNN
F 3 "" H 11350 -1300 50  0001 C CNN
	1    11350 -1300
	1    0    0    -1  
$EndComp
Wire Wire Line
	11350 -1350 11350 -1300
$Comp
L power:GND #PWR0251
U 1 1 5F22E31C
P 11900 -1350
AR Path="/5F22E31C" Ref="#PWR0251"  Part="1" 
AR Path="/5D474AF3/5F22E31C" Ref="#PWR?"  Part="1" 
AR Path="/5EE8D555/5F22E31C" Ref="#PWR?"  Part="1" 
F 0 "#PWR0251" H 11900 -1600 50  0001 C CNN
F 1 "GND" V 11905 -1478 50  0000 R CNN
F 2 "" H 11900 -1350 50  0001 C CNN
F 3 "" H 11900 -1350 50  0001 C CNN
	1    11900 -1350
	1    0    0    -1  
$EndComp
$Comp
L power:GND #PWR0252
U 1 1 5F22E6D0
P 12450 -1350
AR Path="/5F22E6D0" Ref="#PWR0252"  Part="1" 
AR Path="/5D474AF3/5F22E6D0" Ref="#PWR?"  Part="1" 
AR Path="/5EE8D555/5F22E6D0" Ref="#PWR?"  Part="1" 
F 0 "#PWR0252" H 12450 -1600 50  0001 C CNN
F 1 "GND" V 12455 -1478 50  0000 R CNN
F 2 "" H 12450 -1350 50  0001 C CNN
F 3 "" H 12450 -1350 50  0001 C CNN
	1    12450 -1350
	1    0    0    -1  
$EndComp
Text Label 10500 -1300 0    50   ~ 0
IO_1
Text Label 10500 -1150 0    50   ~ 0
IO_2
Text Label 10500 -850 0    50   ~ 0
IO_3
Text Label 10500 -700 0    50   ~ 0
IO_4
Wire Wire Line
	6100 1550 6400 1550
Wire Wire Line
	6100 1450 6500 1450
Wire Wire Line
	6100 1250 6600 1250
Text Label 6100 850  0    50   ~ 0
IO_1
Text Label 6100 950  0    50   ~ 0
IO_2
Text Label 6100 1050 0    50   ~ 0
IO_3
Text Label 6100 1150 0    50   ~ 0
IO_4
$Comp
L Connector:Conn_01x03_Male J106
U 1 1 5F1FAD62
P 13250 -1450
F 0 "J106" H 13222 -1426 50  0000 R CNN
F 1 "Conn_01x03_Male" V 13350 -1650 50  0000 R CNN
F 2 "Connector_PinHeader_2.54mm:PinHeader_1x03_P2.54mm_Vertical" H 13250 -1450 50  0001 C CNN
F 3 "~" H 13250 -1450 50  0001 C CNN
	1    13250 -1450
	-1   0    0    -1  
$EndComp
Wire Wire Line
	13050 -1550 13050 -1750
$Comp
L power:+5V #PWR0253
U 1 1 5F22319F
P 13050 -1750
F 0 "#PWR0253" H 13050 -1900 50  0001 C CNN
F 1 "+5V" H 13065 -1577 50  0000 C CNN
F 2 "" H 13050 -1750 50  0001 C CNN
F 3 "" H 13050 -1750 50  0001 C CNN
	1    13050 -1750
	1    0    0    -1  
$EndComp
$Comp
L power:GND #PWR0254
U 1 1 5F22EE49
P 13050 -1350
AR Path="/5F22EE49" Ref="#PWR0254"  Part="1" 
AR Path="/5D474AF3/5F22EE49" Ref="#PWR?"  Part="1" 
AR Path="/5EE8D555/5F22EE49" Ref="#PWR?"  Part="1" 
F 0 "#PWR0254" H 13050 -1600 50  0001 C CNN
F 1 "GND" V 13055 -1478 50  0000 R CNN
F 2 "" H 13050 -1350 50  0001 C CNN
F 3 "" H 13050 -1350 50  0001 C CNN
	1    13050 -1350
	1    0    0    -1  
$EndComp
$Comp
L ECU-rescue:DVIULC6-4SC6-micromelon U109
U 1 1 5F27AAD6
P 10100 -1000
F 0 "U109" H 10100 -585 50  0000 C CNN
F 1 "DVIULC6-4SC6" H 10100 -676 50  0000 C CNN
F 2 "Package_TO_SOT_SMD:TSOT-23-6" H 10100 -1000 50  0001 C CNN
F 3 "" H 10100 -1000 50  0001 C CNN
	1    10100 -1000
	-1   0    0    -1  
$EndComp
$Comp
L Device:R R129
U 1 1 5F27ECDB
P 10850 -1150
AR Path="/5F27ECDB" Ref="R129"  Part="1" 
AR Path="/5D474AF3/5F27ECDB" Ref="R?"  Part="1" 
AR Path="/5EE8D555/5F27ECDB" Ref="R?"  Part="1" 
F 0 "R129" V 10850 -1400 50  0000 R CNN
F 1 "1k" V 10850 -1100 50  0000 R CNN
F 2 "Resistor_SMD:R_0603_1608Metric" V 10780 -1150 50  0001 C CNN
F 3 "~" H 10850 -1150 50  0001 C CNN
	1    10850 -1150
	0    -1   -1   0   
$EndComp
$Comp
L Device:R R130
U 1 1 5F27ECE1
P 10850 -1050
AR Path="/5F27ECE1" Ref="R130"  Part="1" 
AR Path="/5D474AF3/5F27ECE1" Ref="R?"  Part="1" 
AR Path="/5EE8D555/5F27ECE1" Ref="R?"  Part="1" 
F 0 "R130" V 10850 -1300 50  0000 R CNN
F 1 "1k" V 10850 -1000 50  0000 R CNN
F 2 "Resistor_SMD:R_0603_1608Metric" V 10780 -1050 50  0001 C CNN
F 3 "~" H 10850 -1050 50  0001 C CNN
	1    10850 -1050
	0    -1   -1   0   
$EndComp
$Comp
L Device:R R131
U 1 1 5F27ECE7
P 10850 -950
AR Path="/5F27ECE7" Ref="R131"  Part="1" 
AR Path="/5D474AF3/5F27ECE7" Ref="R?"  Part="1" 
AR Path="/5EE8D555/5F27ECE7" Ref="R?"  Part="1" 
F 0 "R131" V 10850 -1200 50  0000 R CNN
F 1 "1k" V 10850 -900 50  0000 R CNN
F 2 "Resistor_SMD:R_0603_1608Metric" V 10780 -950 50  0001 C CNN
F 3 "~" H 10850 -950 50  0001 C CNN
	1    10850 -950
	0    -1   -1   0   
$EndComp
$Comp
L Device:R R132
U 1 1 5F27ECED
P 10850 -850
AR Path="/5F27ECED" Ref="R132"  Part="1" 
AR Path="/5D474AF3/5F27ECED" Ref="R?"  Part="1" 
AR Path="/5EE8D555/5F27ECED" Ref="R?"  Part="1" 
F 0 "R132" V 10850 -1100 50  0000 R CNN
F 1 "1k" V 10850 -800 50  0000 R CNN
F 2 "Resistor_SMD:R_0603_1608Metric" V 10780 -850 50  0001 C CNN
F 3 "~" H 10850 -850 50  0001 C CNN
	1    10850 -850
	0    -1   -1   0   
$EndComp
Wire Wire Line
	10450 -850 10550 -850
Wire Wire Line
	10550 -850 10550 -950
Wire Wire Line
	10550 -950 10700 -950
Wire Wire Line
	10700 -1050 10550 -1050
Wire Wire Line
	10550 -1050 10550 -1150
Wire Wire Line
	10550 -1150 10450 -1150
Wire Wire Line
	10700 -1150 10700 -1300
Wire Wire Line
	10700 -1300 9750 -1300
Wire Wire Line
	9750 -1300 9750 -1150
Wire Wire Line
	9750 -850 9750 -700
Wire Wire Line
	9750 -700 10700 -700
Wire Wire Line
	10700 -700 10700 -850
Wire Wire Line
	11000 -1150 11050 -1150
Wire Wire Line
	11050 -1150 11050 -1450
Wire Wire Line
	11050 -1450 11350 -1450
Wire Wire Line
	11000 -1050 11850 -1050
Wire Wire Line
	11850 -1050 11850 -1450
Wire Wire Line
	11850 -1450 11900 -1450
Wire Wire Line
	11000 -950 12400 -950
Wire Wire Line
	12400 -950 12400 -1450
Wire Wire Line
	12400 -1450 12450 -1450
Wire Wire Line
	11000 -850 12950 -850
Wire Wire Line
	12950 -850 12950 -1450
Wire Wire Line
	12950 -1450 13050 -1450
$Comp
L power:GND #PWR0245
U 1 1 5F2E4506
P 10450 -1000
AR Path="/5F2E4506" Ref="#PWR0245"  Part="1" 
AR Path="/5D474AF3/5F2E4506" Ref="#PWR?"  Part="1" 
AR Path="/5EE8D555/5F2E4506" Ref="#PWR?"  Part="1" 
F 0 "#PWR0245" H 10450 -1250 50  0001 C CNN
F 1 "GND" V 10455 -1128 50  0000 R CNN
F 2 "" H 10450 -1000 50  0001 C CNN
F 3 "" H 10450 -1000 50  0001 C CNN
	1    10450 -1000
	1    0    0    -1  
$EndComp
$Comp
L power:+3.3VA #PWR0255
U 1 1 5F2E6957
P 11900 -1750
F 0 "#PWR0255" H 11900 -1900 50  0001 C CNN
F 1 "+3.3VA" H 11915 -1577 50  0000 C CNN
F 2 "" H 11900 -1750 50  0001 C CNN
F 3 "" H 11900 -1750 50  0001 C CNN
	1    11900 -1750
	1    0    0    -1  
$EndComp
$Comp
L power:+3.3VA #PWR0256
U 1 1 5F2E8B2F
P 9550 -1000
F 0 "#PWR0256" H 9550 -1150 50  0001 C CNN
F 1 "+3.3VA" H 9565 -827 50  0000 C CNN
F 2 "" H 9550 -1000 50  0001 C CNN
F 3 "" H 9550 -1000 50  0001 C CNN
	1    9550 -1000
	1    0    0    -1  
$EndComp
Wire Wire Line
	9550 -1000 9750 -1000
Wire Wire Line
	6600 1250 6600 1950
Wire Wire Line
	6100 1350 6650 1350
Wire Wire Line
	6650 1350 6650 650 
Wire Wire Line
	6650 650  7600 650 
$Comp
L power:+3.3VA #PWR0153
U 1 1 5F3874D2
P 8950 -1100
F 0 "#PWR0153" H 8950 -1250 50  0001 C CNN
F 1 "+3.3VA" H 8965 -927 50  0000 C CNN
F 2 "" H 8950 -1100 50  0001 C CNN
F 3 "" H 8950 -1100 50  0001 C CNN
	1    8950 -1100
	1    0    0    -1  
$EndComp
Wire Wire Line
	0    6700 1350 6700
Wire Wire Line
	750  6900 550  6900
Wire Wire Line
	-700 6700 -400 6700
Text Notes 4950 2050 0    50   ~ 0
0 1 0 0 1 1 1\n0x27
Text Notes -1650 1850 0    50   ~ 0
0 1 0 0 1 1 0\n0x26\n
Wire Notes Line
	4550 -3750 4550 -450
Wire Notes Line
	4450 -450 4450 -3750
Wire Notes Line
	1750 -3750 1750 -2250
Wire Notes Line
	850  -3750 850  -2250
Text Notes 1150 -3650 0    50   ~ 0
I2C PULL UPS
Text Notes 4000 -3650 0    50   ~ 0
USB PORT
Wire Notes Line
	1900 -3750 1900 -450
Text Label 4150 3650 2    50   ~ 0
GEAR_A
Text Label 4200 3900 2    50   ~ 0
Lockout
Text Label 3500 1700 0    50   ~ 0
GEAR_POS_ADC
Text Label -1200 7750 2    50   ~ 0
ECUPower_VCC
Text Label -1050 7750 0    50   ~ 0
GearPower_VCC
$Comp
L Device:R R?
U 1 1 5FABA606
P -1050 7900
AR Path="/5ED62633/5FABA606" Ref="R?"  Part="1" 
AR Path="/5EDF4185/5FABA606" Ref="R?"  Part="1" 
AR Path="/5FABA606" Ref="R2"  Part="1" 
F 0 "R2" H -980 7946 50  0000 L CNN
F 1 "10k" H -980 7855 50  0000 L CNN
F 2 "Resistor_SMD:R_0603_1608Metric" V -1120 7900 50  0001 C CNN
F 3 "~" H -1050 7900 50  0001 C CNN
	1    -1050 7900
	1    0    0    -1  
$EndComp
$Comp
L Device:R R?
U 1 1 5FABADDC
P -1200 7900
AR Path="/5ED62633/5FABADDC" Ref="R?"  Part="1" 
AR Path="/5EDF4185/5FABADDC" Ref="R?"  Part="1" 
AR Path="/5FABADDC" Ref="R1"  Part="1" 
F 0 "R1" H -1130 7946 50  0000 L CNN
F 1 "10k" H -1130 7855 50  0000 L CNN
F 2 "Resistor_SMD:R_0603_1608Metric" V -1270 7900 50  0001 C CNN
F 3 "~" H -1200 7900 50  0001 C CNN
	1    -1200 7900
	-1   0    0    -1  
$EndComp
$Comp
L power:GND #PWR0257
U 1 1 5FABB227
P -1050 8350
F 0 "#PWR0257" H -1050 8100 50  0001 C CNN
F 1 "GND" H -1050 8200 50  0000 C CNN
F 2 "" H -1050 8350 50  0001 C CNN
F 3 "" H -1050 8350 50  0001 C CNN
	1    -1050 8350
	1    0    0    -1  
$EndComp
$Comp
L Device:LED D2
U 1 1 5FABB7B6
P -1050 8200
F 0 "D2" V -1011 8083 50  0000 R CNN
F 1 "LED" V -1102 8083 50  0000 R CNN
F 2 "LED_SMD:LED_0603_1608Metric" H -1050 8200 50  0001 C CNN
F 3 "~" H -1050 8200 50  0001 C CNN
	1    -1050 8200
	0    -1   -1   0   
$EndComp
$Comp
L power:GND #PWR0258
U 1 1 5FAC03C9
P -1200 8350
F 0 "#PWR0258" H -1200 8100 50  0001 C CNN
F 1 "GND" H -1200 8200 50  0000 C CNN
F 2 "" H -1200 8350 50  0001 C CNN
F 3 "" H -1200 8350 50  0001 C CNN
	1    -1200 8350
	-1   0    0    -1  
$EndComp
$Comp
L Device:LED D1
U 1 1 5FAC03CF
P -1200 8200
F 0 "D1" V -1150 8000 50  0000 L CNN
F 1 "LED" V -1250 7950 50  0000 L CNN
F 2 "LED_SMD:LED_0603_1608Metric" H -1200 8200 50  0001 C CNN
F 3 "~" H -1200 8200 50  0001 C CNN
	1    -1200 8200
	0    1    -1   0   
$EndComp
$Comp
L Device:R R?
U 1 1 5FAE9802
P -200 2650
AR Path="/5ED62633/5FAE9802" Ref="R?"  Part="1" 
AR Path="/5EDF4185/5FAE9802" Ref="R?"  Part="1" 
AR Path="/5FAE9802" Ref="R4"  Part="1" 
F 0 "R4" H -130 2696 50  0000 L CNN
F 1 "10k" H -130 2605 50  0000 L CNN
F 2 "Resistor_SMD:R_0603_1608Metric" V -270 2650 50  0001 C CNN
F 3 "~" H -200 2650 50  0001 C CNN
	1    -200 2650
	1    0    0    -1  
$EndComp
$Comp
L Device:R R?
U 1 1 5FAE9808
P -350 2650
AR Path="/5ED62633/5FAE9808" Ref="R?"  Part="1" 
AR Path="/5EDF4185/5FAE9808" Ref="R?"  Part="1" 
AR Path="/5FAE9808" Ref="R3"  Part="1" 
F 0 "R3" H -280 2696 50  0000 L CNN
F 1 "10k" H -280 2605 50  0000 L CNN
F 2 "Resistor_SMD:R_0603_1608Metric" V -420 2650 50  0001 C CNN
F 3 "~" H -350 2650 50  0001 C CNN
	1    -350 2650
	-1   0    0    -1  
$EndComp
$Comp
L power:GND #PWR0259
U 1 1 5FAE980E
P -200 3100
F 0 "#PWR0259" H -200 2850 50  0001 C CNN
F 1 "GND" H -200 2950 50  0000 C CNN
F 2 "" H -200 3100 50  0001 C CNN
F 3 "" H -200 3100 50  0001 C CNN
	1    -200 3100
	1    0    0    -1  
$EndComp
$Comp
L Device:LED D4
U 1 1 5FAE9814
P -200 2950
F 0 "D4" V -161 2833 50  0000 R CNN
F 1 "LED" V -252 2833 50  0000 R CNN
F 2 "LED_SMD:LED_0603_1608Metric" H -200 2950 50  0001 C CNN
F 3 "~" H -200 2950 50  0001 C CNN
	1    -200 2950
	0    -1   -1   0   
$EndComp
$Comp
L power:GND #PWR0260
U 1 1 5FAE981A
P -350 3100
F 0 "#PWR0260" H -350 2850 50  0001 C CNN
F 1 "GND" H -350 2950 50  0000 C CNN
F 2 "" H -350 3100 50  0001 C CNN
F 3 "" H -350 3100 50  0001 C CNN
	1    -350 3100
	-1   0    0    -1  
$EndComp
$Comp
L Device:LED D3
U 1 1 5FAE9820
P -350 2950
F 0 "D3" V -300 2750 50  0000 L CNN
F 1 "LED" V -400 2700 50  0000 L CNN
F 2 "LED_SMD:LED_0603_1608Metric" H -350 2950 50  0001 C CNN
F 3 "~" H -350 2950 50  0001 C CNN
	1    -350 2950
	0    1    -1   0   
$EndComp
Wire Wire Line
	-350 2500 -350 2200
Wire Wire Line
	-350 2200 -500 2200
Wire Wire Line
	-500 2100 -200 2100
Wire Wire Line
	-200 2100 -200 2500
$EndSCHEMATC
