EESchema Schematic File Version 4
LIBS:ECU-cache
EELAYER 29 0
EELAYER END
$Descr A4 11693 8268
encoding utf-8
Sheet 6 6
Title ""
Date ""
Rev ""
Comp ""
Comment1 ""
Comment2 ""
Comment3 ""
Comment4 ""
$EndDescr
Wire Wire Line
	5000 3550 5000 3400
$Comp
L power:GND #PWR0131
U 1 1 5ED97807
P 5000 3400
AR Path="/5ED624FF/5ED97807" Ref="#PWR0131"  Part="1" 
AR Path="/5EF6AC61/5ED97807" Ref="#PWR?"  Part="1" 
F 0 "#PWR0131" H 5000 3150 50  0001 C CNN
F 1 "GND" H 5005 3227 50  0000 C CNN
F 2 "" H 5000 3400 50  0001 C CNN
F 3 "" H 5000 3400 50  0001 C CNN
	1    5000 3400
	-1   0    0    1   
$EndComp
$Comp
L power:GND #PWR0132
U 1 1 5ED988B3
P 5700 3400
AR Path="/5ED624FF/5ED988B3" Ref="#PWR0132"  Part="1" 
AR Path="/5EF6AC61/5ED988B3" Ref="#PWR?"  Part="1" 
F 0 "#PWR0132" H 5700 3150 50  0001 C CNN
F 1 "GND" H 5705 3227 50  0000 C CNN
F 2 "" H 5700 3400 50  0001 C CNN
F 3 "" H 5700 3400 50  0001 C CNN
	1    5700 3400
	-1   0    0    1   
$EndComp
Wire Wire Line
	5700 3400 5700 3550
$Comp
L power:GND #PWR0133
U 1 1 5ED991C8
P 5000 4400
AR Path="/5ED624FF/5ED991C8" Ref="#PWR0133"  Part="1" 
AR Path="/5EF6AC61/5ED991C8" Ref="#PWR?"  Part="1" 
F 0 "#PWR0133" H 5000 4150 50  0001 C CNN
F 1 "GND" H 5005 4227 50  0000 C CNN
F 2 "" H 5000 4400 50  0001 C CNN
F 3 "" H 5000 4400 50  0001 C CNN
	1    5000 4400
	1    0    0    -1  
$EndComp
$Comp
L power:GND #PWR0134
U 1 1 5ED99AB5
P 5700 4400
AR Path="/5ED624FF/5ED99AB5" Ref="#PWR0134"  Part="1" 
AR Path="/5EF6AC61/5ED99AB5" Ref="#PWR?"  Part="1" 
F 0 "#PWR0134" H 5700 4150 50  0001 C CNN
F 1 "GND" H 5705 4227 50  0000 C CNN
F 2 "" H 5700 4400 50  0001 C CNN
F 3 "" H 5700 4400 50  0001 C CNN
	1    5700 4400
	1    0    0    -1  
$EndComp
Wire Wire Line
	5700 4400 5700 4250
Wire Wire Line
	5000 4400 5000 4250
Wire Wire Line
	5000 3950 5000 3850
Wire Wire Line
	5900 3950 5700 3950
Text HLabel 4700 3750 0    50   Input ~ 0
IN_A
Text HLabel 4700 4050 0    50   Input ~ 0
IN_B
Text HLabel 6200 4050 2    50   Input ~ 0
PWM
$Comp
L Device:R R202
U 1 1 5EDA0DF3
P 4850 4050
AR Path="/5ED624FF/5EDA0DF3" Ref="R202"  Part="1" 
AR Path="/5EF6AC61/5EDA0DF3" Ref="R?"  Part="1" 
F 0 "R202" V 4850 3600 50  0000 C CNN
F 1 "1k" V 4850 4050 50  0000 C CNN
F 2 "Resistor_SMD:R_0603_1608Metric" V 4780 4050 50  0001 C CNN
F 3 "~" H 4850 4050 50  0001 C CNN
	1    4850 4050
	0    1    1    0   
$EndComp
$Comp
L Device:R R201
U 1 1 5EDA249F
P 4850 3750
AR Path="/5ED624FF/5EDA249F" Ref="R201"  Part="1" 
AR Path="/5EF6AC61/5EDA249F" Ref="R?"  Part="1" 
F 0 "R201" V 4850 3300 50  0000 C CNN
F 1 "1k" V 4850 3750 50  0000 C CNN
F 2 "Resistor_SMD:R_0603_1608Metric" V 4780 3750 50  0001 C CNN
F 3 "~" H 4850 3750 50  0001 C CNN
	1    4850 3750
	0    1    1    0   
$EndComp
$Comp
L Device:R R203
U 1 1 5EDA34DA
P 5850 4050
AR Path="/5ED624FF/5EDA34DA" Ref="R203"  Part="1" 
AR Path="/5EF6AC61/5EDA34DA" Ref="R?"  Part="1" 
F 0 "R203" V 5900 4250 50  0000 C CNN
F 1 "1k" V 5850 4050 50  0000 C CNN
F 2 "Resistor_SMD:R_0603_1608Metric" V 5780 4050 50  0001 C CNN
F 3 "~" H 5850 4050 50  0001 C CNN
	1    5850 4050
	0    1    1    0   
$EndComp
Wire Wire Line
	6200 4050 6000 4050
Wire Wire Line
	5000 3650 5700 3650
$Comp
L ECU-rescue:VNH7070BAS-micromelon U201
U 1 1 5ED94D14
P 5300 3400
AR Path="/5ED624FF/5ED94D14" Ref="U201"  Part="1" 
AR Path="/5EF6AC61/5ED94D14" Ref="U?"  Part="1" 
F 0 "U201" H 5350 3475 50  0000 C CNN
F 1 "VNH7070BAS" H 5350 3384 50  0000 C CNN
F 2 "Package_SO:SOIC-16_3.9x9.9mm_P1.27mm" H 5300 3400 50  0001 C CNN
F 3 "" H 5300 3400 50  0001 C CNN
	1    5300 3400
	1    0    0    -1  
$EndComp
$Comp
L Device:R R204
U 1 1 5EDA82DE
P 6800 4000
AR Path="/5ED624FF/5EDA82DE" Ref="R204"  Part="1" 
AR Path="/5EF6AC61/5EDA82DE" Ref="R?"  Part="1" 
F 0 "R204" V 6700 4050 50  0000 C CNN
F 1 "1k" V 6800 4000 50  0000 C CNN
F 2 "Resistor_SMD:R_0603_1608Metric" V 6730 4000 50  0001 C CNN
F 3 "~" H 6800 4000 50  0001 C CNN
	1    6800 4000
	1    0    0    -1  
$EndComp
$Comp
L Device:R R205
U 1 1 5EDA91C1
P 7100 3850
AR Path="/5ED624FF/5EDA91C1" Ref="R205"  Part="1" 
AR Path="/5EF6AC61/5EDA91C1" Ref="R?"  Part="1" 
F 0 "R205" V 7200 3850 50  0000 C CNN
F 1 "10k" V 7100 3850 50  0000 C CNN
F 2 "Resistor_SMD:R_0603_1608Metric" V 7030 3850 50  0001 C CNN
F 3 "~" H 7100 3850 50  0001 C CNN
	1    7100 3850
	0    -1   -1   0   
$EndComp
$Comp
L Device:C C203
U 1 1 5EDAA97E
P 7350 4000
AR Path="/5ED624FF/5EDAA97E" Ref="C203"  Part="1" 
AR Path="/5EF6AC61/5EDAA97E" Ref="C?"  Part="1" 
F 0 "C203" H 7235 3954 50  0000 R CNN
F 1 "1u" H 7235 4045 50  0000 R CNN
F 2 "Capacitor_SMD:C_0603_1608Metric_Pad1.05x0.95mm_HandSolder" H 7388 3850 50  0001 C CNN
F 3 "~" H 7350 4000 50  0001 C CNN
	1    7350 4000
	-1   0    0    1   
$EndComp
Wire Wire Line
	5700 3850 6800 3850
Wire Wire Line
	6950 3850 6800 3850
Connection ~ 6800 3850
Wire Wire Line
	7250 3850 7350 3850
$Comp
L power:GND #PWR0137
U 1 1 5EDAF52A
P 6800 4150
AR Path="/5ED624FF/5EDAF52A" Ref="#PWR0137"  Part="1" 
AR Path="/5EF6AC61/5EDAF52A" Ref="#PWR?"  Part="1" 
F 0 "#PWR0137" H 6800 3900 50  0001 C CNN
F 1 "GND" H 6805 3977 50  0000 C CNN
F 2 "" H 6800 4150 50  0001 C CNN
F 3 "" H 6800 4150 50  0001 C CNN
	1    6800 4150
	1    0    0    -1  
$EndComp
$Comp
L power:GND #PWR0138
U 1 1 5EDAFBC3
P 7350 4150
AR Path="/5ED624FF/5EDAFBC3" Ref="#PWR0138"  Part="1" 
AR Path="/5EF6AC61/5EDAFBC3" Ref="#PWR?"  Part="1" 
F 0 "#PWR0138" H 7350 3900 50  0001 C CNN
F 1 "GND" H 7355 3977 50  0000 C CNN
F 2 "" H 7350 4150 50  0001 C CNN
F 3 "" H 7350 4150 50  0001 C CNN
	1    7350 4150
	1    0    0    -1  
$EndComp
Text HLabel 7350 3850 2    50   Output ~ 0
CurentSense
$Comp
L power:GND #PWR0139
U 1 1 5EDB068B
P 5700 3750
AR Path="/5ED624FF/5EDB068B" Ref="#PWR0139"  Part="1" 
AR Path="/5EF6AC61/5EDB068B" Ref="#PWR?"  Part="1" 
F 0 "#PWR0139" H 5700 3500 50  0001 C CNN
F 1 "GND" V 5705 3622 50  0000 R CNN
F 2 "" H 5700 3750 50  0001 C CNN
F 3 "" H 5700 3750 50  0001 C CNN
	1    5700 3750
	0    -1   -1   0   
$EndComp
$Comp
L Device:C C201
U 1 1 5EDB2F2E
P 6450 3200
AR Path="/5ED624FF/5EDB2F2E" Ref="C201"  Part="1" 
AR Path="/5EF6AC61/5EDB2F2E" Ref="C?"  Part="1" 
F 0 "C201" H 6335 3154 50  0000 R CNN
F 1 "100u" H 6335 3245 50  0000 R CNN
F 2 "Capacitor_SMD:C_0805_2012Metric" H 6488 3050 50  0001 C CNN
F 3 "~" H 6450 3200 50  0001 C CNN
	1    6450 3200
	-1   0    0    1   
$EndComp
$Comp
L Device:CP C202
U 1 1 5EDB3989
P 6850 3200
AR Path="/5ED624FF/5EDB3989" Ref="C202"  Part="1" 
AR Path="/5EF6AC61/5EDB3989" Ref="C?"  Part="1" 
F 0 "C202" H 7150 3150 50  0000 R CNN
F 1 "270u" H 7150 3250 50  0000 R CNN
F 2 "Capacitor_SMD:CP_Elec_8x10.5" H 6888 3050 50  0001 C CNN
F 3 "~" H 6850 3200 50  0001 C CNN
	1    6850 3200
	1    0    0    -1  
$EndComp
Wire Wire Line
	6850 3050 6450 3050
Wire Wire Line
	6450 3350 6850 3350
$Comp
L power:GND #PWR0141
U 1 1 5EDB5710
P 6450 3350
AR Path="/5ED624FF/5EDB5710" Ref="#PWR0141"  Part="1" 
AR Path="/5EF6AC61/5EDB5710" Ref="#PWR?"  Part="1" 
F 0 "#PWR0141" H 6450 3100 50  0001 C CNN
F 1 "GND" H 6455 3177 50  0000 C CNN
F 2 "" H 6450 3350 50  0001 C CNN
F 3 "" H 6450 3350 50  0001 C CNN
	1    6450 3350
	1    0    0    -1  
$EndComp
Connection ~ 6450 3350
$Comp
L power:GND #PWR0144
U 1 1 5EDB85DF
P 9750 2900
AR Path="/5ED624FF/5EDB85DF" Ref="#PWR0144"  Part="1" 
AR Path="/5EF6AC61/5EDB85DF" Ref="#PWR?"  Part="1" 
F 0 "#PWR0144" H 9750 2650 50  0001 C CNN
F 1 "GND" H 9755 2727 50  0000 C CNN
F 2 "" H 9750 2900 50  0001 C CNN
F 3 "" H 9750 2900 50  0001 C CNN
	1    9750 2900
	1    0    0    -1  
$EndComp
$Comp
L power:GND #PWR0145
U 1 1 5EDB8D43
P 10200 4250
AR Path="/5ED624FF/5EDB8D43" Ref="#PWR0145"  Part="1" 
AR Path="/5EF6AC61/5EDB8D43" Ref="#PWR?"  Part="1" 
F 0 "#PWR0145" H 10200 4000 50  0001 C CNN
F 1 "GND" H 10205 4077 50  0000 C CNN
F 2 "" H 10200 4250 50  0001 C CNN
F 3 "" H 10200 4250 50  0001 C CNN
	1    10200 4250
	0    -1   -1   0   
$EndComp
$Comp
L Device:R R209
U 1 1 5EDBA404
P 9900 2300
AR Path="/5ED624FF/5EDBA404" Ref="R209"  Part="1" 
AR Path="/5EF6AC61/5EDBA404" Ref="R?"  Part="1" 
F 0 "R209" V 9800 2200 50  0000 C CNN
F 1 "100" V 9800 2300 50  0000 C CNN
F 2 "Resistor_SMD:R_0603_1608Metric" V 9830 2300 50  0001 C CNN
F 3 "~" H 9900 2300 50  0001 C CNN
	1    9900 2300
	0    -1   -1   0   
$EndComp
$Comp
L Device:R R207
U 1 1 5EDBB3EB
P 9550 2450
AR Path="/5ED624FF/5EDBB3EB" Ref="R207"  Part="1" 
AR Path="/5EF6AC61/5EDBB3EB" Ref="R?"  Part="1" 
F 0 "R207" V 9450 2350 50  0000 C CNN
F 1 "1k" V 9450 2450 50  0000 C CNN
F 2 "Resistor_SMD:R_0603_1608Metric" V 9480 2450 50  0001 C CNN
F 3 "~" H 9550 2450 50  0001 C CNN
	1    9550 2450
	-1   0    0    1   
$EndComp
$Comp
L Device:R R206
U 1 1 5EDBE39E
P 9350 2450
AR Path="/5ED624FF/5EDBE39E" Ref="R206"  Part="1" 
AR Path="/5EF6AC61/5EDBE39E" Ref="R?"  Part="1" 
F 0 "R206" V 9250 2350 50  0000 C CNN
F 1 "1k" V 9250 2450 50  0000 C CNN
F 2 "Resistor_SMD:R_0603_1608Metric" V 9280 2450 50  0001 C CNN
F 3 "~" H 9350 2450 50  0001 C CNN
	1    9350 2450
	-1   0    0    1   
$EndComp
Wire Wire Line
	9350 2600 9350 2800
Connection ~ 9350 2800
Wire Wire Line
	9350 2800 9200 2800
Wire Wire Line
	9550 2600 9550 2700
Connection ~ 9550 2700
Wire Wire Line
	9550 2700 9200 2700
Wire Wire Line
	9350 2300 9550 2300
Connection ~ 9550 2300
Wire Wire Line
	9550 2300 9750 2300
Text HLabel 9200 2700 0    50   Output ~ 0
GEAR_A
Text HLabel 9200 2800 0    50   Output ~ 0
GEAR_B
Text HLabel 9700 3950 1    50   Output ~ 0
GEAR_POS
Wire Notes Line
	11200 1900 8500 1900
Wire Notes Line
	8500 4750 11200 4750
Wire Notes Line
	11200 4750 11200 1900
Wire Notes Line
	8500 1900 8500 4750
Wire Notes Line
	11200 3400 8500 3400
Wire Wire Line
	3600 4150 3600 3900
Wire Wire Line
	3600 4150 5000 4150
Connection ~ 5000 4150
Wire Wire Line
	5000 4150 5700 4150
Wire Wire Line
	5000 3650 3600 3650
Wire Wire Line
	3600 3650 3600 3800
Connection ~ 5000 3650
Text HLabel 4200 3850 0    50   Input ~ 0
Power_IN
$Comp
L Connector_Generic:Conn_02x03_Odd_Even J201
U 1 1 5F052DE7
P 9950 2800
F 0 "J201" H 10000 3117 50  0000 C CNN
F 1 "GearMotor" H 10000 3026 50  0000 C CNN
F 2 "Micromelon:MC34331" H 9950 2800 50  0001 C CNN
F 3 "~" H 9950 2800 50  0001 C CNN
	1    9950 2800
	1    0    0    -1  
$EndComp
Text Label 3600 3800 2    50   ~ 0
GEAR_MOTOR_A
Text Label 3600 3900 2    50   ~ 0
GEAR_MOTOR_B
Text Label 10250 2800 0    50   ~ 0
GEAR_MOTOR_A
Text Label 10250 2900 0    50   ~ 0
GEAR_MOTOR_B
$Comp
L power:GND #PWR0156
U 1 1 5F0062D7
P 10200 4050
AR Path="/5ED624FF/5F0062D7" Ref="#PWR0156"  Part="1" 
AR Path="/5EF6AC61/5F0062D7" Ref="#PWR?"  Part="1" 
F 0 "#PWR0156" H 10200 3800 50  0001 C CNN
F 1 "GND" H 10205 3877 50  0000 C CNN
F 2 "" H 10200 4050 50  0001 C CNN
F 3 "" H 10200 4050 50  0001 C CNN
	1    10200 4050
	0    -1   -1   0   
$EndComp
$Comp
L Connector_Generic:Conn_02x04_Odd_Even J202
U 1 1 5F002897
P 10000 4050
F 0 "J202" H 10050 4367 50  0000 C CNN
F 1 "Gear_pos" H 10050 4276 50  0000 C CNN
F 2 "Micromelon:MC34333" H 10000 4050 50  0001 C CNN
F 3 "~" H 10000 4050 50  0001 C CNN
	1    10000 4050
	-1   0    0    -1  
$EndComp
Text HLabel 9400 4050 0    50   Input ~ 0
Lockout
$Comp
L Device:Fuse F?
U 1 1 5F02E3BE
P 4350 3850
AR Path="/5EDF4185/5F02E3BE" Ref="F?"  Part="1" 
AR Path="/5ED624FF/5F02E3BE" Ref="F201"  Part="1" 
F 0 "F201" V 4153 3850 50  0000 C CNN
F 1 "GearBox" V 4244 3850 50  0000 C CNN
F 2 "Fuse:Fuseholder_Blade_Mini_Keystone_3568" V 4280 3850 50  0001 C CNN
F 3 "~" H 4350 3850 50  0001 C CNN
	1    4350 3850
	0    1    1    0   
$EndComp
Wire Wire Line
	4500 3850 5000 3850
Connection ~ 5000 3850
Wire Wire Line
	9550 2700 9750 2700
Wire Wire Line
	9350 2800 9750 2800
Wire Wire Line
	10050 2300 10250 2300
Wire Wire Line
	10250 2300 10250 2700
$Comp
L power:+3.3VA #PWR0241
U 1 1 5F38400B
P 9750 2100
F 0 "#PWR0241" H 9750 1950 50  0001 C CNN
F 1 "+3.3VA" H 9765 2273 50  0000 C CNN
F 2 "" H 9750 2100 50  0001 C CNN
F 3 "" H 9750 2100 50  0001 C CNN
	1    9750 2100
	1    0    0    -1  
$EndComp
$Comp
L power:+3.3VA #PWR0242
U 1 1 5F3849D3
P 10200 3950
F 0 "#PWR0242" H 10200 3800 50  0001 C CNN
F 1 "+3.3VA" H 10215 4123 50  0000 C CNN
F 2 "" H 10200 3950 50  0001 C CNN
F 3 "" H 10200 3950 50  0001 C CNN
	1    10200 3950
	1    0    0    -1  
$EndComp
$Comp
L power:+3.3VA #PWR0243
U 1 1 5F3850CE
P 9400 3750
F 0 "#PWR0243" H 9400 3600 50  0001 C CNN
F 1 "+3.3VA" H 9415 3923 50  0000 C CNN
F 2 "" H 9400 3750 50  0001 C CNN
F 3 "" H 9400 3750 50  0001 C CNN
	1    9400 3750
	1    0    0    -1  
$EndComp
$Comp
L Device:Jumper_NC_Small JP601
U 1 1 5F385E57
P 9750 2200
F 0 "JP601" V 9796 2153 50  0000 R CNN
F 1 "Jumper_NC_Small" V 9705 2153 50  0000 R CNN
F 2 "Connector_PinHeader_2.54mm:PinHeader_1x02_P2.54mm_Vertical" H 9750 2200 50  0001 C CNN
F 3 "~" H 9750 2200 50  0001 C CNN
	1    9750 2200
	0    -1   -1   0   
$EndComp
Connection ~ 9750 2300
Text Label 4550 3850 0    50   ~ 0
Driver+12
Text Label 6650 3050 0    50   ~ 0
Driver+12
Text Label 5900 3950 0    50   ~ 0
Driver+12
$Comp
L Device:R R607
U 1 1 5F107D92
P 9400 3900
AR Path="/5ED624FF/5F107D92" Ref="R607"  Part="1" 
AR Path="/5EF6AC61/5F107D92" Ref="R?"  Part="1" 
F 0 "R607" V 9300 3800 50  0000 C CNN
F 1 "1k" V 9300 3900 50  0000 C CNN
F 2 "Resistor_SMD:R_0603_1608Metric" V 9330 3900 50  0001 C CNN
F 3 "~" H 9400 3900 50  0001 C CNN
	1    9400 3900
	-1   0    0    1   
$EndComp
Text HLabel 9700 4150 0    50   Input ~ 0
Temp_Water
Text HLabel 9700 4250 0    50   Input ~ 0
Temp_Oil
$Comp
L power:GND #PWR0240
U 1 1 5F1089F2
P 10200 4150
AR Path="/5ED624FF/5F1089F2" Ref="#PWR0240"  Part="1" 
AR Path="/5EF6AC61/5F1089F2" Ref="#PWR?"  Part="1" 
F 0 "#PWR0240" H 10200 3900 50  0001 C CNN
F 1 "GND" H 10205 3977 50  0000 C CNN
F 2 "" H 10200 4150 50  0001 C CNN
F 3 "" H 10200 4150 50  0001 C CNN
	1    10200 4150
	0    -1   -1   0   
$EndComp
Wire Wire Line
	9400 4050 9700 4050
$EndSCHEMATC
