EESchema Schematic File Version 4
LIBS:ECU-cache
EELAYER 29 0
EELAYER END
$Descr A4 11693 8268
encoding utf-8
Sheet 2 6
Title ""
Date ""
Rev ""
Comp ""
Comment1 ""
Comment2 ""
Comment3 ""
Comment4 ""
$EndDescr
$Comp
L Analog_DAC:MCP4728 U302
U 1 1 5ED68D8E
P 6750 3950
F 0 "U302" H 6300 4350 50  0000 C CNN
F 1 "MCP4728" H 6450 4250 50  0000 C CNN
F 2 "Package_SO:MSOP-10_3x3mm_P0.5mm" H 6750 3350 50  0001 C CNN
F 3 "http://ww1.microchip.com/downloads/en/DeviceDoc/22187E.pdf" H 6750 4200 50  0001 C CNN
	1    6750 3950
	1    0    0    -1  
$EndComp
Wire Wire Line
	7350 3850 8050 3850
Wire Wire Line
	7350 3950 8050 3950
$Comp
L power:GND #PWR0146
U 1 1 5ED6E3D3
P 9650 2900
F 0 "#PWR0146" H 9650 2650 50  0001 C CNN
F 1 "GND" H 9655 2727 50  0000 C CNN
F 2 "" H 9650 2900 50  0001 C CNN
F 3 "" H 9650 2900 50  0001 C CNN
	1    9650 2900
	1    0    0    -1  
$EndComp
Text Label 8050 3950 2    50   ~ 0
DAC_THROTTLE
Text Label 8050 3850 2    50   ~ 0
DAC_BRAKE
Text Label 9650 2800 0    50   ~ 0
K_BRAKE_SWITCH
Text Label 9150 2900 2    50   ~ 0
K_12V
$Comp
L Isolator:PC827 U303
U 1 1 5ED71836
P 6700 1400
F 0 "U303" H 6700 1725 50  0000 C CNN
F 1 "PC827" H 6700 1634 50  0000 C CNN
F 2 "Package_DIP:DIP-8_W7.62mm" H 6500 1200 50  0001 L CIN
F 3 "http://optoelectronics.liteon.com/upload/download/DS-70-96-0016/LTV-8X7%20series.PDF" H 6700 1400 50  0001 L CNN
	1    6700 1400
	1    0    0    -1  
$EndComp
$Comp
L Isolator:PC827 U303
U 2 1 5ED730F9
P 6700 1950
F 0 "U303" H 6700 2275 50  0000 C CNN
F 1 "PC827" H 6700 2184 50  0000 C CNN
F 2 "Package_DIP:DIP-8_W7.62mm" H 6500 1750 50  0001 L CIN
F 3 "http://optoelectronics.liteon.com/upload/download/DS-70-96-0016/LTV-8X7%20series.PDF" H 6700 1950 50  0001 L CNN
	2    6700 1950
	1    0    0    -1  
$EndComp
$Comp
L Isolator:PC827 U304
U 2 1 5ED73F3A
P 6700 3050
F 0 "U304" H 6700 3375 50  0000 C CNN
F 1 "PC827" H 6700 3284 50  0000 C CNN
F 2 "Package_DIP:DIP-8_W7.62mm" H 6500 2850 50  0001 L CIN
F 3 "http://optoelectronics.liteon.com/upload/download/DS-70-96-0016/LTV-8X7%20series.PDF" H 6700 3050 50  0001 L CNN
	2    6700 3050
	1    0    0    -1  
$EndComp
$Comp
L Isolator:PC827 U304
U 1 1 5ED75284
P 6700 2500
F 0 "U304" H 6700 2825 50  0000 C CNN
F 1 "PC827" H 6700 2734 50  0000 C CNN
F 2 "Package_DIP:DIP-8_W7.62mm" H 6500 2300 50  0001 L CIN
F 3 "http://optoelectronics.liteon.com/upload/download/DS-70-96-0016/LTV-8X7%20series.PDF" H 6700 2500 50  0001 L CNN
	1    6700 2500
	1    0    0    -1  
$EndComp
Text Label 7000 1300 0    50   ~ 0
K_12V
Text Label 7000 1850 0    50   ~ 0
K_12V
Text Label 7000 2400 0    50   ~ 0
K_12V
Text Label 7000 2950 0    50   ~ 0
K_12V
Text Label 7000 2050 0    50   ~ 0
K_FORWARD
Text Label 9650 2700 0    50   ~ 0
K_REVERSE
Text Label 7000 1500 0    50   ~ 0
K_REVERSE
Text Label 7000 3150 0    50   ~ 0
K_ACCEL_SWITCH
Text Label 7000 2600 0    50   ~ 0
K_BRAKE_SWITCH
$Comp
L power:GND #PWR0147
U 1 1 5ED7CEF5
P 6400 3150
F 0 "#PWR0147" H 6400 2900 50  0001 C CNN
F 1 "GND" H 6405 2977 50  0000 C CNN
F 2 "" H 6400 3150 50  0001 C CNN
F 3 "" H 6400 3150 50  0001 C CNN
	1    6400 3150
	1    0    0    -1  
$EndComp
$Comp
L power:GND #PWR0148
U 1 1 5ED7D6EF
P 6400 2600
F 0 "#PWR0148" H 6400 2350 50  0001 C CNN
F 1 "GND" H 6405 2427 50  0000 C CNN
F 2 "" H 6400 2600 50  0001 C CNN
F 3 "" H 6400 2600 50  0001 C CNN
	1    6400 2600
	1    0    0    -1  
$EndComp
$Comp
L power:GND #PWR0149
U 1 1 5ED7DC46
P 6400 2050
F 0 "#PWR0149" H 6400 1800 50  0001 C CNN
F 1 "GND" H 6405 1877 50  0000 C CNN
F 2 "" H 6400 2050 50  0001 C CNN
F 3 "" H 6400 2050 50  0001 C CNN
	1    6400 2050
	1    0    0    -1  
$EndComp
$Comp
L power:GND #PWR0150
U 1 1 5ED7E1FA
P 6400 1500
F 0 "#PWR0150" H 6400 1250 50  0001 C CNN
F 1 "GND" H 6405 1327 50  0000 C CNN
F 2 "" H 6400 1500 50  0001 C CNN
F 3 "" H 6400 1500 50  0001 C CNN
	1    6400 1500
	1    0    0    -1  
$EndComp
Wire Wire Line
	9150 2150 9150 2600
$Comp
L Device:R R308
U 1 1 5ED83FA1
P 8250 2300
F 0 "R308" H 8320 2346 50  0000 L CNN
F 1 "10k" H 8320 2255 50  0000 L CNN
F 2 "Resistor_SMD:R_0603_1608Metric" V 8180 2300 50  0001 C CNN
F 3 "~" H 8250 2300 50  0001 C CNN
	1    8250 2300
	1    0    0    -1  
$EndComp
Wire Wire Line
	8350 2150 8250 2150
Wire Wire Line
	8250 2450 8550 2450
$Comp
L Transistor_FET:2N7002K Q301
U 1 1 5ED8592B
P 8150 2650
F 0 "Q301" H 8356 2696 50  0000 L CNN
F 1 "2N7002K" H 8356 2605 50  0000 L CNN
F 2 "Package_TO_SOT_SMD:SOT-23" H 8350 2575 50  0001 L CIN
F 3 "https://www.diodes.com/assets/Datasheets/ds30896.pdf" H 8150 2650 50  0001 L CNN
	1    8150 2650
	1    0    0    -1  
$EndComp
Connection ~ 8250 2450
$Comp
L Device:R R307
U 1 1 5ED894B3
P 7950 2500
F 0 "R307" H 8020 2546 50  0000 L CNN
F 1 "1k" H 8020 2455 50  0000 L CNN
F 2 "Resistor_SMD:R_0603_1608Metric" V 7880 2500 50  0001 C CNN
F 3 "~" H 7950 2500 50  0001 C CNN
	1    7950 2500
	1    0    0    -1  
$EndComp
$Comp
L power:GND #PWR0152
U 1 1 5ED91C1A
P 8250 2850
F 0 "#PWR0152" H 8250 2600 50  0001 C CNN
F 1 "GND" H 8255 2677 50  0000 C CNN
F 2 "" H 8250 2850 50  0001 C CNN
F 3 "" H 8250 2850 50  0001 C CNN
	1    8250 2850
	1    0    0    -1  
$EndComp
Text HLabel 5750 1300 0    50   Input ~ 0
FWD
Text HLabel 5750 1850 0    50   Input ~ 0
REV
Text HLabel 5750 2400 0    50   Input ~ 0
ACCEL_SW
Text HLabel 5750 2950 0    50   Input ~ 0
BRAKE_SW
Text HLabel 7950 2350 0    50   Input ~ 0
K_PWR
$Comp
L Device:R R303
U 1 1 5EDE6686
P 6150 1300
F 0 "R303" V 5943 1300 50  0000 C CNN
F 1 "1k" V 6034 1300 50  0000 C CNN
F 2 "Resistor_SMD:R_0603_1608Metric" V 6080 1300 50  0001 C CNN
F 3 "~" H 6150 1300 50  0001 C CNN
	1    6150 1300
	0    1    1    0   
$EndComp
$Comp
L Device:R R304
U 1 1 5EDE6D88
P 6150 1850
F 0 "R304" V 5943 1850 50  0000 C CNN
F 1 "1k" V 6034 1850 50  0000 C CNN
F 2 "Resistor_SMD:R_0603_1608Metric" V 6080 1850 50  0001 C CNN
F 3 "~" H 6150 1850 50  0001 C CNN
	1    6150 1850
	0    1    1    0   
$EndComp
$Comp
L Device:R R305
U 1 1 5EDE738F
P 6150 2400
F 0 "R305" V 5943 2400 50  0000 C CNN
F 1 "1k" V 6034 2400 50  0000 C CNN
F 2 "Resistor_SMD:R_0603_1608Metric" V 6080 2400 50  0001 C CNN
F 3 "~" H 6150 2400 50  0001 C CNN
	1    6150 2400
	0    1    1    0   
$EndComp
$Comp
L Device:R R306
U 1 1 5EDE7A48
P 6150 2950
F 0 "R306" V 5943 2950 50  0000 C CNN
F 1 "1k" V 6034 2950 50  0000 C CNN
F 2 "Resistor_SMD:R_0603_1608Metric" V 6080 2950 50  0001 C CNN
F 3 "~" H 6150 2950 50  0001 C CNN
	1    6150 2950
	0    1    1    0   
$EndComp
Wire Wire Line
	6000 1300 5750 1300
Wire Wire Line
	5750 1850 6000 1850
Wire Wire Line
	6000 2400 5750 2400
Wire Wire Line
	5750 2950 6000 2950
Wire Wire Line
	6300 2950 6400 2950
Wire Wire Line
	6400 2400 6300 2400
Wire Wire Line
	6300 1850 6400 1850
Wire Wire Line
	6400 1300 6300 1300
$Comp
L power:GND #PWR0154
U 1 1 5EDEBC64
P 6750 4350
F 0 "#PWR0154" H 6750 4100 50  0001 C CNN
F 1 "GND" H 6755 4177 50  0000 C CNN
F 2 "" H 6750 4350 50  0001 C CNN
F 3 "" H 6750 4350 50  0001 C CNN
	1    6750 4350
	1    0    0    -1  
$EndComp
Text HLabel 6150 3850 0    50   Input ~ 0
SCL
Text HLabel 6150 3950 0    50   Input ~ 0
SDA
$Comp
L power:+BATT #PWR0184
U 1 1 5EEC012D
P 8250 2150
F 0 "#PWR0184" H 8250 2000 50  0001 C CNN
F 1 "+BATT" H 8265 2323 50  0000 C CNN
F 2 "" H 8250 2150 50  0001 C CNN
F 3 "" H 8250 2150 50  0001 C CNN
	1    8250 2150
	1    0    0    -1  
$EndComp
Connection ~ 8250 2150
$Comp
L Device:C C?
U 1 1 5EF981D9
P 5600 3800
AR Path="/5EF981D9" Ref="C?"  Part="1" 
AR Path="/5ED62633/5EF981D9" Ref="C305"  Part="1" 
F 0 "C305" H 5715 3846 50  0000 L CNN
F 1 "1u" H 5715 3755 50  0000 L CNN
F 2 "Capacitor_SMD:C_0603_1608Metric_Pad1.05x0.95mm_HandSolder" H 5638 3650 50  0001 C CNN
F 3 "~" H 5600 3800 50  0001 C CNN
	1    5600 3800
	1    0    0    -1  
$EndComp
$Comp
L power:GND #PWR?
U 1 1 5EF981E5
P 5600 3950
AR Path="/5EF981E5" Ref="#PWR?"  Part="1" 
AR Path="/5ED62633/5EF981E5" Ref="#PWR0220"  Part="1" 
F 0 "#PWR0220" H 5600 3700 50  0001 C CNN
F 1 "GND" H 5605 3777 50  0000 C CNN
F 2 "" H 5600 3950 50  0001 C CNN
F 3 "" H 5600 3950 50  0001 C CNN
	1    5600 3950
	1    0    0    -1  
$EndComp
$Comp
L power:GND #PWR0221
U 1 1 5EFA079B
P 9650 4200
F 0 "#PWR0221" H 9650 3950 50  0001 C CNN
F 1 "GND" H 9655 4027 50  0000 C CNN
F 2 "" H 9650 4200 50  0001 C CNN
F 3 "" H 9650 4200 50  0001 C CNN
	1    9650 4200
	1    0    0    -1  
$EndComp
Text Label 9650 4100 0    50   ~ 0
DAC_THROTTLE
Text Label 9150 4200 2    50   ~ 0
DAC_BRAKE
Text Label 9150 4100 2    50   ~ 0
K_5V
Text Label 6750 3650 0    50   ~ 0
K_5V
Text Label 5600 3650 0    50   ~ 0
K_5V
$Comp
L Connector_Generic:Conn_02x03_Odd_Even J302
U 1 1 5F0427F6
P 9350 4100
F 0 "J302" H 9400 4417 50  0000 C CNN
F 1 "Kelly_can" H 9400 4326 50  0000 C CNN
F 2 "Micromelon:MC34331" H 9350 4100 50  0001 C CNN
F 3 "~" H 9350 4100 50  0001 C CNN
	1    9350 4100
	1    0    0    -1  
$EndComp
$Comp
L power:GND #PWR0151
U 1 1 5F045D86
P 9650 2600
F 0 "#PWR0151" H 9650 2350 50  0001 C CNN
F 1 "GND" H 9655 2427 50  0000 C CNN
F 2 "" H 9650 2600 50  0001 C CNN
F 3 "" H 9650 2600 50  0001 C CNN
	1    9650 2600
	0    -1   -1   0   
$EndComp
Text HLabel 9150 4000 0    50   Input ~ 0
Can_H
Text HLabel 9650 4000 2    50   Input ~ 0
Can_L
$Comp
L Connector_Generic:Conn_02x04_Odd_Even J301
U 1 1 5F0BF1F3
P 9350 2700
F 0 "J301" H 9400 3017 50  0000 C CNN
F 1 "Kelly_Power" H 9400 2926 50  0000 C CNN
F 2 "Micromelon:MC34333" H 9350 2700 50  0001 C CNN
F 3 "~" H 9350 2700 50  0001 C CNN
	1    9350 2700
	1    0    0    -1  
$EndComp
Text HLabel 10650 2350 0    50   Input ~ 0
DCDC
$Comp
L Device:Fuse F?
U 1 1 5F0313AC
P 8900 2150
AR Path="/5EDF4185/5F0313AC" Ref="F?"  Part="1" 
AR Path="/5ED62633/5F0313AC" Ref="F301"  Part="1" 
F 0 "F301" V 8703 2150 50  0000 C CNN
F 1 "2A" V 8794 2150 50  0000 C CNN
F 2 "Fuse:Fuseholder_Blade_Mini_Keystone_3568" V 8830 2150 50  0001 C CNN
F 3 "~" H 8900 2150 50  0001 C CNN
	1    8900 2150
	0    1    1    0   
$EndComp
Wire Wire Line
	9050 2150 9150 2150
Text Label 9150 2700 2    50   ~ 0
K_FORWARD
Text Label 9150 2800 2    50   ~ 0
K_ACCEL_SWITCH
$Comp
L Device:Q_PMOS_GDS Q201
U 1 1 5F05DBA2
P 8550 2250
F 0 "Q201" V 8893 2250 50  0000 C CNN
F 1 "FDD4243" V 8802 2250 50  0000 C CNN
F 2 "Package_TO_SOT_SMD:TO-252-2" H 8750 2350 50  0001 C CNN
F 3 "~" H 8550 2250 50  0001 C CNN
	1    8550 2250
	0    1    -1   0   
$EndComp
Wire Wire Line
	6150 4050 5900 4050
Wire Wire Line
	5900 4050 5900 4350
$Comp
L power:GND #PWR?
U 1 1 5FE36464
P 5900 4350
F 0 "#PWR?" H 5900 4100 50  0001 C CNN
F 1 "GND" H 5905 4177 50  0000 C CNN
F 2 "" H 5900 4350 50  0001 C CNN
F 3 "" H 5900 4350 50  0001 C CNN
	1    5900 4350
	1    0    0    -1  
$EndComp
$EndSCHEMATC
