EESchema Schematic File Version 4
LIBS:ECU-cache
EELAYER 29 0
EELAYER END
$Descr A4 11693 8268
encoding utf-8
Sheet 5 6
Title ""
Date ""
Rev ""
Comp ""
Comment1 ""
Comment2 ""
Comment3 ""
Comment4 ""
$EndDescr
$Comp
L Device:C C602
U 1 1 5EE5E235
P 2350 2000
F 0 "C602" H 2465 2046 50  0000 L CNN
F 1 "22uf" H 2465 1955 50  0000 L CNN
F 2 "Capacitor_SMD:C_0805_2012Metric" H 2388 1850 50  0001 C CNN
F 3 "~" H 2350 2000 50  0001 C CNN
	1    2350 2000
	1    0    0    -1  
$EndComp
$Comp
L Device:C C606
U 1 1 5EE5E773
P 5250 2000
F 0 "C606" H 5365 2046 50  0000 L CNN
F 1 "0.1u" H 5365 1955 50  0000 L CNN
F 2 "Capacitor_SMD:C_0603_1608Metric_Pad1.05x0.95mm_HandSolder" H 5288 1850 50  0001 C CNN
F 3 "~" H 5250 2000 50  0001 C CNN
	1    5250 2000
	1    0    0    -1  
$EndComp
$Comp
L Device:C C605
U 1 1 5EE5E830
P 4900 2550
F 0 "C605" H 5015 2596 50  0000 L CNN
F 1 "0.1u" H 5015 2505 50  0000 L CNN
F 2 "Capacitor_SMD:C_0603_1608Metric_Pad1.05x0.95mm_HandSolder" H 4938 2400 50  0001 C CNN
F 3 "~" H 4900 2550 50  0001 C CNN
	1    4900 2550
	1    0    0    -1  
$EndComp
$Comp
L Device:C C603
U 1 1 5EE5FD3C
P 3100 2100
F 0 "C603" H 3215 2146 50  0000 L CNN
F 1 "22uf" H 3215 2055 50  0000 L CNN
F 2 "Capacitor_SMD:C_0805_2012Metric" H 3138 1950 50  0001 C CNN
F 3 "~" H 3100 2100 50  0001 C CNN
	1    3100 2100
	1    0    0    -1  
$EndComp
$Comp
L Device:C C604
U 1 1 5EE607E1
P 3500 2100
F 0 "C604" H 3615 2146 50  0000 L CNN
F 1 "22uf" H 3615 2055 50  0000 L CNN
F 2 "Capacitor_SMD:C_0805_2012Metric" H 3538 1950 50  0001 C CNN
F 3 "~" H 3500 2100 50  0001 C CNN
	1    3500 2100
	1    0    0    -1  
$EndComp
$Comp
L Device:R R601
U 1 1 5EE6141E
P 3750 1400
F 0 "R601" H 3820 1446 50  0000 L CNN
F 1 "64.9" H 3820 1355 50  0000 L CNN
F 2 "Resistor_SMD:R_0603_1608Metric" V 3680 1400 50  0001 C CNN
F 3 "~" H 3750 1400 50  0001 C CNN
	1    3750 1400
	1    0    0    -1  
$EndComp
$Comp
L Device:R R604
U 1 1 5EE62868
P 4900 2250
F 0 "R604" H 4830 2204 50  0000 R CNN
F 1 "20" H 4830 2295 50  0000 R CNN
F 2 "Resistor_SMD:R_0603_1608Metric" V 4830 2250 50  0001 C CNN
F 3 "~" H 4900 2250 50  0001 C CNN
	1    4900 2250
	-1   0    0    1   
$EndComp
$Comp
L Device:R R605
U 1 1 5EE64BE6
P 5050 1150
F 0 "R605" H 4980 1104 50  0000 R CNN
F 1 "40.2k" H 4980 1195 50  0000 R CNN
F 2 "Resistor_SMD:R_0603_1608Metric" V 4980 1150 50  0001 C CNN
F 3 "~" H 5050 1150 50  0001 C CNN
	1    5050 1150
	-1   0    0    1   
$EndComp
$Comp
L Device:R R606
U 1 1 5EE652ED
P 5050 1450
F 0 "R606" H 4980 1404 50  0000 R CNN
F 1 "7.5k" H 4980 1495 50  0000 R CNN
F 2 "Resistor_SMD:R_0603_1608Metric" V 4980 1450 50  0001 C CNN
F 3 "~" H 5050 1450 50  0001 C CNN
	1    5050 1450
	-1   0    0    1   
$EndComp
$Comp
L Device:R R603
U 1 1 5EE663B7
P 4850 1300
F 0 "R603" V 5057 1300 50  0000 C CNN
F 1 "33k" V 4966 1300 50  0000 C CNN
F 2 "Resistor_SMD:R_0603_1608Metric" V 4780 1300 50  0001 C CNN
F 3 "~" H 4850 1300 50  0001 C CNN
	1    4850 1300
	0    -1   -1   0   
$EndComp
Wire Wire Line
	5000 1300 5050 1300
Connection ~ 5050 1300
$Comp
L ECU-rescue:mp2315-micromelon U601
U 1 1 5EE688C2
P 4200 1600
F 0 "U601" H 4225 1715 50  0000 C CNN
F 1 "mp2315" H 4225 1624 50  0000 C CNN
F 2 "Package_TO_SOT_SMD:SOT-23-8" H 4200 1600 50  0001 C CNN
F 3 "" H 4200 1600 50  0001 C CNN
	1    4200 1600
	1    0    0    -1  
$EndComp
Wire Wire Line
	4550 2050 4900 2050
Wire Wire Line
	4900 2050 4900 2100
$Comp
L Device:R R602
U 1 1 5EE6B187
P 4700 1950
F 0 "R602" V 4907 1950 50  0000 C CNN
F 1 "100k" V 4816 1950 50  0000 C CNN
F 2 "Resistor_SMD:R_0603_1608Metric" V 4630 1950 50  0001 C CNN
F 3 "~" H 4700 1950 50  0001 C CNN
	1    4700 1950
	0    -1   -1   0   
$EndComp
Wire Wire Line
	4550 1850 5250 1850
$Comp
L power:GND #PWR0192
U 1 1 5EE6C4BC
P 4900 2700
F 0 "#PWR0192" H 4900 2450 50  0001 C CNN
F 1 "GND" H 4905 2527 50  0000 C CNN
F 2 "" H 4900 2700 50  0001 C CNN
F 3 "" H 4900 2700 50  0001 C CNN
	1    4900 2700
	1    0    0    -1  
$EndComp
$Comp
L power:GND #PWR0193
U 1 1 5EE6CA3E
P 5250 2150
F 0 "#PWR0193" H 5250 1900 50  0001 C CNN
F 1 "GND" H 5255 1977 50  0000 C CNN
F 2 "" H 5250 2150 50  0001 C CNN
F 3 "" H 5250 2150 50  0001 C CNN
	1    5250 2150
	1    0    0    -1  
$EndComp
$Comp
L power:+BATT #PWR0194
U 1 1 5EEB4B5E
P 2350 1600
F 0 "#PWR0194" H 2350 1450 50  0001 C CNN
F 1 "+BATT" H 2365 1773 50  0000 C CNN
F 2 "" H 2350 1600 50  0001 C CNN
F 3 "" H 2350 1600 50  0001 C CNN
	1    2350 1600
	1    0    0    -1  
$EndComp
Wire Wire Line
	2350 1850 2350 1600
$Comp
L Device:L L601
U 1 1 5EF06020
P 3750 1950
F 0 "L601" V 3940 1950 50  0000 C CNN
F 1 "4.2uH" V 3849 1950 50  0000 C CNN
F 2 "Inductor_SMD:L_Bourns_SRR1210A" H 3750 1950 50  0001 C CNN
F 3 "~" H 3750 1950 50  0001 C CNN
	1    3750 1950
	0    -1   -1   0   
$EndComp
Wire Wire Line
	3100 1950 3500 1950
Wire Wire Line
	2350 1850 3900 1850
Wire Wire Line
	3500 1950 3600 1950
Connection ~ 3500 1950
$Comp
L power:GND #PWR0196
U 1 1 5EF0B205
P 3500 2250
F 0 "#PWR0196" H 3500 2000 50  0001 C CNN
F 1 "GND" H 3505 2077 50  0000 C CNN
F 2 "" H 3500 2250 50  0001 C CNN
F 3 "" H 3500 2250 50  0001 C CNN
	1    3500 2250
	1    0    0    -1  
$EndComp
$Comp
L power:GND #PWR0197
U 1 1 5EF0BD18
P 3100 2250
F 0 "#PWR0197" H 3100 2000 50  0001 C CNN
F 1 "GND" H 3105 2077 50  0000 C CNN
F 2 "" H 3100 2250 50  0001 C CNN
F 3 "" H 3100 2250 50  0001 C CNN
	1    3100 2250
	1    0    0    -1  
$EndComp
$Comp
L power:GND #PWR0198
U 1 1 5EF0C1E5
P 3900 2050
F 0 "#PWR0198" H 3900 1800 50  0001 C CNN
F 1 "GND" H 3905 1877 50  0000 C CNN
F 2 "" H 3900 2050 50  0001 C CNN
F 3 "" H 3900 2050 50  0001 C CNN
	1    3900 2050
	1    0    0    -1  
$EndComp
Wire Wire Line
	3900 1750 3900 1550
Wire Wire Line
	3900 1550 3750 1550
$Comp
L power:GND #PWR0199
U 1 1 5EF0CFC5
P 3750 1250
F 0 "#PWR0199" H 3750 1000 50  0001 C CNN
F 1 "GND" H 3755 1077 50  0000 C CNN
F 2 "" H 3750 1250 50  0001 C CNN
F 3 "" H 3750 1250 50  0001 C CNN
	1    3750 1250
	-1   0    0    1   
$EndComp
Connection ~ 2350 1850
$Comp
L Device:C C601
U 1 1 5EF0E346
P 1900 2000
F 0 "C601" H 2015 2046 50  0000 L CNN
F 1 "22uf" H 2015 1955 50  0000 L CNN
F 2 "Capacitor_SMD:C_0805_2012Metric" H 1938 1850 50  0001 C CNN
F 3 "~" H 1900 2000 50  0001 C CNN
	1    1900 2000
	1    0    0    -1  
$EndComp
Wire Wire Line
	1900 1850 2350 1850
$Comp
L power:GND #PWR0200
U 1 1 5EF0F32B
P 2350 2150
F 0 "#PWR0200" H 2350 1900 50  0001 C CNN
F 1 "GND" H 2355 1977 50  0000 C CNN
F 2 "" H 2350 2150 50  0001 C CNN
F 3 "" H 2350 2150 50  0001 C CNN
	1    2350 2150
	1    0    0    -1  
$EndComp
$Comp
L power:GND #PWR0201
U 1 1 5EF0F9C3
P 1900 2150
F 0 "#PWR0201" H 1900 1900 50  0001 C CNN
F 1 "GND" H 1905 1977 50  0000 C CNN
F 2 "" H 1900 2150 50  0001 C CNN
F 3 "" H 1900 2150 50  0001 C CNN
	1    1900 2150
	1    0    0    -1  
$EndComp
$Comp
L power:+BATT #PWR0202
U 1 1 5EF0FD98
P 4850 1950
F 0 "#PWR0202" H 4850 1800 50  0001 C CNN
F 1 "+BATT" V 4865 2078 50  0000 L CNN
F 2 "" H 4850 1950 50  0001 C CNN
F 3 "" H 4850 1950 50  0001 C CNN
	1    4850 1950
	0    1    1    0   
$EndComp
Wire Wire Line
	4700 1300 4550 1300
Wire Wire Line
	4550 1300 4550 1750
$Comp
L power:GND #PWR0204
U 1 1 5EF1319A
P 5050 1600
F 0 "#PWR0204" H 5050 1350 50  0001 C CNN
F 1 "GND" H 5055 1427 50  0000 C CNN
F 2 "" H 5050 1600 50  0001 C CNN
F 3 "" H 5050 1600 50  0001 C CNN
	1    5050 1600
	1    0    0    -1  
$EndComp
$Comp
L Device:C C607
U 1 1 5EF139BE
P 5500 1150
F 0 "C607" H 5615 1196 50  0000 L CNN
F 1 "33p" H 5615 1105 50  0000 L CNN
F 2 "Capacitor_SMD:C_0603_1608Metric_Pad1.05x0.95mm_HandSolder" H 5538 1000 50  0001 C CNN
F 3 "~" H 5500 1150 50  0001 C CNN
	1    5500 1150
	1    0    0    -1  
$EndComp
Wire Wire Line
	5500 1300 5050 1300
Wire Wire Line
	5050 1000 5500 1000
$Comp
L power:+5V #PWR0123
U 1 1 5F3AAF66
P 5050 1000
F 0 "#PWR0123" H 5050 850 50  0001 C CNN
F 1 "+5V" H 5065 1173 50  0000 C CNN
F 2 "" H 5050 1000 50  0001 C CNN
F 3 "" H 5050 1000 50  0001 C CNN
	1    5050 1000
	1    0    0    -1  
$EndComp
Connection ~ 5050 1000
$Comp
L power:+5V #PWR0124
U 1 1 5F3AB8F8
P 3100 1950
F 0 "#PWR0124" H 3100 1800 50  0001 C CNN
F 1 "+5V" V 3115 2078 50  0000 L CNN
F 2 "" H 3100 1950 50  0001 C CNN
F 3 "" H 3100 1950 50  0001 C CNN
	1    3100 1950
	0    -1   -1   0   
$EndComp
Connection ~ 3100 1950
$Comp
L Regulator_Linear:AMS1117 U?
U 1 1 5F3B6CC1
P 7650 1550
AR Path="/5F3B6CC1" Ref="U?"  Part="1" 
AR Path="/5D474AF3/5F3B6CC1" Ref="U?"  Part="1" 
AR Path="/5EE8D555/5F3B6CC1" Ref="U?"  Part="1" 
AR Path="/5EE5AFF5/5F3B6CC1" Ref="U501"  Part="1" 
F 0 "U501" H 7650 1792 50  0000 C CNN
F 1 "AMS1117" H 7650 1701 50  0000 C CNN
F 2 "Package_TO_SOT_SMD:SOT-223-3_TabPin2" H 7650 1750 50  0001 C CNN
F 3 "http://www.advanced-monolithic.com/pdf/ds1117.pdf" H 7750 1300 50  0001 C CNN
	1    7650 1550
	1    0    0    -1  
$EndComp
$Comp
L power:+3.3V #PWR?
U 1 1 5F3B6CC7
P 8050 1550
AR Path="/5F3B6CC7" Ref="#PWR?"  Part="1" 
AR Path="/5D474AF3/5F3B6CC7" Ref="#PWR?"  Part="1" 
AR Path="/5EE8D555/5F3B6CC7" Ref="#PWR?"  Part="1" 
AR Path="/5EE5AFF5/5F3B6CC7" Ref="#PWR0125"  Part="1" 
F 0 "#PWR0125" H 8050 1400 50  0001 C CNN
F 1 "+3.3V" H 8065 1723 50  0000 C CNN
F 2 "" H 8050 1550 50  0001 C CNN
F 3 "" H 8050 1550 50  0001 C CNN
	1    8050 1550
	1    0    0    -1  
$EndComp
$Comp
L power:GND #PWR?
U 1 1 5F3B6CCD
P 7650 1850
AR Path="/5F3B6CCD" Ref="#PWR?"  Part="1" 
AR Path="/5D474AF3/5F3B6CCD" Ref="#PWR?"  Part="1" 
AR Path="/5EE8D555/5F3B6CCD" Ref="#PWR?"  Part="1" 
AR Path="/5EE5AFF5/5F3B6CCD" Ref="#PWR0126"  Part="1" 
F 0 "#PWR0126" H 7650 1600 50  0001 C CNN
F 1 "GND" H 7655 1677 50  0000 C CNN
F 2 "" H 7650 1850 50  0001 C CNN
F 3 "" H 7650 1850 50  0001 C CNN
	1    7650 1850
	1    0    0    -1  
$EndComp
Wire Wire Line
	8050 1550 7950 1550
Wire Wire Line
	7350 1550 7250 1550
Text Notes 8650 1300 0    50   ~ 0
3.3V REGULATOR
$Comp
L Device:C C?
U 1 1 5F3B6CD6
P 7250 1700
AR Path="/5F3B6CD6" Ref="C?"  Part="1" 
AR Path="/5D474AF3/5F3B6CD6" Ref="C?"  Part="1" 
AR Path="/5EE8D555/5F3B6CD6" Ref="C?"  Part="1" 
AR Path="/5EE5AFF5/5F3B6CD6" Ref="C503"  Part="1" 
F 0 "C503" H 6950 1750 50  0000 L CNN
F 1 "10uF" H 6950 1650 50  0000 L CNN
F 2 "Capacitor_SMD:C_0603_1608Metric" H 7288 1550 50  0001 C CNN
F 3 "~" H 7250 1700 50  0001 C CNN
	1    7250 1700
	1    0    0    -1  
$EndComp
$Comp
L Device:C C?
U 1 1 5F3B6CDC
P 8050 1700
AR Path="/5F3B6CDC" Ref="C?"  Part="1" 
AR Path="/5D474AF3/5F3B6CDC" Ref="C?"  Part="1" 
AR Path="/5EE8D555/5F3B6CDC" Ref="C?"  Part="1" 
AR Path="/5EE5AFF5/5F3B6CDC" Ref="C507"  Part="1" 
F 0 "C507" H 8165 1746 50  0000 L CNN
F 1 "10uF" H 8165 1655 50  0000 L CNN
F 2 "Capacitor_SMD:C_0603_1608Metric" H 8088 1550 50  0001 C CNN
F 3 "~" H 8050 1700 50  0001 C CNN
	1    8050 1700
	1    0    0    -1  
$EndComp
Connection ~ 8050 1550
$Comp
L power:GND #PWR?
U 1 1 5F3B6CE3
P 7250 1850
AR Path="/5F3B6CE3" Ref="#PWR?"  Part="1" 
AR Path="/5D474AF3/5F3B6CE3" Ref="#PWR?"  Part="1" 
AR Path="/5EE8D555/5F3B6CE3" Ref="#PWR?"  Part="1" 
AR Path="/5EE5AFF5/5F3B6CE3" Ref="#PWR0127"  Part="1" 
F 0 "#PWR0127" H 7250 1600 50  0001 C CNN
F 1 "GND" H 7255 1677 50  0000 C CNN
F 2 "" H 7250 1850 50  0001 C CNN
F 3 "" H 7250 1850 50  0001 C CNN
	1    7250 1850
	1    0    0    -1  
$EndComp
$Comp
L power:GND #PWR?
U 1 1 5F3B6CE9
P 8050 1850
AR Path="/5F3B6CE9" Ref="#PWR?"  Part="1" 
AR Path="/5D474AF3/5F3B6CE9" Ref="#PWR?"  Part="1" 
AR Path="/5EE8D555/5F3B6CE9" Ref="#PWR?"  Part="1" 
AR Path="/5EE5AFF5/5F3B6CE9" Ref="#PWR0128"  Part="1" 
F 0 "#PWR0128" H 8050 1600 50  0001 C CNN
F 1 "GND" H 8055 1677 50  0000 C CNN
F 2 "" H 8050 1850 50  0001 C CNN
F 3 "" H 8050 1850 50  0001 C CNN
	1    8050 1850
	1    0    0    -1  
$EndComp
$Comp
L Device:C C?
U 1 1 5F3B6CEF
P 8350 1700
AR Path="/5F3B6CEF" Ref="C?"  Part="1" 
AR Path="/5D474AF3/5F3B6CEF" Ref="C?"  Part="1" 
AR Path="/5EE8D555/5F3B6CEF" Ref="C?"  Part="1" 
AR Path="/5EE5AFF5/5F3B6CEF" Ref="C509"  Part="1" 
F 0 "C509" H 8465 1746 50  0000 L CNN
F 1 "10uF" H 8465 1655 50  0000 L CNN
F 2 "Capacitor_SMD:C_0603_1608Metric" H 8388 1550 50  0001 C CNN
F 3 "~" H 8350 1700 50  0001 C CNN
	1    8350 1700
	1    0    0    -1  
$EndComp
$Comp
L power:GND #PWR?
U 1 1 5F3B6CF5
P 8350 1850
AR Path="/5F3B6CF5" Ref="#PWR?"  Part="1" 
AR Path="/5D474AF3/5F3B6CF5" Ref="#PWR?"  Part="1" 
AR Path="/5EE8D555/5F3B6CF5" Ref="#PWR?"  Part="1" 
AR Path="/5EE5AFF5/5F3B6CF5" Ref="#PWR0129"  Part="1" 
F 0 "#PWR0129" H 8350 1600 50  0001 C CNN
F 1 "GND" H 8355 1677 50  0000 C CNN
F 2 "" H 8350 1850 50  0001 C CNN
F 3 "" H 8350 1850 50  0001 C CNN
	1    8350 1850
	1    0    0    -1  
$EndComp
$Comp
L power:+5V #PWR?
U 1 1 5F3B6CFB
P 7250 1550
AR Path="/5F3B6CFB" Ref="#PWR?"  Part="1" 
AR Path="/5D474AF3/5F3B6CFB" Ref="#PWR?"  Part="1" 
AR Path="/5EE8D555/5F3B6CFB" Ref="#PWR?"  Part="1" 
AR Path="/5EE5AFF5/5F3B6CFB" Ref="#PWR0130"  Part="1" 
F 0 "#PWR0130" H 7250 1400 50  0001 C CNN
F 1 "+5V" V 7265 1678 50  0000 L CNN
F 2 "" H 7250 1550 50  0001 C CNN
F 3 "" H 7250 1550 50  0001 C CNN
	1    7250 1550
	1    0    0    -1  
$EndComp
Connection ~ 7250 1550
Wire Wire Line
	8350 1550 8050 1550
$Comp
L power:GND #PWR?
U 1 1 5F3B6D03
P 6950 2450
AR Path="/5F3B6D03" Ref="#PWR?"  Part="1" 
AR Path="/5D474AF3/5F3B6D03" Ref="#PWR?"  Part="1" 
AR Path="/5EE8D555/5F3B6D03" Ref="#PWR?"  Part="1" 
AR Path="/5EE5AFF5/5F3B6D03" Ref="#PWR0140"  Part="1" 
F 0 "#PWR0140" H 6950 2200 50  0001 C CNN
F 1 "GND" H 6955 2277 50  0000 C CNN
F 2 "" H 6950 2450 50  0001 C CNN
F 3 "" H 6950 2450 50  0001 C CNN
	1    6950 2450
	1    0    0    -1  
$EndComp
$Comp
L Device:CP C?
U 1 1 5F3B6D09
P 6950 2300
AR Path="/5F3B6D09" Ref="C?"  Part="1" 
AR Path="/5D474AF3/5F3B6D09" Ref="C?"  Part="1" 
AR Path="/5EE8D555/5F3B6D09" Ref="C?"  Part="1" 
AR Path="/5EE5AFF5/5F3B6D09" Ref="C501"  Part="1" 
F 0 "C501" H 7068 2346 50  0000 L CNN
F 1 "100uF" H 7068 2255 50  0000 L CNN
F 2 "Capacitor_Tantalum_SMD:CP_EIA-3528-21_Kemet-B" H 6988 2150 50  0001 C CNN
F 3 "~" H 6950 2300 50  0001 C CNN
	1    6950 2300
	1    0    0    -1  
$EndComp
$Comp
L power:+3.3V #PWR?
U 1 1 5F3B6D0F
P 6950 2150
AR Path="/5F3B6D0F" Ref="#PWR?"  Part="1" 
AR Path="/5D474AF3/5F3B6D0F" Ref="#PWR?"  Part="1" 
AR Path="/5EE8D555/5F3B6D0F" Ref="#PWR?"  Part="1" 
AR Path="/5EE5AFF5/5F3B6D0F" Ref="#PWR0142"  Part="1" 
F 0 "#PWR0142" H 6950 2000 50  0001 C CNN
F 1 "+3.3V" H 6965 2323 50  0000 C CNN
F 2 "" H 6950 2150 50  0001 C CNN
F 3 "" H 6950 2150 50  0001 C CNN
	1    6950 2150
	1    0    0    -1  
$EndComp
$Comp
L Device:CP C?
U 1 1 5F3B6D15
P 7400 2300
AR Path="/5F3B6D15" Ref="C?"  Part="1" 
AR Path="/5D474AF3/5F3B6D15" Ref="C?"  Part="1" 
AR Path="/5EE8D555/5F3B6D15" Ref="C?"  Part="1" 
AR Path="/5EE5AFF5/5F3B6D15" Ref="C505"  Part="1" 
F 0 "C505" H 7518 2346 50  0000 L CNN
F 1 "100uF" H 7518 2255 50  0000 L CNN
F 2 "Capacitor_Tantalum_SMD:CP_EIA-3528-21_Kemet-B" H 7438 2150 50  0001 C CNN
F 3 "~" H 7400 2300 50  0001 C CNN
	1    7400 2300
	1    0    0    -1  
$EndComp
Wire Wire Line
	7400 2150 6950 2150
Connection ~ 6950 2150
Wire Wire Line
	7400 2450 6950 2450
Connection ~ 6950 2450
$Comp
L Regulator_Linear:AMS1117 U?
U 1 1 5F3BA9A2
P 7700 3250
AR Path="/5F3BA9A2" Ref="U?"  Part="1" 
AR Path="/5D474AF3/5F3BA9A2" Ref="U?"  Part="1" 
AR Path="/5EE8D555/5F3BA9A2" Ref="U?"  Part="1" 
AR Path="/5EE5AFF5/5F3BA9A2" Ref="U502"  Part="1" 
F 0 "U502" H 7700 3492 50  0000 C CNN
F 1 "AMS1117" H 7700 3401 50  0000 C CNN
F 2 "Package_TO_SOT_SMD:SOT-223-3_TabPin2" H 7700 3450 50  0001 C CNN
F 3 "http://www.advanced-monolithic.com/pdf/ds1117.pdf" H 7800 3000 50  0001 C CNN
	1    7700 3250
	1    0    0    -1  
$EndComp
$Comp
L power:GND #PWR?
U 1 1 5F3BA9AE
P 7700 3550
AR Path="/5F3BA9AE" Ref="#PWR?"  Part="1" 
AR Path="/5D474AF3/5F3BA9AE" Ref="#PWR?"  Part="1" 
AR Path="/5EE8D555/5F3BA9AE" Ref="#PWR?"  Part="1" 
AR Path="/5EE5AFF5/5F3BA9AE" Ref="#PWR0143"  Part="1" 
F 0 "#PWR0143" H 7700 3300 50  0001 C CNN
F 1 "GND" H 7705 3377 50  0000 C CNN
F 2 "" H 7700 3550 50  0001 C CNN
F 3 "" H 7700 3550 50  0001 C CNN
	1    7700 3550
	1    0    0    -1  
$EndComp
Wire Wire Line
	8100 3250 8000 3250
Wire Wire Line
	7400 3250 7300 3250
Text Notes 8700 3000 0    50   ~ 0
3.3V REGULATOR
$Comp
L Device:C C?
U 1 1 5F3BA9B7
P 7300 3400
AR Path="/5F3BA9B7" Ref="C?"  Part="1" 
AR Path="/5D474AF3/5F3BA9B7" Ref="C?"  Part="1" 
AR Path="/5EE8D555/5F3BA9B7" Ref="C?"  Part="1" 
AR Path="/5EE5AFF5/5F3BA9B7" Ref="C504"  Part="1" 
F 0 "C504" H 7000 3450 50  0000 L CNN
F 1 "10uF" H 7000 3350 50  0000 L CNN
F 2 "Capacitor_SMD:C_0603_1608Metric" H 7338 3250 50  0001 C CNN
F 3 "~" H 7300 3400 50  0001 C CNN
	1    7300 3400
	1    0    0    -1  
$EndComp
Connection ~ 8100 3250
$Comp
L power:GND #PWR?
U 1 1 5F3BA9C4
P 7300 3550
AR Path="/5F3BA9C4" Ref="#PWR?"  Part="1" 
AR Path="/5D474AF3/5F3BA9C4" Ref="#PWR?"  Part="1" 
AR Path="/5EE8D555/5F3BA9C4" Ref="#PWR?"  Part="1" 
AR Path="/5EE5AFF5/5F3BA9C4" Ref="#PWR0158"  Part="1" 
F 0 "#PWR0158" H 7300 3300 50  0001 C CNN
F 1 "GND" H 7305 3377 50  0000 C CNN
F 2 "" H 7300 3550 50  0001 C CNN
F 3 "" H 7300 3550 50  0001 C CNN
	1    7300 3550
	1    0    0    -1  
$EndComp
$Comp
L power:GND #PWR?
U 1 1 5F3BA9CA
P 8100 3550
AR Path="/5F3BA9CA" Ref="#PWR?"  Part="1" 
AR Path="/5D474AF3/5F3BA9CA" Ref="#PWR?"  Part="1" 
AR Path="/5EE8D555/5F3BA9CA" Ref="#PWR?"  Part="1" 
AR Path="/5EE5AFF5/5F3BA9CA" Ref="#PWR0195"  Part="1" 
F 0 "#PWR0195" H 8100 3300 50  0001 C CNN
F 1 "GND" H 8105 3377 50  0000 C CNN
F 2 "" H 8100 3550 50  0001 C CNN
F 3 "" H 8100 3550 50  0001 C CNN
	1    8100 3550
	1    0    0    -1  
$EndComp
$Comp
L Device:C C?
U 1 1 5F3BA9D0
P 8100 3400
AR Path="/5F3BA9D0" Ref="C?"  Part="1" 
AR Path="/5D474AF3/5F3BA9D0" Ref="C?"  Part="1" 
AR Path="/5EE8D555/5F3BA9D0" Ref="C?"  Part="1" 
AR Path="/5EE5AFF5/5F3BA9D0" Ref="C510"  Part="1" 
F 0 "C510" H 8215 3446 50  0000 L CNN
F 1 "10uF" H 8215 3355 50  0000 L CNN
F 2 "Capacitor_SMD:C_0603_1608Metric" H 8138 3250 50  0001 C CNN
F 3 "~" H 8100 3400 50  0001 C CNN
	1    8100 3400
	1    0    0    -1  
$EndComp
$Comp
L power:+5V #PWR?
U 1 1 5F3BA9DC
P 7300 3250
AR Path="/5F3BA9DC" Ref="#PWR?"  Part="1" 
AR Path="/5D474AF3/5F3BA9DC" Ref="#PWR?"  Part="1" 
AR Path="/5EE8D555/5F3BA9DC" Ref="#PWR?"  Part="1" 
AR Path="/5EE5AFF5/5F3BA9DC" Ref="#PWR0231"  Part="1" 
F 0 "#PWR0231" H 7300 3100 50  0001 C CNN
F 1 "+5V" V 7315 3378 50  0000 L CNN
F 2 "" H 7300 3250 50  0001 C CNN
F 3 "" H 7300 3250 50  0001 C CNN
	1    7300 3250
	1    0    0    -1  
$EndComp
Connection ~ 7300 3250
$Comp
L power:GND #PWR?
U 1 1 5F3BA9E4
P 7000 4150
AR Path="/5F3BA9E4" Ref="#PWR?"  Part="1" 
AR Path="/5D474AF3/5F3BA9E4" Ref="#PWR?"  Part="1" 
AR Path="/5EE8D555/5F3BA9E4" Ref="#PWR?"  Part="1" 
AR Path="/5EE5AFF5/5F3BA9E4" Ref="#PWR0232"  Part="1" 
F 0 "#PWR0232" H 7000 3900 50  0001 C CNN
F 1 "GND" H 7005 3977 50  0000 C CNN
F 2 "" H 7000 4150 50  0001 C CNN
F 3 "" H 7000 4150 50  0001 C CNN
	1    7000 4150
	1    0    0    -1  
$EndComp
$Comp
L Device:CP C?
U 1 1 5F3BA9EA
P 7000 4000
AR Path="/5F3BA9EA" Ref="C?"  Part="1" 
AR Path="/5D474AF3/5F3BA9EA" Ref="C?"  Part="1" 
AR Path="/5EE8D555/5F3BA9EA" Ref="C?"  Part="1" 
AR Path="/5EE5AFF5/5F3BA9EA" Ref="C502"  Part="1" 
F 0 "C502" H 7118 4046 50  0000 L CNN
F 1 "100uF" H 7118 3955 50  0000 L CNN
F 2 "Capacitor_Tantalum_SMD:CP_EIA-3528-21_Kemet-B" H 7038 3850 50  0001 C CNN
F 3 "~" H 7000 4000 50  0001 C CNN
	1    7000 4000
	1    0    0    -1  
$EndComp
$Comp
L power:+3.3VA #PWR0233
U 1 1 5F3BAE66
P 8100 3250
F 0 "#PWR0233" H 8100 3100 50  0001 C CNN
F 1 "+3.3VA" H 8115 3423 50  0000 C CNN
F 2 "" H 8100 3250 50  0001 C CNN
F 3 "" H 8100 3250 50  0001 C CNN
	1    8100 3250
	1    0    0    -1  
$EndComp
$Comp
L power:+3.3VA #PWR0234
U 1 1 5F3BC7A3
P 7000 3850
F 0 "#PWR0234" H 7000 3700 50  0001 C CNN
F 1 "+3.3VA" H 7015 4023 50  0000 C CNN
F 2 "" H 7000 3850 50  0001 C CNN
F 3 "" H 7000 3850 50  0001 C CNN
	1    7000 3850
	1    0    0    -1  
$EndComp
$Comp
L Device:CP C?
U 1 1 5F27088D
P 5550 2800
AR Path="/5F27088D" Ref="C?"  Part="1" 
AR Path="/5D474AF3/5F27088D" Ref="C?"  Part="1" 
AR Path="/5EE8D555/5F27088D" Ref="C?"  Part="1" 
AR Path="/5EE5AFF5/5F27088D" Ref="C506"  Part="1" 
F 0 "C506" H 5668 2846 50  0000 L CNN
F 1 "100uF" H 5668 2755 50  0000 L CNN
F 2 "Capacitor_Tantalum_SMD:CP_EIA-3528-21_Kemet-B" H 5588 2650 50  0001 C CNN
F 3 "~" H 5550 2800 50  0001 C CNN
	1    5550 2800
	1    0    0    -1  
$EndComp
$Comp
L power:+5V #PWR0238
U 1 1 5F270D74
P 5550 2650
F 0 "#PWR0238" H 5550 2500 50  0001 C CNN
F 1 "+5V" V 5565 2778 50  0000 L CNN
F 2 "" H 5550 2650 50  0001 C CNN
F 3 "" H 5550 2650 50  0001 C CNN
	1    5550 2650
	1    0    0    -1  
$EndComp
$Comp
L power:GND #PWR0239
U 1 1 5F271687
P 5550 2950
F 0 "#PWR0239" H 5550 2700 50  0001 C CNN
F 1 "GND" H 5555 2777 50  0000 C CNN
F 2 "" H 5550 2950 50  0001 C CNN
F 3 "" H 5550 2950 50  0001 C CNN
	1    5550 2950
	1    0    0    -1  
$EndComp
$EndSCHEMATC
