G04 #@! TF.GenerationSoftware,KiCad,Pcbnew,(5.1.2)-1*
G04 #@! TF.CreationDate,2020-07-17T18:27:11+10:00*
G04 #@! TF.ProjectId,ECU,4543552e-6b69-4636-9164-5f7063625858,rev?*
G04 #@! TF.SameCoordinates,Original*
G04 #@! TF.FileFunction,Profile,NP*
%FSLAX46Y46*%
G04 Gerber Fmt 4.6, Leading zero omitted, Abs format (unit mm)*
G04 Created by KiCad (PCBNEW (5.1.2)-1) date 2020-07-17 18:27:11*
%MOMM*%
%LPD*%
G04 APERTURE LIST*
%ADD10C,0.050000*%
G04 APERTURE END LIST*
D10*
X226400000Y-136900000D02*
X226400000Y-36900000D01*
X76400000Y-136900000D02*
X226400000Y-136900000D01*
X76400000Y-36900000D02*
X76400000Y-136900000D01*
X226400000Y-36900000D02*
X76400000Y-36900000D01*
M02*
